id,parent_id,country,landscape_no,hh_refno,round,field_no,crop_name,ag6a_02,ag6a_05,ag6a_08_1,ag6a_08_2,ag6a_09
TZA-L03-H02-1-M1-Avocado,TZA-L03-H02-1-M1,TZA,L03,TZA-L03-H02,1,M1,Avocado,7,TRUE,50,NA,10000
TZA-L03-H02-1-M1-sugarCane,TZA-L03-H02-1-M1,TZA,L03,TZA-L03-H02,1,M1,sugar Cane,12,TRUE,10,NA,3000
TZA-L03-H02-1-M2-Avocado,TZA-L03-H02-1-M2,TZA,L03,TZA-L03-H02,1,M2,Avocado,1,TRUE,20,NA,4000
TZA-L03-H02-1-M2-sugarCane,TZA-L03-H02-1-M2,TZA,L03,TZA-L03-H02,1,M2,sugar Cane,15,TRUE,10,NA,3000
TZA-L03-H05-1-M1-Avocado,TZA-L03-H05-1-M1,TZA,L03,TZA-L03-H05,1,M1,Avocado,3,TRUE,0,NA,0
TZA-L03-H05-1-M1-Banana,TZA-L03-H05-1-M1,TZA,L03,TZA-L03-H05,1,M1,Banana,20,TRUE,25,NA,25000
TZA-L03-H05-1-M1-Guava,TZA-L03-H05-1-M1,TZA,L03,TZA-L03-H05,1,M1,Guava,2,TRUE,5,NA,5000
TZA-L03-H05-1-M1-sugarCane,TZA-L03-H05-1-M1,TZA,L03,TZA-L03-H05,1,M1,sugar Cane,20,TRUE,10,NA,5000
TZA-L03-H07-1-M3-Avocado,TZA-L03-H07-1-M3,TZA,L03,TZA-L03-H07,1,M3,Avocado,5,TRUE,0,NA,0
TZA-L03-H07-1-M3-Banana,TZA-L03-H07-1-M3,TZA,L03,TZA-L03-H07,1,M3,Banana,30,TRUE,10,NA,6000
TZA-L03-H07-1-M3-Cassava,TZA-L03-H07-1-M3,TZA,L03,TZA-L03-H07,1,M3,Cassava,50,TRUE,20,NA,40000
TZA-L03-H07-1-M3-Coffee,TZA-L03-H07-1-M3,TZA,L03,TZA-L03-H07,1,M3,Coffee,10,TRUE,0,NA,0
TZA-L03-H07-1-M3-Guava,TZA-L03-H07-1-M3,TZA,L03,TZA-L03-H07,1,M3,Guava,5,TRUE,0,NA,0
TZA-L03-H07-1-M3-Papaw,TZA-L03-H07-1-M3,TZA,L03,TZA-L03-H07,1,M3,Papaw,5,TRUE,20,NA,10000
TZA-L03-H07-1-M3-Plum,TZA-L03-H07-1-M3,TZA,L03,TZA-L03-H07,1,M3,Plum,3,TRUE,0,NA,0
TZA-L03-H07-1-M4-Timber,TZA-L03-H07-1-M4,TZA,L03,TZA-L03-H07,1,M4,Timber,100,FALSE,0,NA,0
TZA-L03-H08-1-M1-Banana,TZA-L03-H08-1-M1,TZA,L03,TZA-L03-H08,1,M1,Banana,16,TRUE,65,NA,7800
TZA-L03-H08-1-M2-Banana,TZA-L03-H08-1-M2,TZA,L03,TZA-L03-H08,1,M2,Banana,7,TRUE,4,NA,1400
TZA-L03-H08-1-M3-Banana,TZA-L03-H08-1-M3,TZA,L03,TZA-L03-H08,1,M3,Banana,7,TRUE,0,NA,0
TZA-L03-H12-1-M2-Banana,TZA-L03-H12-1-M2,TZA,L03,TZA-L03-H12,1,M2,Banana,6,TRUE,0,NA,0
TZA-L03-H12-1-M2-Guava,TZA-L03-H12-1-M2,TZA,L03,TZA-L03-H12,1,M2,Guava,2,TRUE,0,NA,0
TZA-L03-H12-1-M2-Plums,TZA-L03-H12-1-M2,TZA,L03,TZA-L03-H12,1,M2,Plums,7,TRUE,0,NA,0
TZA-L03-H13-1-M2-Banana,TZA-L03-H13-1-M2,TZA,L03,TZA-L03-H13,1,M2,Banana,800,TRUE,20,NA,4000
TZA-L03-H13-1-M2-Coffee,TZA-L03-H13-1-M2,TZA,L03,TZA-L03-H13,1,M2,Coffee,40,TRUE,0,NA,0
TZA-L03-H13-1-M2-Peaches,TZA-L03-H13-1-M2,TZA,L03,TZA-L03-H13,1,M2,Peaches,20,TRUE,0,NA,0
TZA-L03-H13-1-M2-Plum,TZA-L03-H13-1-M2,TZA,L03,TZA-L03-H13,1,M2,Plum,6,TRUE,10,NA,5000
TZA-L03-H15-1-M2-Peaches,TZA-L03-H15-1-M2,TZA,L03,TZA-L03-H15,1,M2,Peaches,5,TRUE,120,NA,3000
TZA-L03-H17-1-M3-Banana,TZA-L03-H17-1-M3,TZA,L03,TZA-L03-H17,1,M3,Banana,20,FALSE,300,NA,3.00E+05
TZA-L03-H18-1-M2-Avocado,TZA-L03-H18-1-M2,TZA,L03,TZA-L03-H18,1,M2,Avocado,3,TRUE,10,NA,4000
TZA-L03-H18-1-M2-Peaches,TZA-L03-H18-1-M2,TZA,L03,TZA-L03-H18,1,M2,Peaches,4,TRUE,50,NA,10000
TZA-L03-H18-1-M2-sugarCane,TZA-L03-H18-1-M2,TZA,L03,TZA-L03-H18,1,M2,sugar Cane,15,TRUE,20,NA,6000
TZA-L03-H27-1-M1-Peaches,TZA-L03-H27-1-M1,TZA,L03,TZA-L03-H27,1,M1,Peaches,1,FALSE,40,NA,20000
TZA-L03-H29-1-M1-Banana,TZA-L03-H29-1-M1,TZA,L03,TZA-L03-H29,1,M1,Banana,10,FALSE,50,NA,20000
TZA-L03-H30-1-M1-Avocado,TZA-L03-H30-1-M1,TZA,L03,TZA-L03-H30,1,M1,Avocado,10,TRUE,50,NA,25000
TZA-L03-H30-1-M1-Mango,TZA-L03-H30-1-M1,TZA,L03,TZA-L03-H30,1,M1,Mango,8,TRUE,70,NA,30000
TZA-L10-H01-1-M1-Mango,TZA-L10-H01-1-M1,TZA,L10,TZA-L10-H01,1,M1,Mango,6,TRUE,50,NA,25000
TZA-L10-H02-1-M1-Avocado,TZA-L10-H02-1-M1,TZA,L10,TZA-L10-H02,1,M1,Avocado,1,TRUE,0,NA,0
TZA-L10-H02-1-M1-Banana,TZA-L10-H02-1-M1,TZA,L10,TZA-L10-H02,1,M1,Banana,1,TRUE,0,NA,0
TZA-L10-H02-1-M1-Lemon,TZA-L10-H02-1-M1,TZA,L10,TZA-L10-H02,1,M1,Lemon,1,TRUE,0,NA,0
TZA-L10-H02-1-M1-Mango,TZA-L10-H02-1-M1,TZA,L10,TZA-L10-H02,1,M1,Mango,9,TRUE,0,NA,0
TZA-L10-H02-1-M1-Papaw,TZA-L10-H02-1-M1,TZA,L10,TZA-L10-H02,1,M1,Papaw,1,TRUE,0,NA,0
TZA-L10-H03-1-M1-Mango,TZA-L10-H03-1-M1,TZA,L10,TZA-L10-H03,1,M1,Mango,1,TRUE,0,NA,0
TZA-L10-H06-1-M1-Guava,TZA-L10-H06-1-M1,TZA,L10,TZA-L10-H06,1,M1,Guava,3,TRUE,0,NA,0
TZA-L10-H06-1-M1-Lemon,TZA-L10-H06-1-M1,TZA,L10,TZA-L10-H06,1,M1,Lemon,3,TRUE,0,NA,0
TZA-L10-H06-1-M1-Orange,TZA-L10-H06-1-M1,TZA,L10,TZA-L10-H06,1,M1,Orange,3,TRUE,50,NA,20000
TZA-L10-H06-1-M1-Papaw,TZA-L10-H06-1-M1,TZA,L10,TZA-L10-H06,1,M1,Papaw,3,TRUE,0,NA,0
TZA-L10-H07-1-M2-Mango,TZA-L10-H07-1-M2,TZA,L10,TZA-L10-H07,1,M2,Mango,3,TRUE,50,NA,10000
TZA-L10-H08-1-M1-Mango,TZA-L10-H08-1-M1,TZA,L10,TZA-L10-H08,1,M1,Mango,6,TRUE,60,NA,9000
TZA-L10-H08-1-M2-Mango,TZA-L10-H08-1-M2,TZA,L10,TZA-L10-H08,1,M2,Mango,5,TRUE,100,NA,15000
TZA-L10-H10-1-M1-Banana,TZA-L10-H10-1-M1,TZA,L10,TZA-L10-H10,1,M1,Banana,30,TRUE,3,NA,3000
TZA-L10-H10-1-M1-Mango,TZA-L10-H10-1-M1,TZA,L10,TZA-L10-H10,1,M1,Mango,8,TRUE,0,NA,0
TZA-L10-H12-1-M1-Mango,TZA-L10-H12-1-M1,TZA,L10,TZA-L10-H12,1,M1,Mango,2,TRUE,30,NA,10000
TZA-L10-H15-1-M1-Mango,TZA-L10-H15-1-M1,TZA,L10,TZA-L10-H15,1,M1,Mango,3,TRUE,0,NA,0
TZA-L10-H18-1-M1-Mango,TZA-L10-H18-1-M1,TZA,L10,TZA-L10-H18,1,M1,Mango,5,TRUE,50,NA,10000
TZA-L10-H22-1-M2-Mango,TZA-L10-H22-1-M2,TZA,L10,TZA-L10-H22,1,M2,Mango,12,TRUE,0,NA,0
TZA-L10-H24-1-M1-Mango,TZA-L10-H24-1-M1,TZA,L10,TZA-L10-H24,1,M1,Mango,1,TRUE,0,NA,0
TZA-L10-H24-1-M2-Mango,TZA-L10-H24-1-M2,TZA,L10,TZA-L10-H24,1,M2,Mango,2,TRUE,0,NA,0
TZA-L10-H26-1-M1-Mango,TZA-L10-H26-1-M1,TZA,L10,TZA-L10-H26,1,M1,Mango,6,TRUE,0,NA,0
TZA-L10-H27-1-M1-Mango,TZA-L10-H27-1-M1,TZA,L10,TZA-L10-H27,1,M1,Mango,4,TRUE,0,NA,0
TZA-L10-H28-1-M1-Mango,TZA-L10-H28-1-M1,TZA,L10,TZA-L10-H28,1,M1,Mango,3,TRUE,60,NA,50000
TZA-L10-H29-1-M1-Mango,TZA-L10-H29-1-M1,TZA,L10,TZA-L10-H29,1,M1,Mango,5,TRUE,100,NA,50000
TZA-L10-H30-1-M1-Mango,TZA-L10-H30-1-M1,TZA,L10,TZA-L10-H30,1,M1,Mango,1,TRUE,0,NA,0
TZA-L10-H31-1-M1-Mango,TZA-L10-H31-1-M1,TZA,L10,TZA-L10-H31,1,M1,Mango,37,TRUE,100,NA,50000
TZA-L10-H32-1-M1-Lemon,TZA-L10-H32-1-M1,TZA,L10,TZA-L10-H32,1,M1,Lemon,3,TRUE,0,NA,0
TZA-L11-H07-1-M2-Mango,TZA-L11-H07-1-M2,TZA,L11,TZA-L11-H07,1,M2,Mango,1,TRUE,0,Kg,0
TZA-L11-H07-1-M3-Avocado,TZA-L11-H07-1-M3,TZA,L11,TZA-L11-H07,1,M3,Avocado,10,TRUE,0,Kg,0
TZA-L11-H07-1-M3-BananaSweet,TZA-L11-H07-1-M3,TZA,L11,TZA-L11-H07,1,M3,Banana Sweet,10,TRUE,0,Kg,0
TZA-L11-H07-1-M3-Mango,TZA-L11-H07-1-M3,TZA,L11,TZA-L11-H07,1,M3,Mango,2,TRUE,0,Kg,0
TZA-L11-H07-1-M3-sugarCane,TZA-L11-H07-1-M3,TZA,L11,TZA-L11-H07,1,M3,sugar Cane,200,TRUE,4000,Kg,2.00E+05
TZA-L11-H07-1-M4-BananaSweet,TZA-L11-H07-1-M4,TZA,L11,TZA-L11-H07,1,M4,Banana Sweet,4,TRUE,0,Kg,0
TZA-L11-H09-1-M1-Avocado,TZA-L11-H09-1-M1,TZA,L11,TZA-L11-H09,1,M1,Avocado,2,TRUE,120,Kg,120000
TZA-L11-H09-1-M1-Mango,TZA-L11-H09-1-M1,TZA,L11,TZA-L11-H09,1,M1,Mango,5,TRUE,150,Kg,130000
TZA-L11-H11-1-M1-Avocado,TZA-L11-H11-1-M1,TZA,L11,TZA-L11-H11,1,M1,Avocado,4,TRUE,250,Kg,40000
TZA-L11-H11-1-M1-Orange,TZA-L11-H11-1-M1,TZA,L11,TZA-L11-H11,1,M1,Orange,2,TRUE,200,Kg,50000
TZA-L11-H13-1-M1-Avocado,TZA-L11-H13-1-M1,TZA,L11,TZA-L11-H13,1,M1,Avocado,2,TRUE,0,Kg,0
TZA-L11-H13-1-M1-BananaSweet,TZA-L11-H13-1-M1,TZA,L11,TZA-L11-H13,1,M1,Banana Sweet,25,TRUE,160,Kg,1.00E+05
TZA-L11-H13-1-M1-Lemon,TZA-L11-H13-1-M1,TZA,L11,TZA-L11-H13,1,M1,Lemon,5,TRUE,0,Kg,0
TZA-L11-H13-1-M1-Mango,TZA-L11-H13-1-M1,TZA,L11,TZA-L11-H13,1,M1,Mango,8,TRUE,0,Kg,0
TZA-L11-H13-1-M1-Orange,TZA-L11-H13-1-M1,TZA,L11,TZA-L11-H13,1,M1,Orange,5,TRUE,0,Kg,0
TZA-L11-H15-1-M1-Avocado,TZA-L11-H15-1-M1,TZA,L11,TZA-L11-H15,1,M1,Avocado,12,TRUE,50,Kg,15000
TZA-L11-H15-1-M1-BananaSweet,TZA-L11-H15-1-M1,TZA,L11,TZA-L11-H15,1,M1,Banana Sweet,10,TRUE,45,Kg,27000
TZA-L11-H15-1-M1-Guava,TZA-L11-H15-1-M1,TZA,L11,TZA-L11-H15,1,M1,Guava,6,TRUE,20,Kg,5000
TZA-L11-H15-1-M1-Mango,TZA-L11-H15-1-M1,TZA,L11,TZA-L11-H15,1,M1,Mango,23,TRUE,50,Kg,20
TZA-L11-H15-1-M1-Orange,TZA-L11-H15-1-M1,TZA,L11,TZA-L11-H15,1,M1,Orange,5,TRUE,10,Kg,3000
TZA-L11-H16-1-M1-Avocado,TZA-L11-H16-1-M1,TZA,L11,TZA-L11-H16,1,M1,Avocado,6,TRUE,50,Kg,30000
TZA-L11-H16-1-M1-BananaSweet,TZA-L11-H16-1-M1,TZA,L11,TZA-L11-H16,1,M1,Banana Sweet,20,TRUE,50,Kg,50000
TZA-L11-H16-1-M1-Guava,TZA-L11-H16-1-M1,TZA,L11,TZA-L11-H16,1,M1,Guava,4,TRUE,50,Kg,10000
TZA-L11-H16-1-M1-Mango,TZA-L11-H16-1-M1,TZA,L11,TZA-L11-H16,1,M1,Mango,15,TRUE,100,Kg,30000
TZA-L11-H16-1-M1-Orange,TZA-L11-H16-1-M1,TZA,L11,TZA-L11-H16,1,M1,Orange,10,TRUE,100,Kg,30000
TZA-L11-H18-1-M1-Avocado,TZA-L11-H18-1-M1,TZA,L11,TZA-L11-H18,1,M1,Avocado,1,TRUE,0,Kg,0
TZA-L11-H18-1-M1-Mango,TZA-L11-H18-1-M1,TZA,L11,TZA-L11-H18,1,M1,Mango,1,TRUE,40,Kg,10000
TZA-L11-H19-1-M2-BananaSweet,TZA-L11-H19-1-M2,TZA,L11,TZA-L11-H19,1,M2,Banana Sweet,28,TRUE,80,Kg,80000
TZA-L11-H21-1-M1-Mango,TZA-L11-H21-1-M1,TZA,L11,TZA-L11-H21,1,M1,Mango,3,TRUE,0,Kg,0
TZA-L11-H21-1-M2-Avocado,TZA-L11-H21-1-M2,TZA,L11,TZA-L11-H21,1,M2,Avocado,5,TRUE,75,Kg,90000
TZA-L11-H21-1-M2-BananaSweet,TZA-L11-H21-1-M2,TZA,L11,TZA-L11-H21,1,M2,Banana Sweet,8,TRUE,75,Kg,45000
TZA-L11-H21-1-M2-Mango,TZA-L11-H21-1-M2,TZA,L11,TZA-L11-H21,1,M2,Mango,2,TRUE,40,Kg,20000
TZA-L11-H22-1-M1-Avocado,TZA-L11-H22-1-M1,TZA,L11,TZA-L11-H22,1,M1,Avocado,2,TRUE,0,Kg,0
TZA-L11-H22-1-M1-Mango,TZA-L11-H22-1-M1,TZA,L11,TZA-L11-H22,1,M1,Mango,2,TRUE,0,Kg,0
TZA-L11-H23-1-M1-Guava,TZA-L11-H23-1-M1,TZA,L11,TZA-L11-H23,1,M1,Guava,6,TRUE,100,Kg,30000
TZA-L11-H23-1-M1-Lemon,TZA-L11-H23-1-M1,TZA,L11,TZA-L11-H23,1,M1,Lemon,2,TRUE,100,Kg,25000
TZA-L11-H23-1-M1-Mango,TZA-L11-H23-1-M1,TZA,L11,TZA-L11-H23,1,M1,Mango,3,TRUE,50,Kg,15000
TZA-L11-H26-1-M1-BananaSweet,TZA-L11-H26-1-M1,TZA,L11,TZA-L11-H26,1,M1,Banana Sweet,6,TRUE,0,Kg,0
TZA-L11-H26-1-M1-Guava,TZA-L11-H26-1-M1,TZA,L11,TZA-L11-H26,1,M1,Guava,1,TRUE,0,Kg,0
TZA-L11-H26-1-M1-Mango,TZA-L11-H26-1-M1,TZA,L11,TZA-L11-H26,1,M1,Mango,8,TRUE,0,Kg,0
TZA-L11-H31-1-M1-Avocado,TZA-L11-H31-1-M1,TZA,L11,TZA-L11-H31,1,M1,Avocado,8,FALSE,200,Kg,40000
TZA-L11-H31-1-M1-Mango,TZA-L11-H31-1-M1,TZA,L11,TZA-L11-H31,1,M1,Mango,2,FALSE,300,Kg,50000
TZA-L18-H01-1-M1-Banana,TZA-L18-H01-1-M1,TZA,L18,TZA-L18-H01,1,M1,Banana,4,TRUE,0,NA,0
TZA-L18-H01-1-M1-Coconut,TZA-L18-H01-1-M1,TZA,L18,TZA-L18-H01,1,M1,Coconut,6,TRUE,0,NA,0
TZA-L18-H01-1-M1-Lemon,TZA-L18-H01-1-M1,TZA,L18,TZA-L18-H01,1,M1,Lemon,3,TRUE,0,NA,0
TZA-L18-H01-1-M1-Mango,TZA-L18-H01-1-M1,TZA,L18,TZA-L18-H01,1,M1,Mango,25,TRUE,0,NA,0
TZA-L18-H01-1-M1-Orange,TZA-L18-H01-1-M1,TZA,L18,TZA-L18-H01,1,M1,Orange,4,TRUE,0,NA,0
TZA-L18-H01-1-M1-Papaw,TZA-L18-H01-1-M1,TZA,L18,TZA-L18-H01,1,M1,Papaw,10,TRUE,0,NA,0
TZA-L18-H02-1-M1-Papaw,TZA-L18-H02-1-M1,TZA,L18,TZA-L18-H02,1,M1,Papaw,40,FALSE,50,NA,15000
TZA-L18-H05-1-M1-Mango,TZA-L18-H05-1-M1,TZA,L18,TZA-L18-H05,1,M1,Mango,3,TRUE,300,NA,45000
TZA-L18-H05-1-M1-Papaw,TZA-L18-H05-1-M1,TZA,L18,TZA-L18-H05,1,M1,Papaw,5,TRUE,100,NA,5000
TZA-L18-H06-1-M1-Papaw,TZA-L18-H06-1-M1,TZA,L18,TZA-L18-H06,1,M1,Papaw,18,FALSE,216,NA,50000
TZA-L18-H07-1-M1-Mango,TZA-L18-H07-1-M1,TZA,L18,TZA-L18-H07,1,M1,Mango,3,FALSE,0,NA,0
TZA-L18-H07-1-M2-Banana,TZA-L18-H07-1-M2,TZA,L18,TZA-L18-H07,1,M2,Banana,15,FALSE,0,NA,0
TZA-L18-H14-1-M1-Banana,TZA-L18-H14-1-M1,TZA,L18,TZA-L18-H14,1,M1,Banana,6,TRUE,40,NA,14000
TZA-L18-H14-1-M1-Mango,TZA-L18-H14-1-M1,TZA,L18,TZA-L18-H14,1,M1,Mango,2,TRUE,0,NA,0
TZA-L18-H19-1-M1-Banana,TZA-L18-H19-1-M1,TZA,L18,TZA-L18-H19,1,M1,Banana,8,TRUE,0,NA,0
TZA-L18-H19-1-M1-Papaw,TZA-L18-H19-1-M1,TZA,L18,TZA-L18-H19,1,M1,Papaw,10,TRUE,0,NA,0
TZA-L18-H20-1-M1-Lemon,TZA-L18-H20-1-M1,TZA,L18,TZA-L18-H20,1,M1,Lemon,4,FALSE,120,NA,30000
TZA-L18-H21-1-M2-Banana,TZA-L18-H21-1-M2,TZA,L18,TZA-L18-H21,1,M2,Banana,25,TRUE,0,NA,0
TZA-L18-H21-1-M2-Mango,TZA-L18-H21-1-M2,TZA,L18,TZA-L18-H21,1,M2,Mango,4,TRUE,0,NA,0
TZA-L18-H22-1-M1-Banana,TZA-L18-H22-1-M1,TZA,L18,TZA-L18-H22,1,M1,Banana,30,TRUE,1500,NA,2.00E+05
TZA-L18-H22-1-M1-Lemon,TZA-L18-H22-1-M1,TZA,L18,TZA-L18-H22,1,M1,Lemon,8,TRUE,250,NA,180000
TZA-L18-H22-1-M1-Mango,TZA-L18-H22-1-M1,TZA,L18,TZA-L18-H22,1,M1,Mango,8,TRUE,0,NA,0
TZA-L18-H25-1-M1-Lime,TZA-L18-H25-1-M1,TZA,L18,TZA-L18-H25,1,M1,Lime,1,TRUE,0,NA,0
TZA-L18-H25-1-M1-Mango,TZA-L18-H25-1-M1,TZA,L18,TZA-L18-H25,1,M1,Mango,5,TRUE,0,NA,0
TZA-L18-H28-1-M1-Mango,TZA-L18-H28-1-M1,TZA,L18,TZA-L18-H28,1,M1,Mango,5,TRUE,60,NA,8000
TZA-L18-H28-1-M3-Avocado,TZA-L18-H28-1-M3,TZA,L18,TZA-L18-H28,1,M3,Avocado,1,TRUE,80,NA,12000
TZA-L18-H30-1-M1-Lime,TZA-L18-H30-1-M1,TZA,L18,TZA-L18-H30,1,M1,Lime,2,TRUE,0,NA,0
TZA-L18-H30-1-M1-Mango,TZA-L18-H30-1-M1,TZA,L18,TZA-L18-H30,1,M1,Mango,6,TRUE,0,NA,0
TZA-L18-H30-1-M1-Orange,TZA-L18-H30-1-M1,TZA,L18,TZA-L18-H30,1,M1,Orange,2,TRUE,0,NA,0
TZA-L18-H30-1-M1-Papaw,TZA-L18-H30-1-M1,TZA,L18,TZA-L18-H30,1,M1,Papaw,10,TRUE,0,NA,0
TZA-L18-H32-1-M1-Banana,TZA-L18-H32-1-M1,TZA,L18,TZA-L18-H32,1,M1,Banana,10,TRUE,10,NA,50000
TZA-L18-H32-1-M1-Mango,TZA-L18-H32-1-M1,TZA,L18,TZA-L18-H32,1,M1,Mango,3,TRUE,40,NA,16000
TZA-L18-H32-1-M1-Papaw,TZA-L18-H32-1-M1,TZA,L18,TZA-L18-H32,1,M1,Papaw,5,TRUE,0,NA,0
TZA-L19-H01-1-M1-Lemon,TZA-L19-H01-1-M1,TZA,L19,TZA-L19-H01,1,M1,Lemon,3,FALSE,60,NA,1.00E+05
TZA-L19-H01-1-M1-Mango,TZA-L19-H01-1-M1,TZA,L19,TZA-L19-H01,1,M1,Mango,15,TRUE,250,NA,5.00E+05
TZA-L19-H01-1-M1-Papaw,TZA-L19-H01-1-M1,TZA,L19,TZA-L19-H01,1,M1,Papaw,15,FALSE,200,NA,90000
TZA-L19-H02-1-M1-Lime,TZA-L19-H02-1-M1,TZA,L19,TZA-L19-H02,1,M1,Lime,7,TRUE,50,NA,120000
TZA-L19-H02-1-M1-Mango,TZA-L19-H02-1-M1,TZA,L19,TZA-L19-H02,1,M1,Mango,20,TRUE,15000,NA,8.00E+05
TZA-L19-H03-1-M1-Banana,TZA-L19-H03-1-M1,TZA,L19,TZA-L19-H03,1,M1,Banana,19,TRUE,50,NA,25000
TZA-L19-H04-1-M1-Mango,TZA-L19-H04-1-M1,TZA,L19,TZA-L19-H04,1,M1,Mango,4,TRUE,60,NA,30000
TZA-L19-H05-1-M1-Mango,TZA-L19-H05-1-M1,TZA,L19,TZA-L19-H05,1,M1,Mango,6,FALSE,160,NA,2.00E+05
TZA-L19-H09-1-M1-Mango,TZA-L19-H09-1-M1,TZA,L19,TZA-L19-H09,1,M1,Mango,10,TRUE,300,NA,250000
TZA-L19-H09-1-M3-Mango,TZA-L19-H09-1-M3,TZA,L19,TZA-L19-H09,1,M3,Mango,6,TRUE,180,NA,150000
TZA-L19-H10-1-M1-Banana,TZA-L19-H10-1-M1,TZA,L19,TZA-L19-H10,1,M1,Banana,10,TRUE,200,NA,40000
TZA-L19-H10-1-M1-Mango,TZA-L19-H10-1-M1,TZA,L19,TZA-L19-H10,1,M1,Mango,2,TRUE,100,NA,50000
TZA-L19-H14-1-M1-Banana,TZA-L19-H14-1-M1,TZA,L19,TZA-L19-H14,1,M1,Banana,35,TRUE,500,NA,1.00E+06
TZA-L19-H14-1-M1-Mango,TZA-L19-H14-1-M1,TZA,L19,TZA-L19-H14,1,M1,Mango,10,TRUE,50,NA,25000
TZA-L19-H17-1-M1-Mango,TZA-L19-H17-1-M1,TZA,L19,TZA-L19-H17,1,M1,Mango,3,FALSE,80,NA,160000
TZA-L19-H17-1-M1-Papaw,TZA-L19-H17-1-M1,TZA,L19,TZA-L19-H17,1,M1,Papaw,2,FALSE,40,NA,60000
TZA-L19-H18-1-M1-Mango,TZA-L19-H18-1-M1,TZA,L19,TZA-L19-H18,1,M1,Mango,4,TRUE,80,NA,160000
TZA-L19-H20-1-M1-Banana,TZA-L19-H20-1-M1,TZA,L19,TZA-L19-H20,1,M1,Banana,50,TRUE,2,NA,0
TZA-L19-H20-1-M1-Mango,TZA-L19-H20-1-M1,TZA,L19,TZA-L19-H20,1,M1,Mango,2,TRUE,2,NA,0
TZA-L19-H21-1-M1-Banana,TZA-L19-H21-1-M1,TZA,L19,TZA-L19-H21,1,M1,Banana,8,TRUE,210,NA,18000
TZA-L19-H21-1-M1-Mango,TZA-L19-H21-1-M1,TZA,L19,TZA-L19-H21,1,M1,Mango,10,TRUE,210,NA,18000
TZA-L19-H21-1-M1-PalmOil,TZA-L19-H21-1-M1,TZA,L19,TZA-L19-H21,1,M1,Palm Oil,12,TRUE,12,NA,24000
TZA-L19-H21-1-M1-sugarCane,TZA-L19-H21-1-M1,TZA,L19,TZA-L19-H21,1,M1,sugar Cane,16,TRUE,18,NA,1800
TZA-L19-H21-1-M1-SweetPotatoes,TZA-L19-H21-1-M1,TZA,L19,TZA-L19-H21,1,M1,Sweet Potatoes,2,TRUE,0,NA,0
TZA-L19-H23-1-M1-Mango,TZA-L19-H23-1-M1,TZA,L19,TZA-L19-H23,1,M1,Mango,15,FALSE,250,NA,5.00E+05
TZA-L19-H24-1-M1-Banana,TZA-L19-H24-1-M1,TZA,L19,TZA-L19-H24,1,M1,Banana,10,TRUE,60,NA,180000
TZA-L19-H24-1-M1-Mango,TZA-L19-H24-1-M1,TZA,L19,TZA-L19-H24,1,M1,Mango,6,TRUE,100,NA,35000
TZA-L19-H24-1-M1-Papaw,TZA-L19-H24-1-M1,TZA,L19,TZA-L19-H24,1,M1,Papaw,2,TRUE,40,NA,20000
TZA-L19-H25-1-M1-Mango,TZA-L19-H25-1-M1,TZA,L19,TZA-L19-H25,1,M1,Mango,3,FALSE,120,NA,2.00E+05
TZA-L19-H26-1-M1-Mango,TZA-L19-H26-1-M1,TZA,L19,TZA-L19-H26,1,M1,Mango,1,FALSE,70,NA,90000
TZA-L19-H27-1-M1-Banana,TZA-L19-H27-1-M1,TZA,L19,TZA-L19-H27,1,M1,Banana,30,TRUE,400,NA,80000
TZA-L19-H27-1-M1-Mango,TZA-L19-H27-1-M1,TZA,L19,TZA-L19-H27,1,M1,Mango,4,TRUE,50,NA,12000
TZA-L19-H29-1-M1-Mango,TZA-L19-H29-1-M1,TZA,L19,TZA-L19-H29,1,M1,Mango,3,TRUE,200,NA,8000
TZA-L19-H29-1-M1-PalmOil,TZA-L19-H29-1-M1,TZA,L19,TZA-L19-H29,1,M1,Palm Oil,10,TRUE,800,NA,90000
TZA-L19-H31-1-M1-Banana,TZA-L19-H31-1-M1,TZA,L19,TZA-L19-H31,1,M1,Banana,40,TRUE,600,NA,60000
TZA-L19-H31-1-M1-Coconut,TZA-L19-H31-1-M1,TZA,L19,TZA-L19-H31,1,M1,Coconut,7,TRUE,50,NA,50000
TZA-L19-H31-1-M1-Mango,TZA-L19-H31-1-M1,TZA,L19,TZA-L19-H31,1,M1,Mango,14,TRUE,1600,NA,5.00E+05
TZA-L19-H31-1-M1-Papaw,TZA-L19-H31-1-M1,TZA,L19,TZA-L19-H31,1,M1,Papaw,6,TRUE,180,NA,78000
TZA-L19-H32-1-M1-Banana,TZA-L19-H32-1-M1,TZA,L19,TZA-L19-H32,1,M1,Banana,4,TRUE,150,NA,60000
TZA-L19-H32-1-M1-Mango,TZA-L19-H32-1-M1,TZA,L19,TZA-L19-H32,1,M1,Mango,3,TRUE,0,NA,0
TZA-L19-H32-1-M1-PalmOil,TZA-L19-H32-1-M1,TZA,L19,TZA-L19-H32,1,M1,Palm Oil,7,TRUE,0,NA,0
TZA-L19-H32-1-M1-Papaw,TZA-L19-H32-1-M1,TZA,L19,TZA-L19-H32,1,M1,Papaw,10,TRUE,25,NA,5000
TZA-L20-H25-1-M1-Coconut,TZA-L20-H25-1-M1,TZA,L20,TZA-L20-H25,1,M1,Coconut,1,TRUE,5,NA,20000
TZA-L20-H25-1-M2-Banana,TZA-L20-H25-1-M2,TZA,L20,TZA-L20-H25,1,M2,Banana,40,TRUE,2500,NA,250000
TZA-L20-H25-1-M2-Lemon,TZA-L20-H25-1-M2,TZA,L20,TZA-L20-H25,1,M2,Lemon,6,TRUE,300,NA,250000
TZA-L20-H25-1-M2-Mango,TZA-L20-H25-1-M2,TZA,L20,TZA-L20-H25,1,M2,Mango,4,TRUE,50,NA,150000
TZA-L20-H25-1-M2-Orange,TZA-L20-H25-1-M2,TZA,L20,TZA-L20-H25,1,M2,Orange,30,TRUE,2000,NA,8.00E+05
TZA-L20-H25-1-M2-sugarCane,TZA-L20-H25-1-M2,TZA,L20,TZA-L20-H25,1,M2,sugar Cane,3000,TRUE,2500,NA,1250000
TZA-L20-H27-1-M3-Guava,TZA-L20-H27-1-M3,TZA,L20,TZA-L20-H27,1,M3,Guava,2,TRUE,0,NA,0
TZA-L20-H27-1-M3-Mango,TZA-L20-H27-1-M3,TZA,L20,TZA-L20-H27,1,M3,Mango,1,TRUE,0,NA,0
TZA-L22-H01-1-M1-Cashewnut,TZA-L22-H01-1-M1,TZA,L22,TZA-L22-H01,1,M1,Cashew nut,21,TRUE,100,Kg,1.00E+05
TZA-L22-H09-1-M1-BananaSweet,TZA-L22-H09-1-M1,TZA,L22,TZA-L22-H09,1,M1,Banana Sweet,10,FALSE,0,Kg,0
TZA-L22-H10-1-M1-Cashewnut,TZA-L22-H10-1-M1,TZA,L22,TZA-L22-H10,1,M1,Cashew nut,20,FALSE,0,Kg,0
TZA-L22-H12-1-M1-Mango,TZA-L22-H12-1-M1,TZA,L22,TZA-L22-H12,1,M1,Mango,1,FALSE,0,Kg,0
TZA-L22-H12-1-M1-Orange,TZA-L22-H12-1-M1,TZA,L22,TZA-L22-H12,1,M1,Orange,1,FALSE,0,Kg,0
TZA-L22-H17-1-M1-Lemon,TZA-L22-H17-1-M1,TZA,L22,TZA-L22-H17,1,M1,Lemon,1,TRUE,200,Kg,20000
TZA-L22-H17-1-M1-Mango,TZA-L22-H17-1-M1,TZA,L22,TZA-L22-H17,1,M1,Mango,2,TRUE,0,Kg,0
TZA-L22-H17-1-M1-Orange,TZA-L22-H17-1-M1,TZA,L22,TZA-L22-H17,1,M1,Orange,2,TRUE,800,Kg,8000
TZA-L22-H17-1-M1-Papaw,TZA-L22-H17-1-M1,TZA,L22,TZA-L22-H17,1,M1,Papaw,2,TRUE,100,Kg,30000
TZA-L22-H18-1-M2-BananaFood,TZA-L22-H18-1-M2,TZA,L22,TZA-L22-H18,1,M2,Banana Food,30,TRUE,300,Kg,30000
TZA-L22-H18-1-M2-Orange,TZA-L22-H18-1-M2,TZA,L22,TZA-L22-H18,1,M2,Orange,10,TRUE,1000,Kg,1.00E+05
TZA-L22-H18-1-M2-Papaw,TZA-L22-H18-1-M2,TZA,L22,TZA-L22-H18,1,M2,Papaw,15,TRUE,200,Kg,60000
TZA-L22-H21-1-M1-BananaFood,TZA-L22-H21-1-M1,TZA,L22,TZA-L22-H21,1,M1,Banana Food,8,FALSE,0,Kg,0
TZA-L22-H21-1-M2-Mango,TZA-L22-H21-1-M2,TZA,L22,TZA-L22-H21,1,M2,Mango,3,FALSE,0,Kg,0
TZA-L22-H22-1-M1-BananaSweet,TZA-L22-H22-1-M1,TZA,L22,TZA-L22-H22,1,M1,Banana Sweet,4,TRUE,0,Kg,0
TZA-L22-H22-1-M2-BananaSweet,TZA-L22-H22-1-M2,TZA,L22,TZA-L22-H22,1,M2,Banana Sweet,5,TRUE,0,Kg,0
TZA-L22-H22-1-M2-Mango,TZA-L22-H22-1-M2,TZA,L22,TZA-L22-H22,1,M2,Mango,1,TRUE,0,Kg,0
TZA-L22-H24-1-M1-Papaw,TZA-L22-H24-1-M1,TZA,L22,TZA-L22-H24,1,M1,Papaw,2,TRUE,0,Kg,0
TZA-L22-H25-1-M2-Papaw,TZA-L22-H25-1-M2,TZA,L22,TZA-L22-H25,1,M2,Papaw,6,FALSE,200,Kg,40000
TZA-L22-H26-1-M1-BananaSweet,TZA-L22-H26-1-M1,TZA,L22,TZA-L22-H26,1,M1,Banana Sweet,10,TRUE,0,Kg,0
TZA-L22-H26-1-M1-Mango,TZA-L22-H26-1-M1,TZA,L22,TZA-L22-H26,1,M1,Mango,8,TRUE,0,Kg,0
TZA-L22-H26-1-M1-Papaw,TZA-L22-H26-1-M1,TZA,L22,TZA-L22-H26,1,M1,Papaw,9,TRUE,0,Kg,0
TZA-L22-H28-1-M1-BananaFood,TZA-L22-H28-1-M1,TZA,L22,TZA-L22-H28,1,M1,Banana Food,30,FALSE,200,Kg,80000