"landscape_no","hh_refno","Nremovedkgperha_mean","Premovedkgperha_mean","Kremovedkgperha_mean","Cremovedkgperha_mean","NaddedkghaAllSrcs_mean","PaddedkghaAllSrcs_mean","KaddedkghaAllSrcs_mean","CaddedkghaAllSrcs_mean","NutrBudgNkgha_mean","NutrBudgPkgha_mean","NutrBudgKkgha_mean","NutrBudgCkgha_mean","NutrPartialIndicatorN_mean","NutrPartialIndicatorP_mean","NutrPartialIndicatorK_mean","SH58_mean"
"L03","TZA-L03-H01",31.4194273204301,7.11492349247312,9.74220762150538,823.215693763441,0,0,0,0,-31.4194273204301,-7.11492349247312,-9.74220762150538,-823.215693763441,0.222,0.250073422222222,0.333,0.805073422222222
"L03","TZA-L03-H02",20.4880600994624,4.13962872670251,5.42329048924731,457.27267374552,39.5368,13.7785748,47.6777565933333,2234.43367728495,19.0487399005376,9.63894607329749,42.254466104086,1777.16100353943,0.183726384080048,0.222,0.222,0.627726384080048
"L03","TZA-L03-H03",19.8342946666667,4.84051238888889,5.66694133333333,554.888005555556,0.98842,0.34446437,1.19194391483333,38.7131166666667,-18.8458746666667,-4.49604801888889,-4.4749974185,-516.174888888889,0.305898977777778,0.321180188888889,0.333,0.960079166666667
"L03","TZA-L03-H04",21.794661,5.318935125,6.227046,609.7315875,0,0,0,0,-21.794661,-5.318935125,-6.227046,-609.7315875,0.313392655555556,0.326245886111111,0.333,0.972638541666667
"L03","TZA-L03-H05",17.3274323478261,4.22871860869565,4.95069495652174,484.755547826087,0,0,0,727.13332173913,-17.3274323478261,-4.22871860869565,-4.95069495652174,242.377773913043,0.333,0.333,0.333,0.999
"L03","TZA-L03-H06",30.8123461333333,7.51967971111111,8.80352746666667,862.012064444444,0,0,0,0,-30.8123461333333,-7.51967971111111,-8.80352746666667,-862.012064444444,0.20461277037037,0.27221222962963,0.333,0.809825
"L03","TZA-L03-H07",26.1963517079531,6.39315726205997,7.48467191655802,732.874125162973,2.08380070404172,0.72620454535854,2.51287263400978,1180.92671531943,-24.1125510039113,-5.66695271670143,-4.97179928254824,448.052590156454,0.233390497677338,0.287746867481481,0.333,0.85413736515882
"L03","TZA-L03-H08",7.63659282424242,1.81489886464646,2.35932858787879,210.693204646465,0.399361616161616,0.139177523232323,0.481593500942761,324.570897820381,-7.23723120808081,-1.67572134141414,-1.87773508693603,113.877693173916,0.333,0.333,0.333,0.999
"L03","TZA-L03-H09",48.3367332121212,11.6596119848485,13.7420332121212,1333.84283787879,11.86104,4.13357244,14.303326978,549.022381818182,-36.4756932121212,-7.52603954484848,0.561293765878785,-784.820456060606,0.203932651851852,0.251499339407407,0.333,0.788431991259259
"L03","TZA-L03-H10",17.79156,4.34198785714286,5.08330285714286,497.740071428571,11.4374314285714,3.98594485285714,13.7924938716429,447.966064285714,-6.35412857142857,-0.356043004285713,8.7091910145,-49.7740071428572,0.333,0.333,0.333,0.999
"L03","TZA-L03-H11",33.210912,8.105044,9.488832,929.1148,0,0,0,1393.6722,-33.210912,-8.105044,-9.488832,464.5574,0.186545422222222,0.264332355555556,0.333,0.783877777777778
"L03","TZA-L03-H12",21.5963043178035,4.83628260594747,5.95313749739442,545.687229312178,0.859495652173913,0.299534234782609,1.03647296942029,852.194423678411,-20.7368086656296,-4.53674837116486,-4.91666452797413,306.507194366234,0.284195217080766,0.319884309388458,0.333,0.937079526469224
"L03","TZA-L03-H13",6.08448542307692,1.48500600961538,1.797688875,176.442474038462,0,0,0,265.545335678138,-6.08448542307692,-1.48500600961538,-1.797688875,89.1028616396761,0.333,0.333,0.333,0.999
"L03","TZA-L03-H14",37.362276,9.1181745,10.674936,1045.25415,0,0,0,0,-37.362276,-9.1181745,-10.674936,-1045.25415,0.140419155555556,0.241818344444444,0.333,0.7152375
"L03","TZA-L03-H15",13.7361308823529,3.3522700367647,3.92460882352941,384.284613970588,1.389965625,0.4844030203125,1.67617113023437,630.867241268382,-12.3461652573529,-2.86786701645221,-2.24843769329504,246.582627297794,0.333,0.333,0.333,0.999
"L03","TZA-L03-H16",39.7029386808511,9.68940765425532,11.3436967659574,1110.736975,33.6746281914894,11.735607924734,40.6085147580186,2985.0284,-6.0283104893617,2.04620027047872,29.2648179920612,1874.291425,0.333,0.333,0.23039091119932,0.89639091119932
"L03","TZA-L03-H17",10.8959915490496,2.60747716109509,3.3010233030898,301.70526004519,7.3538448,2.5628149128,8.86806272636,288.025588,-3.5421467490496,-0.0446622482950885,5.5670394232702,-13.6796720451902,0.333,0.333,0.312105712344444,0.978105712344445
"L03","TZA-L03-H18",15.5043109502688,3.3368806780914,4.20623193817204,373.550355577957,1.41686818548387,0.493778562641129,1.70861315210988,615.819537298387,-14.0874427647849,-2.84310211545027,-2.49761878606216,242.26918172043,0.333,0.333,0.333,0.999
"L03","TZA-L03-H19",28.466496,6.94718057142857,8.13328457142857,796.384114285714,4.23608571428571,1.47627587142857,5.10833106357143,1360.48952857143,-24.2304102857143,-5.4709047,-3.02495350785714,564.105414285714,0.286328774603175,0.322868784444444,0.333,0.942197559047619
"L03","TZA-L03-H20",14.8367044210526,3.84443357894737,9.81657126315789,757.962073684211,0,0,0,1136.94311052632,-14.8367044210526,-3.84443357894737,-9.81657126315789,378.981036842105,0.327748261988304,0.331844720467836,0.333,0.99259298245614
"L03","TZA-L03-H21",28.2621557030426,6.63165662920892,7.94200482271805,754.882217322515,7.116624,2.480143464,8.5819961868,278.73444,-21.1455317030426,-4.15151316520892,0.639991364081948,-476.147777322515,0.279940311621967,0.308040531289911,0.333,0.920980842911877
"L03","TZA-L03-H22",8.89578,2.17099392857143,2.54165142857143,248.870035714286,0,0,0,0,-8.89578,-2.17099392857143,-2.54165142857143,-248.870035714286,0.333,0.333,0.333,0.999
"L03","TZA-L03-H23",19.9265472,4.8630264,5.6932992,557.46888,7.47492625,2.605011798125,9.01407585592708,292.767944791667,-12.45162095,-2.258014601875,3.32077665592708,-264.700935208333,0.333,0.333,0.333,0.999
"L03","TZA-L03-H24",25.4100176233983,5.91930512728576,7.87591080937541,686.482279217522,19.5758506493506,16.1157388181818,0,0,-5.83416697404769,10.1964336908961,-7.87591080937541,-686.482279217522,0.279959947091797,0.191546808138239,0.333,0.804506755230036
"L03","TZA-L03-H25",142.697435076923,42.3195824615385,40.2819166153846,3609.25364615385,0,0,0,5413.88046923077,-142.697435076923,-42.3195824615385,-40.2819166153846,1804.62682307692,0,0.0421101333333333,0.1665,0.208610133333333
"L03","TZA-L03-H26",21.47188009375,4.75203507083333,7.2531495125,559.404535833333,0,0,0,0,-21.47188009375,-4.75203507083333,-7.2531495125,-559.404535833333,0.289562591666667,0.31320647662037,0.333,0.935769068287037
"L03","TZA-L03-H27",30.7200936,6.14232428571429,8.09939588571429,676.926497142857,4.23608571428571,1.47627587142857,5.10833106357143,1181.30310285714,-26.4840078857143,-4.66604841428571,-2.99106482214286,504.376605714286,0.1665,0.275383395555556,0.333,0.774883395555556
"L03","TZA-L03-H28",11.1840046013072,2.58184348366013,3.12159832679739,293.00515751634,0,0,0,439.50773627451,-11.1840046013072,-2.58184348366013,-3.12159832679739,146.50257875817,0.333,0.333,0.333,0.999
"L03","TZA-L03-H29",7.116624,1.73679514285714,2.03332114285714,199.096028571429,0,0,0,0,-7.116624,-1.73679514285714,-2.03332114285714,-199.096028571429,0.333,0.333,0.333,0.999
"L03","TZA-L03-H30",3.3210912,0.8105044,0.9488832,92.91148,3.95368,1.37785748,4.76777565933333,154.852466666667,0.6325888,0.56735308,3.81889245933333,61.9409866666667,0.333,0.333,0.333,0.999
"L10","TZA-L10-H01",1.96643557894737,0.479903921052631,0.561838736842105,55.0133763157895,0,0,0,0,-1.96643557894737,-0.479903921052631,-0.561838736842105,-55.0133763157895,0.333,0.333,0.333,0.999
"L10","TZA-L10-H02",12.4788025,2.92304622916667,5.51867833333333,459.718260416667,50.502084375,0.64587069375,2.2348948403125,529.885784375,38.023281875,-2.27717553541667,-3.28378349302083,70.1675239583332,0.146606206944444,0.333,0.333,0.812606206944444
"L10","TZA-L10-H03",8.89578,2.17099392857143,2.54165142857143,248.870035714286,0,0,0,373.305053571428,-8.89578,-2.17099392857143,-2.54165142857143,124.435017857143,0.333,0.333,0.333,0.999
"L10","TZA-L10-H04",8.46111337349398,2.06491457329317,2.41746096385542,236.70971937751,0,10.2180686266867,0,0,-8.46111337349398,8.15315405339357,-2.41746096385542,-236.70971937751,0.333,0.263263243257921,0.333,0.929263243257921
"L10","TZA-L10-H05",14.1705213461538,3.45828199519231,4.04872038461538,396.437204326923,57.0907590384615,31.4600020023077,1.51285189190385,49.1358788461538,42.9202376923077,28.0017200071154,-2.53586849271154,-347.301325480769,0.1665,0.1665,0.333,0.666
"L10","TZA-L10-H06",3.77396727272727,0.921027727272727,1.07827636363636,105.581227272727,0,0,0,158.371840909091,-3.77396727272727,-0.921027727272727,-1.07827636363636,52.7906136363636,0.333,0.333,0.333,0.999
"L10","TZA-L10-H07",14.076464137931,3.43532755747126,4.02184689655172,393.805841954023,36.9059838362069,0,0,590.708762931034,22.8295196982759,-3.43532755747126,-4.02184689655172,196.902920977011,0.268179961685824,0.333,0.333,0.934179961685824
"L10","TZA-L10-H08",4.57014194736842,1.11533226096491,1.30575484210526,127.855161622807,28.9047822368421,15.4195832093567,5.64605012289474,375.160663486842,24.3346402894737,14.3042509483918,4.34029528078947,247.305501864035,0.285170663450292,0.1665,0.333,0.784670663450292
"L10","TZA-L10-H10",6.227046,1.51969575,1.779156,174.209025,0,0,0,261.3135375,-6.227046,-1.51969575,-1.779156,87.1045125,0.333,0.333,0.333,0.999
"L10","TZA-L10-H11",42.205534,10.3001600833333,12.058724,1180.75005833333,56.2163875,0,0,0,14.0108535,-10.3001600833333,-12.058724,-1180.75005833333,0.21996135,0.215551998148148,0.333,0.768513348148148
"L10","TZA-L10-H12",10.7935464,2.6341393,3.0838704,301.96231,3.3359175,0,0,452.943465,-7.4576289,-2.6341393,-3.0838704,150.981155,0.333,0.333,0.333,0.999
"L10","TZA-L10-H13",3.19335692307692,0.779331153846154,0.912387692307692,89.3379615384615,7.60323076923077,2.64972592307692,9.1687993448718,431.800147435897,4.40987384615385,1.87039476923077,8.2564116525641,342.462185897436,0.333,0.333,0.333,0.999
"L10","TZA-L10-H14",18.0494086956522,4.4049152173913,5.15697391304348,504.953695652174,0,0,0,0,-18.0494086956522,-4.4049152173913,-5.15697391304348,-504.953695652174,0.333,0.333,0.333,0.999
"L10","TZA-L10-H15",25.946025,6.332065625,7.41315,725.8709375,9.2664375,3.22935346875,11.1744742015625,1451.741875,-16.6795875,-3.10271215625,3.7613242015625,725.8709375,0.333,0.333,0.333,0.999
"L10","TZA-L10-H16",11.86104,2.0163768,6.5828772,278.73444,19.6448475,1.03339311,3.5758317445,406.250705918367,7.7838075,-0.98298369,-3.0070454555,127.516265918367,0.333,0.333,0.333,0.999
"L10","TZA-L10-H17",23.1020710909091,8.28154757142857,6.1384732987013,733.035377922078,0,0,0,0,-23.1020710909091,-8.28154757142857,-6.1384732987013,-733.035377922078,0.227124898989899,0.223985555555556,0.333,0.784110454545455
"L10","TZA-L10-H18",13.05949925,3.18713969791667,3.7312855,365.355038541667,49.3351996527778,0,0,0,36.2757004027778,-3.18713969791667,-3.7312855,-365.355038541667,0.1640408375,0.333,0.333,0.8300408375
"L10","TZA-L10-H19",24.1070435789474,5.8832665877193,6.88772673684211,674.423242982456,51.4151807017544,12.40911889,0,0,27.308137122807,6.5258523022807,-6.88772673684211,-674.423242982456,0.2221241208577,0.173031056050682,0.333,0.728155176908382
"L10","TZA-L10-H20",6.02124009922481,1.28253241627907,1.81951009819121,112.77821118863,4.51684953488372,0,0,0,-1.50439056434109,-1.28253241627907,-1.81951009819121,-112.77821118863,0.333,0.333,0.333,0.999
"L10","TZA-L10-H21",27.592060471909,6.73377666278732,7.88344584911687,771.920739392693,1.1317786259542,0.394424851145038,1.36482127652672,44.3279961832061,-26.4602818459548,-6.33935181164229,-6.51862457259015,-727.592743209487,0.24975,0.24975,0.322744222222222,0.822244222222222
"L10","TZA-L10-H22",4.61839245,1.12710768125,1.3195407,129.205026875,6.671835,35.58460263,0,193.8075403125,2.05344255,34.45749494875,-1.3195407,64.6025134375,0.333,0.1665,0.333,0.8325
"L10","TZA-L10-H23",3.27739263157895,0.799839868421052,0.936397894736842,91.6889605263158,151.124215789474,0.543891110526316,1.88201670763158,198.659414473684,147.846823157895,-0.255948757894737,0.945618812894737,106.970453947368,0,0.333,0.333,0.666
"L10","TZA-L10-H24",6.68830866666667,1.63226580555556,1.91094533333333,187.113397222222,31.4029270833333,0.287053641666667,0.993286595694444,312.931026388889,24.7146184166667,-1.34521216388889,-0.917658737638889,125.817629166667,0.280948684259259,0.333,0.333,0.946948684259259
"L10","TZA-L10-H26",2.075682,0.50656525,0.593052,58.069675,0,0,0,0,-2.075682,-0.50656525,-0.593052,-58.069675,0.333,0.333,0.333,0.999
"L10","TZA-L10-H27",5.28355418181818,1.28943881818182,1.50958690909091,147.813718181818,30.3265227272727,32.3496387545455,0,221.720577272727,25.0429685454545,31.0601999363636,-1.50958690909091,73.906859090909,0.27730034949495,0,0.333,0.610300349494949
"L10","TZA-L10-H28",4.38199533333333,1.06941552777778,1.25199866666667,122.591536111111,0,0,0,0,-4.38199533333333,-1.06941552777778,-1.25199866666667,-122.591536111111,0.333,0.333,0.333,0.999
"L10","TZA-L10-H29",6.38671384615385,1.55866230769231,1.82477538461538,178.675923076923,21.8592884615385,0,0,0,15.4725746153846,-1.55866230769231,-1.82477538461538,-178.675923076923,0.333,0.333,0.333,0.999
"L10","TZA-L10-H30",4.59166018181818,1.12058373484848,1.31190290909091,128.457159848485,0,0,0,192.685739772727,-4.59166018181818,-1.12058373484848,-1.31190290909091,64.2285799242424,0.333,0.333,0.333,0.999
"L10","TZA-L10-H31",8.75892184615385,2.13759402197802,2.5025490989011,245.041265934066,29.3267472527473,0,0,367.561898901099,20.5678254065934,-2.13759402197802,-2.5025490989011,122.520632967033,0.327024162148962,0.333,0.333,0.993024162148962
"L10","TZA-L10-H32",12.454092,3.0393915,3.558312,348.41805,0,0,0,522.627075,-12.454092,-3.0393915,-3.558312,174.209025,0.333,0.333,0.333,0.999
"L11","TZA-L11-H01",39.8530944,9.7260528,11.3865984,1114.93776,0,0,0,1672.40664,-39.8530944,-9.7260528,-11.3865984,557.46888,0.112743395555556,0.228309937777778,0.333,0.674053333333333
"L11","TZA-L11-H02",29.42279235,7.18056241875,8.4065121,823.137643125,28.1854140625,0,0,1234.7064646875,-1.2373782875,-7.18056241875,-8.4065121,411.5688215625,0.333,0.284876390694444,0.333,0.950876390694444
"L11","TZA-L11-H03",34.8714576,8.5102962,9.9632736,975.57054,36.75686875,0,0,1463.35581,1.88541115,-8.5102962,-9.9632736,487.78527,0.333,0.255326751111111,0.333,0.921326751111111
"L11","TZA-L11-H04",41.51364,10.131305,11.86104,1161.3935,35.0065416666667,0,0,1742.09025,-6.50709833333333,-10.131305,-11.86104,580.69675,0.333,0.219304333333333,0.333,0.885304333333333
"L11","TZA-L11-H05",62.27046,15.1969575,17.79156,1742.09025,0,0,0,2613.135375,-62.27046,-15.1969575,-17.79156,871.045125,0,0.106734277777778,0.333,0.439734277777778
"L11","TZA-L11-H06",9.0184804137931,2.20093867241379,2.57670868965517,252.302725862069,19.1719396551724,17.1160260551724,0,378.454088793103,10.1534592413793,14.9150873827586,-2.57670868965517,126.151362931034,0.333,0.112998058160919,0.333,0.778998058160919
"L11","TZA-L11-H07",14.5351653818182,3.55112349090909,4.22684334545454,439.217905454545,51.3753759090909,14.0917242272727,48.7613419704545,2205.13934675325,36.8402105272727,10.5406007363636,44.534498625,1765.9214412987,0.146219883030303,0.161087393737374,0.145302639818182,0.452609916585859
"L11","TZA-L11-H08",17.0772019090909,3.78340219090909,6.27657932045455,454.527183409091,28.8663568181818,0,0,625.795017077922,11.7891549090909,-3.78340219090909,-6.27657932045455,171.267833668831,0.255629334343434,0.324250281313131,0.333,0.912879615656566
"L11","TZA-L11-H09",30.5125254,7.446509175,8.7178644,853.6242225,61.2614479166667,0,0,1280.43633375,30.7489225166667,-7.446509175,-8.7178644,426.81211125,0.213900860925926,0.278966462777778,0.333,0.825867323703704
"L11","TZA-L11-H10",60.0670437230769,14.5055196938462,17.7209640023077,1671.15590853846,53.6718886313339,0,0,2484.33555959341,-6.39515509174298,-14.5055196938462,-17.7209640023077,813.179651054945,0.237783081550672,0.167292456666667,0.272951644444444,0.678027182661783
"L11","TZA-L11-H11",30.838704,7.52611228571428,8.81105828571429,862.749457142857,42.8810290438398,0,0,1294.12418571429,12.0423250438398,-7.52611228571428,-8.81105828571429,431.374728571428,0.28617898526749,0.244069685925926,0.333,0.863248671193416
"L11","TZA-L11-H12",22.9921698461538,5.61118430769231,6.56919138461538,643.233323076923,43.7185769230769,0,0,964.849984615384,20.7264070769231,-5.61118430769231,-6.56919138461538,321.616661538461,0.325262143589744,0.31975145982906,0.333,0.978013603418803
"L11","TZA-L11-H13",21.6887588571429,4.56085228571429,6.21292571428572,730.018771428572,49.0915266666667,9.47982325771429,18.7305472330952,1738.30626115288,27.4027678095238,4.918970972,12.5176215188095,1008.28748972431,0.249627024338624,0.244032595860317,0.333,0.826659620198942
"L11","TZA-L11-H14",50.854209,12.410848625,14.529774,1422.7070375,31.7529925,0,0,2134.06055625,-19.1012165,-12.410848625,-14.529774,711.35351875,0.202114877777778,0.168647808333333,0.333,0.703762686111111
"L11","TZA-L11-H15",74.724552,18.236349,21.349872,2090.5083,4.41258928571429,37.7278737309524,7.3106308422619,3135.76245,-70.3119627142857,19.4915247309524,-14.0392411577381,1045.25415,0,0.0112994504232804,0.333,0.34429945042328
"L11","TZA-L11-H16",26.4177709090909,6.44719409090909,7.54793454545455,739.068590909091,81.9939318181818,0,0,1108.60288636364,55.5761609090909,-6.44719409090909,-7.54793454545455,369.534295454545,0,0.301173464646465,0.333,0.634173464646465
"L11","TZA-L11-H17",29.2780408421053,7.14523615789474,8.36515452631579,819.088047368421,31.6684565789474,0,0,1228.63207105263,2.3904157368421,-7.14523615789474,-8.36515452631579,409.54402368421,0.333,0.28566141871345,0.333,0.95166141871345
"L11","TZA-L11-H18",22.6018706666667,5.51593272222222,6.45767733333333,632.314238888889,50.1074027777778,0,0,948.471358333333,27.5055321111111,-5.51593272222222,-6.45767733333333,316.157119444444,0.249938532098765,0.321868161728395,0.333,0.90480669382716
"L11","TZA-L11-H19",34.8714576,8.5102962,9.9632736,975.57054,135.2899875,0,0,1463.35581,100.4185299,-8.5102962,-9.9632736,487.78527,0,0.255326751111111,0.333,0.588326751111111
"L11","TZA-L11-H20",18.7602116,4.35881453095238,6.15856261428571,511.56618452381,70.9294310416667,0,0,735.351700765306,52.1692194416667,-4.35881453095238,-6.15856261428571,223.785516241497,0.1665,0.30296793968254,0.333,0.80246793968254
"L11","TZA-L11-H21",37.8235386666667,9.23074455555555,10.8067253333333,1058.15852222222,82.9833502222222,0.310017933,1.07274952335,1622.07958833333,45.1598115555556,-8.92072662255555,-9.73397580998333,563.921066111111,0.140619249382716,0.246206075054321,0.333,0.719825324437037
"L11","TZA-L11-H22",31.38431184,7.65926658,8.96694624,878.013486,28.417075,35.58460263,0,1317.020229,-2.96723684,27.92533605,-8.96694624,439.006743,0.333,0,0.333,0.666
"L11","TZA-L11-H23",7.5555618180602,1.73413165083612,2.55798302658863,204.73930229097,0,0,0,291.110165426251,-7.5555618180602,-1.73413165083612,-2.55798302658863,86.3708631352808,0.333,0.333,0.333,0.999
"L11","TZA-L11-H25",31.2862556645963,7.24324612732919,10.3648268990683,851.568339596273,78.4289782608696,0,0,1220.21398078654,47.1427225962733,-7.24324612732919,-10.3648268990683,368.645641190265,0.1665,0.2477649352657,0.333,0.747264935265701
"L11","TZA-L11-H26",14.529774,3.54595675,4.151364,406.487725,83.3979375,0,0,609.7315875,68.8681635,-3.54595675,-4.151364,203.2438625,0,0.333,0.333,0.666
"L11","TZA-L11-H27",28.1654080615385,6.87370077692308,8.04725944615384,787.960820769231,45.7714492307692,0,0,1181.94123115385,17.6060411692308,-6.87370077692308,-8.04725944615384,393.980410384615,0.333,0.291695538290598,0.333,0.957695538290598
"L11","TZA-L11-H28",41.9749026666667,10.2438750555556,11.9928293333333,1174.29787222222,30.0507136111111,0,0,1761.44680833333,-11.9241890555556,-10.2438750555556,-11.9928293333333,587.148936111111,0.232591161111111,0.21680277654321,0.333,0.782393937654321
"L11","TZA-L11-H29",24.908184,6.078783,7.116624,696.8361,40.03101,0,0,1045.25415,15.122826,-6.078783,-7.116624,348.41805,0.333,0.309360377777778,0.333,0.975360377777778
"L11","TZA-L11-H30",16.0393609090909,3.91436784090909,4.58267454545454,448.720215909091,39.9361616161616,0,0,673.080323863636,23.8968007070707,-3.91436784090909,-4.58267454545454,224.360107954545,0.1665,0.324250281313131,0.333,0.823750281313131
"L11","TZA-L11-H31",19.6806240065217,4.70694736141304,5.97238012418478,544.781918396739,16.1961211956522,23.7391839634783,0,31.7309295535714,-3.48450281086957,19.0322366020652,-5.97238012418478,-513.050988843168,0.333,0.128067102898551,0.333,0.794067102898551
"L18","TZA-L18-H01",0.965314077922078,0.220789922077922,0.276130031746032,29.4957079365079,6.01895007215007,0.954360159307359,3.30235543503608,107.25711976912,5.05363599422799,0.733570237229437,3.02622540329004,77.7614118326118,0.333,0.333,0.333,0.999
"L18","TZA-L18-H02",1.7198508,0.2915839,0.49421,69.68361,51.150735,0,0,44.3568360843373,49.4308842,-0.2915839,-0.49421,-25.3267739156627,0.16070492,0.333,0.333,0.82670492
"L18","TZA-L18-H03",11.070304,2.70168133333333,3.162944,309.704933333333,0,165.454918533333,0,464.5574,-11.070304,162.7532372,-3.162944,154.852466666667,0.333,0,0.333,0.666
"L18","TZA-L18-H04",15.0958690909091,3.68411090909091,4.31310545454545,422.324909090909,0,0,0,633.487363636364,-15.0958690909091,-3.68411090909091,-4.31310545454545,211.162454545454,0.333,0.333,0.333,0.999
"L18","TZA-L18-H05",45.96153,6.09113825,13.244828,2148.577975,0,186.13678335,0,3467.37085723684,-45.96153,180.0456451,-13.244828,1318.79288223684,0.162462111111111,0,0.330060355555556,0.492522466666667
"L18","TZA-L18-H06",96.8248163265306,12.123273877551,27.9178220408163,4645.574,57.9940306122449,0,0,1565.46819940988,-38.8307857142857,-12.123273877551,-27.9178220408163,-3080.10580059012,0.124102380952381,0.175038358276644,0.187871319727891,0.487012058956916
"L18","TZA-L18-H07",115.348614,13.62784075,33.2768066666667,5671.47159166667,284.17075,0,0,1688.10177705823,168.822136,-13.62784075,-33.2768066666667,-3983.36981460843,0,0.143423183333333,0.1665,0.309923183333333
"L18","TZA-L18-H08",29.899705,6.97659783333333,8.549833,890.401683333333,208.391883333333,0,0,23.7875777108434,178.492178333333,-6.97659783333333,-8.549833,-866.61410562249,0.1665,0.238628814814815,0.333,0.738128814814815
"L18","TZA-L18-H09",130.47144,13.047144,37.6917493333333,6813.50853333333,0,0,0,1395.53789236948,-130.47144,-13.047144,-37.6917493333333,-5417.97064096386,0,0.154507911111111,0.136758340740741,0.291266251851852
"L18","TZA-L18-H10",10.2356382222222,1.64370585185185,2.94329511111111,430.145740740741,68.4114768518518,0,0,244.09475167336,58.1758386296296,-1.64370585185185,-2.94329511111111,-186.050989067381,0,0.333,0.333,0.666
"L18","TZA-L18-H14",51.1251724137931,7.17456586206896,14.7240496551724,2322.787,0,0,0,600.720775862069,-51.1251724137931,-7.17456586206896,-14.7240496551724,-1722.06622413793,0.118721685823755,0.285009647509578,0.326121823754789,0.729853157088123
"L18","TZA-L18-H15",96.37095,9.637095,27.8404966666667,5032.70516666667,94.7235833333333,0,0,1030.79503413655,-1.64736666666668,-9.637095,-27.8404966666667,-4001.91013253012,0.333,0.230286777777778,0.246216703703704,0.809503481481481
"L18","TZA-L18-H16",4.61262666666667,1.12570055555556,1.31789333333333,129.043722222222,0,0,0,193.565583333333,-4.61262666666667,-1.12570055555556,-1.31789333333333,64.5218611111111,0.333,0.333,0.333,0.999
"L18","TZA-L18-H18",2.9059548,0.70919135,0.8302728,81.297545,0,0,0,121.9463175,-2.9059548,-0.70919135,-0.8302728,40.6487725,0.333,0.333,0.333,0.999
"L18","TZA-L18-H19",86.7042024,9.6272108,25.0267944,4366.83956,227.3366,0,0,1135.08723759036,140.6323976,-9.6272108,-25.0267944,-3231.75232240964,0.1665,0.210806622222222,0.187288577777778,0.5645952
"L18","TZA-L18-H20",11.18150125,1.99691728125,5.8563885,268.572246875,0,0,0,241.759463265306,-11.18150125,-1.99691728125,-5.8563885,-26.8127836096939,0.333,0.333,0.333,0.999
"L18","TZA-L18-H21",10.5167888,2.56659726666667,3.0047968,294.219686666667,1.84505066666667,25.4612379373333,2.22496197435556,513.594014444444,-8.67173813333333,22.8946406706667,-0.779834825644444,219.374327777778,0.333,0.1665,0.333,0.8325
"L18","TZA-L18-H22",15.4455160588235,3.76944141911765,4.41300458823529,432.106699264706,59.4641224313726,9.77536260275,0.147824416888644,652.961234444444,44.018606372549,6.00592118363235,-4.26518017134665,220.854535179738,0.08325,0.24975,0.333,0.666
"L18","TZA-L18-H25",24.908184,6.078783,7.116624,696.8361,0,0,0,1045.25415,-24.908184,-6.078783,-7.116624,348.41805,0.278797955555556,0.309360377777778,0.333,0.921158333333333
"L18","TZA-L18-H27",31.9732382608696,5.15697391304348,7.04786434782609,403.962956521739,0,0,0,420.451240461402,-31.9732382608696,-5.15697391304348,-7.04786434782609,16.4882839396629,0.200297352657005,0.329845024154589,0.333,0.863142376811594
"L18","TZA-L18-H28",30.2077125343474,6.62384824580419,8.64726585444337,971.045545571181,15.5253650188011,0,0,1105.21895242589,-14.6823475155463,-6.62384824580419,-8.64726585444337,134.173406854713,0.2775,0.2775,0.31018835016835,0.86518835016835
"L18","TZA-L18-H30",14.6939223214286,3.07116214285714,4.20961017857143,497.740071428571,91.3405982142857,0,0,504.861352570998,76.6466758928571,-3.07116214285714,-4.20961017857143,7.12128114242674,0.0630317658730159,0.32841683531746,0.333,0.724448601190476
"L18","TZA-L18-H31",72.2782125,7.22782125,20.8803725,3774.528875,0,0,0,0,-72.2782125,-7.22782125,-20.8803725,-3774.528875,0,0.283826194444444,0.323551416666667,0.607377611111111
"L18","TZA-L18-H32",10.4794984090909,1.31976534090909,3.02142022727273,501.510829545454,15.5002227272727,0,0,79.1859204545454,5.02072431818182,-1.31976534090909,-3.02142022727273,-422.324909090909,0.333,0.333,0.333,0.999
"L19","TZA-L19-H01",3.78706706150342,1.11000241457859,1.11000241457859,153.441510250569,0,0,0,230.162265375854,-3.78706706150342,-1.11000241457859,-1.11000241457859,76.7207551252847,0.333,0.333,0.333,0.999
"L19","TZA-L19-H02",13.0751622047244,3.19096220472441,3.73576062992126,365.793228346457,0,0,0,548.689842519685,-13.0751622047244,-3.19096220472441,-3.73576062992126,182.896614173228,0.333,0.333,0.333,0.999
"L19","TZA-L19-H03",33.233831884058,9.74095072463768,9.74095072463768,1346.5431884058,0,0,0,2019.8147826087,-33.233831884058,-9.74095072463768,-9.74095072463768,673.271594202898,0.1862907568438,0.227978872785829,0.333,0.74726962962963
"L19","TZA-L19-H04",22.01409024,6.45240576,6.45240576,891.950208,11.36683,0,0,1337.925312,-10.64726024,-6.45240576,-6.45240576,445.975104,0.333,0.301057649777778,0.333,0.967057649777778
"L19","TZA-L19-H05",6.4494405,1.06431653571429,4.85208317857143,522.627075,40.5958214285714,25.4175733071429,0,783.9406125,34.1463809285714,24.3532567714286,-4.85208317857143,261.3135375,0.1665,0.1665,0.333,0.666
"L19","TZA-L19-H07",7.34978974358974,2.15424871794872,2.15424871794872,297.793205128205,0,0,0,446.689807692308,-7.34978974358974,-2.15424871794872,-2.15424871794872,148.896602564102,0.333,0.333,0.333,0.999
"L19","TZA-L19-H08",17.1505541479416,5.02688656060358,5.02688656060358,694.893142201083,16.7323764556339,0,0,1042.33971330162,-0.41817769230769,-5.02688656060358,-5.02688656060358,347.446571100541,0.333,0.327172258852259,0.333,0.993172258852259
"L19","TZA-L19-H09",18.6071844867947,4.61278116909264,5.32714476590636,538.898899697379,0,0,0,808.348349546068,-18.6071844867947,-4.61278116909264,-5.32714476590636,269.449449848689,0.226297864923747,0.281857908496732,0.333,0.841155773420479
"L19","TZA-L19-H10",17.79156,4.34198785714286,5.08330285714286,497.740071428571,0,0,0,746.610107142857,-17.79156,-4.34198785714286,-5.08330285714286,248.870035714286,0.333,0.333,0.333,0.999
"L19","TZA-L19-H12",32.0867686567164,9.40474253731343,9.40474253731343,1300.06735074627,16.9654179104478,0,0,1950.1010261194,-15.1213507462687,-9.40474253731343,-9.40474253731343,650.033675373134,0.333,0.235450165837479,0.333,0.901450165837479
"L19","TZA-L19-H13",8.302728,2.026261,2.372208,232.2787,0,0,0,348.41805,-8.302728,-2.026261,-2.372208,116.13935,0.333,0.333,0.333,0.999
"L19","TZA-L19-H14",10.1917084444444,2.98722488888889,2.98722488888889,412.939911111111,0,0,0,619.409866666667,-10.1917084444444,-2.98722488888889,-2.98722488888889,206.469955555555,0.333,0.333,0.333,0.999
"L19","TZA-L19-H15",7.64378133333333,2.24041866666667,2.24041866666667,309.704933333333,0,0,0,464.5574,-7.64378133333333,-2.24041866666667,-2.24041866666667,154.852466666667,0.333,0.333,0.333,0.999
"L19","TZA-L19-H16",23.8868166666667,7.00130833333333,7.00130833333333,967.827916666667,0,0,0,1451.741875,-23.8868166666667,-7.00130833333333,-7.00130833333333,483.913958333333,0.290146481481482,0.288859814814815,0.333,0.912006296296296
"L19","TZA-L19-H17",8.18976571428571,2.40044857142857,2.40044857142857,331.826714285714,0,0,0,497.740071428571,-8.18976571428571,-2.40044857142857,-2.40044857142857,165.913357142857,0.333,0.333,0.333,0.999
"L19","TZA-L19-H18",21.2235342696809,6.22069107904441,6.22069107904441,859.919060926728,0,0,0,1289.87859139009,-21.2235342696809,-6.22069107904441,-6.22069107904441,429.959530463364,0.306218254146402,0.304620917820177,0.333,0.943839171966579
"L19","TZA-L19-H20",26.342097002849,7.47031503133903,7.68320549287749,1003.23221994302,0,0,0,1504.84832991453,-26.342097002849,-7.47031503133903,-7.68320549287749,501.61610997151,0.208358600823045,0.250424773662551,0.333,0.791783374485597
"L19","TZA-L19-H23",18.6717218042796,5.36556257058285,5.45660125479338,729.125360763233,0,0,0,1093.68804114485,-18.6717218042796,-5.36556257058285,-5.45660125479338,364.562680381616,0.297641492063492,0.305070226551227,0.333,0.935711718614719
"L19","TZA-L19-H24",33.210912,8.105044,9.488832,929.1148,0,0,0,1393.6722,-33.210912,-8.105044,-9.488832,464.5574,0.186545422222222,0.264332355555556,0.333,0.783877777777778
"L19","TZA-L19-H25",27.3716307692308,6.67998131868132,7.82046593406593,765.753956043956,0,0,0,1148.63093406593,-27.3716307692308,-6.67998131868132,-7.82046593406593,382.876978021978,0.251426324786325,0.296000415140415,0.333,0.88042673992674
"L19","TZA-L19-H26",8.648675,2.11068854166667,2.47105,241.956979166667,0,0,0,362.93546875,-8.648675,-2.11068854166667,-2.47105,120.978489583333,0.333,0.333,0.333,0.999
"L19","TZA-L19-H27",7.03621016949153,1.71717033898305,2.01034576271186,196.846355932203,0,0,0,295.269533898305,-7.03621016949153,-1.71717033898305,-2.01034576271186,98.4231779661016,0.333,0.333,0.333,0.999
"L19","TZA-L19-H28",12.8621320512821,3.76993525641026,3.76993525641026,521.138108974359,0,0,0,781.707163461538,-12.8621320512821,-3.76993525641026,-3.76993525641026,260.569054487179,0.333,0.32648837037037,0.333,0.99248837037037
"L19","TZA-L19-H29",21.9778094117647,5.36363205882353,6.27937411764706,614.855382352941,0,0,0,922.283073529412,-21.9778094117647,-5.36363205882353,-6.27937411764706,307.42769117647,0.311357673202614,0.325252620915033,0.333,0.969610294117647
"L19","TZA-L19-H30",30.5751253333333,8.96167466666667,8.96167466666667,1238.81973333333,0,0,0,1858.2296,-30.5751253333333,-8.96167466666667,-8.96167466666667,619.409866666666,0.215831940740741,0.245296118518518,0.333,0.794128059259259
"L19","TZA-L19-H31",2.8021707,0.6838630875,0.8006202,78.39406125,0,0,0,117.591091875,-2.8021707,-0.6838630875,-0.8006202,39.197030625,0.333,0.333,0.333,0.999
"L19","TZA-L19-H32",6.91894,1.68855083333333,1.97684,193.565583333333,0,0,0,290.348375,-6.91894,-1.68855083333333,-1.97684,96.7827916666666,0.333,0.333,0.333,0.999
"L19","TZA-L19-H33",22.0134139526316,5.51820146403509,5.76097128859649,633.366963991228,0,0,0,705.54655125,-22.0134139526316,-5.51820146403509,-5.76097128859649,72.1795872587718,0.310962067192982,0.313108092222222,0.333,0.957070159415205
"L20","TZA-L20-H01",18.3301153297297,4.88386336216216,5.29899976216216,617.735785945946,0,0,0,0,-18.3301153297297,-4.88386336216216,-5.29899976216216,-617.735785945946,0.333,0.333,0.333,0.999
"L20","TZA-L20-H02",143.3209,42.00785,42.00785,5806.9675,0,0,0,8710.45125,-143.3209,-42.00785,-42.00785,2903.48375,0,0,0.0888016666666667,0.0888016666666667
"L20","TZA-L20-H03",100.674193170732,29.5079531707317,29.5079531707317,4079.04058536585,154.289951219512,96.8516596292683,0,6118.56087804878,53.6157580487805,67.3437064585366,-29.5079531707317,2039.52029268293,0,0,0.227689409214092,0.227689409214092
"L20","TZA-L20-H04",63.8255741333333,18.7074958666667,18.7074958666667,2586.03619333333,58.9391185185185,0,0,3879.05429,-4.88645561481481,-18.7074958666667,-18.7074958666667,1293.01809666667,0.333,0.0374034725925926,0.328770531851852,0.699174004444444
"L20","TZA-L20-H05",14.9449104,3.6472698,4.2699744,418.10166,0,0,0,627.15249,-14.9449104,-3.6472698,-4.2699744,209.05083,0.333,0.333,0.333,0.999
"L20","TZA-L20-H06",52.1908569692308,15.2973201461538,15.2973201461538,2114.62954961538,50.2763634615385,0,0,0,-1.91449350769231,-15.2973201461538,-15.2973201461538,-2114.62954961538,0.333,0.104503996752137,0.333,0.770503996752137
"L20","TZA-L20-H07",50.705946,13.288071375,14.4278431875,1371.896071875,0,0,0,0,-50.705946,-13.288071375,-14.4278431875,-1371.896071875,0.129514777777778,0.149153969444444,0.325667377777778,0.604336125
"L20","TZA-L20-H08",15.3981715714286,4.36052073214286,4.49025085714286,584.844583928571,19.0623857142857,6.64324142142857,22.9874897860714,746.610107142857,3.66421414285714,2.28272068928571,18.4972389289286,161.765523214286,0.333,0.321109587460317,0.228868700789683,0.88297828825
"L20","TZA-L20-H10",19.0092665442177,5.32881092006803,5.48741198639456,640.346552210884,0,0,0,960.519828316326,-19.0092665442177,-5.32881092006803,-5.48741198639456,320.173276105442,0.301021555555556,0.307914296296296,0.333,0.941935851851852
"L20","TZA-L20-H11",63.4027252497911,14.2588461787803,16.313719336675,1641.47495680869,18.0425873015873,0,0,2284.44812398854,-45.3601379482038,-14.2588461787803,-16.313719336675,642.973167179854,0.197378050088183,0.149323703703704,0.318603570723104,0.665305324514991
"L20","TZA-L20-H12",43.0989152428294,12.5576309835598,12.6211722692741,1727.12416411394,0,0,0,2590.68624617091,-43.0989152428294,-12.5576309835598,-12.6211722692741,863.562082056968,0.111,0.148331740979689,0.327199382149363,0.586531123129052
"L20","TZA-L20-H13",66.5130627692308,17.4005367032967,19.1796927032967,2159.42615604396,0,0,0,3239.13923406593,-66.5130627692308,-17.4005367032967,-19.1796927032967,1079.71307802198,0.013185347008547,0.0671163145299145,0.308723034920635,0.389024696459096
"L20","TZA-L20-H14",66.9347338378378,19.6188012972973,19.6188012972973,2712.01076756757,30.7211621621622,0,0,0,-36.2135716756757,-19.6188012972973,-19.6188012972973,-2712.01076756757,0.153182536936937,0.00847108228228222,0.333,0.494653619219219
"L20","TZA-L20-H15",71.7850768695652,21.0404535652174,21.0404535652174,2908.53328695652,0,0,0,0,-71.7850768695652,-21.0404535652174,-21.0404535652174,-2908.53328695652,0,0,0.321772738164251,0.321772738164251
"L20","TZA-L20-H16",82.2411681871345,23.4455095694793,24.0058069106099,3163.54404333055,31.0398561403509,0.483458764912281,1.67290374011696,4799.65026382623,-51.2013120467836,-22.962050804567,-22.3329031704929,1636.10622049568,0.198563456790123,0.211499447383892,0.222,0.632062904174015
"L20","TZA-L20-H17",13.1007506561224,3.77114378864796,3.82952234489796,513.235193890306,0,0,0,0,-13.1007506561224,-3.77114378864796,-3.82952234489796,-513.235193890306,0.314281496598639,0.312517505668934,0.333,0.959799002267574
"L20","TZA-L20-H18",18.1221315777778,5.31165925555556,5.31165925555556,734.258779444444,0,0,0,1101.38816916667,-18.1221315777778,-5.31165925555556,-5.31165925555556,367.129389722222,0.333,0.326407572098765,0.333,0.992407572098765
"L20","TZA-L20-H19",30.0035899591837,8.18320986734694,8.70213036734694,1059.47529489796,0,0,0,0,-30.0035899591837,-8.18320986734694,-8.70213036734694,-1059.47529489796,0.215464218518519,0.25358970202192,0.333,0.802053920540438
"L20","TZA-L20-H20",83.3967482245989,23.6891767139037,24.3301961550802,3186.06879946524,0,0,0,0,-83.3967482245989,-23.6891767139037,-24.3301961550802,-3186.06879946524,0.106839260130719,0.138787945751634,0.222781841414141,0.468409047296494
"L20","TZA-L20-H22",15.7945481632653,4.62943653061224,4.62943653061224,639.951520408163,2.72319795918367,0.94903448877551,3.28392711229592,106.658586734694,-13.0713502040816,-3.68040204183673,-1.34550941831633,-533.292933673469,0.333,0.333,0.333,0.999
"L20","TZA-L20-H23",18.2994980555556,5.34478962962963,5.36080569444444,736.624581018519,33.4318529411765,0,0,1104.93687152778,15.1323548856209,-5.34478962962963,-5.36080569444444,368.312290509259,0.271869550653595,0.27203375,0.333,0.876903300653595
"L20","TZA-L20-H24",19.373032,4.72794233333333,5.535152,541.983633333333,0,0,0,812.97545,-19.373032,-4.72794233333333,-5.535152,270.991816666666,0.333,0.333,0.333,0.999
"L20","TZA-L20-H25",41.0701182051282,12.1524971794872,16.9045164102564,3781.9737051282,25.8337045454545,0,0,3492.68887728938,-15.2364136596737,-12.1524971794872,-16.9045164102564,-289.284827838828,0.269571828282828,0.222,0.282717481481482,0.77428930976431
"L20","TZA-L20-H26",20.5494510335946,5.84763052323628,5.99668215621501,787.744728947368,0,0,0,0,-20.5494510335946,-5.84763052323628,-5.99668215621501,-787.744728947368,0.25569764619883,0.278175248538012,0.333,0.866872894736842
"L20","TZA-L20-H27",55.7830125330265,16.2419244508631,16.3338850457998,2232.49500361335,24.6855398989899,0,0,3348.74250542002,-31.0974726340366,-16.2419244508631,-16.3338850457998,1116.24750180667,0.200930783703704,0.111,0.30688928026936,0.618820063973064
"L20","TZA-L20-H28",31.2273091263158,8.85317761165413,9.10769576165413,1188.63821969925,14.9563552631579,11.2810171727273,0,1526.62119276316,-16.2709538631579,2.42783956107314,-9.10769576165413,337.98297306391,0.24975,0.19801729005848,0.333,0.78076729005848
"L20","TZA-L20-H29",83.4193215865384,22.3356783894231,24.1319416586538,2839.27209014423,53.282015625,0,0,0,-30.1373059615385,-22.3356783894231,-24.1319416586538,-2839.27209014423,0.133633194444444,0,0.287422870459402,0.421056064903846
"L20","TZA-L20-H30",28.6959506428571,7.91574391964286,8.30625807142857,993.406225892857,0,0,0,1490.10933883929,-28.6959506428571,-7.91574391964286,-8.30625807142857,496.703112946428,0.185118931481482,0.245511161574074,0.333,0.763630093055556
"L20","TZA-L20-H31",53.37468,15.6443027586207,15.6443027586207,2162.59479310345,19.5979827586207,0,0,0,-33.7766972413793,-15.6443027586207,-15.6443027586207,-2162.59479310345,0.18025891954023,0.0967932720306513,0.333,0.610052191570881
"L20","TZA-L20-H32",68.794032,20.163768,20.163768,2787.3444,102.010012820513,0,0,0,33.2159808205128,-20.163768,-20.163768,-2787.3444,0.186489101994302,0,0.331513688888889,0.518002790883191
"L22","TZA-L22-H01",2.075682,0.247105,2.125103,232.2787,0,0,0,348.41805,-2.075682,-0.247105,-2.125103,116.13935,0.333,0.333,0.333,0.999
"L22","TZA-L22-H02",16.4819035,4.83090275,4.83090275,667.8012625,0,0,0,1001.70189375,-16.4819035,-4.83090275,-4.83090275,333.90063125,0.333,0.332711755555556,0.333,0.998711755555556
"L22","TZA-L22-H03",5.94050404040404,1.64861467171717,1.72723898989899,217.028078282828,0,0,0,325.542117424242,-5.94050404040404,-1.64861467171717,-1.72723898989899,108.514039141414,0.333,0.333,0.333,0.999
"L22","TZA-L22-H04",3.72269054347826,0.768557942546584,2.44534187111801,283.134750776398,0,0,0,424.702126164596,-3.72269054347826,-0.768557942546584,-2.44534187111801,141.567375388199,0.333,0.333,0.333,0.999
"L22","TZA-L22-H05",0,0,0,0,0,0,0,0,0,0,0,0,0.333,0.333,0.333,0.999
"L22","TZA-L22-H06",23.8868166666667,7.00130833333333,7.00130833333333,967.827916666667,0,0,0,1451.741875,-23.8868166666667,-7.00130833333333,-7.00130833333333,483.913958333333,0.290146481481482,0.288859814814815,0.333,0.912006296296296
"L22","TZA-L22-H07",8.76786682352941,2.569892,2.569892,355.249776470588,0,0,0,532.874664705882,-8.76786682352941,-2.569892,-2.569892,177.624888235294,0.333,0.333,0.333,0.999
"L22","TZA-L22-H08",10.6592111363636,1.89259965909091,8.29486556818182,937.033392045455,0,0,0,1405.55008806818,-10.6592111363636,-1.89259965909091,-8.29486556818182,468.516696022727,0.333,0.333,0.333,0.999
"L22","TZA-L22-H09",5.4610205,1.14903825,3.49653575,406.487725,0,0,0,609.7315875,-5.4610205,-1.14903825,-3.49653575,203.2438625,0.333,0.333,0.333,0.999
"L22","TZA-L22-H11",9.89856656976744,1.50370096899225,9.18215362403101,1008.34164341085,0,0,0,1512.51246511628,-9.89856656976744,-1.50370096899225,-9.18215362403101,504.170821705426,0.333,0.333,0.333,0.999
"L22","TZA-L22-H12",17.050245,3.62420666666667,8.93696416666667,1000.08884722222,0,0,0,1500.13327083333,-17.050245,-3.62420666666667,-8.93696416666667,500.044423611111,0.327562462962963,0.323472759259259,0.333,0.984035222222222
"L22","TZA-L22-H13",14.7909992857143,3.91102497023809,4.27138642857143,490.827014880952,0,0,0,736.240522321428,-14.7909992857143,-3.91102497023809,-4.27138642857143,245.413507440476,0.333,0.333,0.333,0.999
"L22","TZA-L22-H14",8.71456966666667,2.38456325,2.52870783333333,309.704933333333,0,0,0,464.5574,-8.71456966666667,-2.38456325,-2.52870783333333,154.852466666667,0.333,0.333,0.333,0.999
"L22","TZA-L22-H15",30.8606688888889,7.68771111111111,8.84086777777778,903.306055555556,0,0,0,1354.95908333333,-30.8606688888889,-7.68771111111111,-8.84086777777778,451.653027777778,0.173861925925926,0.257202888888889,0.333,0.764064814814815
"L22","TZA-L22-H16",5.22764355555556,1.3382893015873,1.50302596825397,162.226393650794,0,0,0,243.33959047619,-5.22764355555556,-1.3382893015873,-1.50302596825397,81.1131968253968,0.333,0.333,0.333,0.999
"L22","TZA-L22-H17",3.05247352941177,0.363389705882353,3.12515147058824,341.586323529412,0,0,0,512.379485294118,-3.05247352941177,-0.363389705882353,-3.12515147058824,170.793161764706,0.333,0.333,0.333,0.999
"L22","TZA-L22-H18",6.23116441666667,1.78121520833333,2.01596495833333,270.991816666667,0,0,0,406.487725,-6.23116441666667,-1.78121520833333,-2.01596495833333,135.495908333333,0.333,0.333,0.333,0.999
"L22","TZA-L22-H19",7.975313875,2.02780540625,2.168346375,239.537409375,0,0,0,359.3061140625,-7.975313875,-2.02780540625,-2.168346375,119.7687046875,0.333,0.333,0.333,0.999
"L22","TZA-L22-H20",14.5632527419355,3.38374427419355,3.91382435483871,355.910911290323,0,0,0,533.866366935484,-14.5632527419355,-3.38374427419355,-3.91382435483871,177.955455645161,0.328962111111111,0.332437194444444,0.333,0.994399305555556
"L22","TZA-L22-H21",56.587045,12.9730125,31.7529925,3774.528875,0,0,0,5661.7933125,-56.587045,-12.9730125,-31.7529925,1887.2644375,0.0471464444444444,0.1665,0.202744527777778,0.416390972222222
"L22","TZA-L22-H22",12.484007594235,2.75185113636364,5.30782635809313,547.219775498891,0,0,0,820.829663248337,-12.484007594235,-2.75185113636364,-5.30782635809313,273.609887749446,0.331774688346883,0.333,0.333,0.997774688346884
"L22","TZA-L22-H23",11.8722720454545,2.64795471590909,2.86417159090909,250.755414772727,0,0,0,376.133122159091,-11.8722720454545,-2.64795471590909,-2.86417159090909,125.377707386364,0.333,0.333,0.333,0.999
"L22","TZA-L22-H24",38.9190375,4.63321875,39.84568125,4355.225625,0,0,0,6532.8384375,-38.9190375,-4.63321875,-39.84568125,2177.6128125,0.123121805555556,0.333,0.112825763888889,0.568947569444445
"L22","TZA-L22-H25",7.89352037642538,1.51846668556669,4.15799736738487,438.147459609085,0,0,0,657.221189413627,-7.89352037642538,-1.51846668556669,-4.15799736738487,219.073729804542,0.333,0.333,0.333,0.999
"L22","TZA-L22-H26",1.57248636363636,0.187200757575758,1.60992651515152,175.968712121212,0,0,0,263.953068181818,-1.57248636363636,-0.187200757575758,-1.60992651515152,87.984356060606,0.333,0.333,0.333,0.999
"L22","TZA-L22-H27",8.81974769230769,2.58509846153846,2.58509846153846,357.351846153846,0,0,0,536.027769230769,-8.81974769230769,-2.58509846153846,-2.58509846153846,178.675923076923,0.333,0.333,0.333,0.999
"L22","TZA-L22-H28",40.426378,11.5480403333333,13.1130386666667,1761.44680833333,0,0,0,2642.1702125,-40.426378,-11.5480403333333,-13.1130386666667,880.723404166667,0.1665,0.1665,0.318254227777778,0.651254227777778
"L22","TZA-L22-H29",12.7030274074074,3.30846138888889,3.66081481481481,408.638453703704,0,0,0,612.957680555555,-12.7030274074074,-3.30846138888889,-3.66081481481481,204.319226851852,0.333,0.333,0.333,0.999
"L22","TZA-L22-H30",27.6470690207337,7.02349654944179,7.940780261563,844.094127511962,0,0,0,1266.14119126794,-27.6470690207337,-7.02349654944179,-7.940780261563,422.047063755981,0.222,0.250755664983165,0.333,0.805755664983165
