"landscape_no","eplot_no","PET"
"L0",1,1648
"L0",3,1371
"L0",4,1641
"L0",6,1498
"L0",7,1546
"L0",10,1602
"L0",11,1735
"L0",12,1312
"L0",13,1511
"L0",14,1410
"L0",15,1439
"L0",16,1401
"L0",18,1504
"L0",20,1509
"L0",21,1720
"L0",22,1446
"L0",23,1533
"L0",24,1456
"L0",27,1478
"L0",28,1343
"L0",29,1653
"L0",30,1568
"L0",31,1432
"L0",32,1565
"L0",33,1517
"L0",36,1518
"L0",37,1570
"L0",39,1449
"L0",40,1560
"L0",41,1497
"L0",42,1378
"L0",43,1523
"L0",44,1417
"L0",45,1515
"L0",46,1587
"L0",47,1547
"L0",48,1507
"L0",49,1397
"L0",51,1654
"L0",52,1550
"L0",53,1315
"L0",54,1311
"L0",56,1518
"L0",57,1315
"L0",58,1677
"L0",59,1438
"L0",60,1509
"L0",61,1556
"L0",62,1732
"L0",63,1696
"L0",66,1650
"L0",67,1651
"L0",70,1347
"L0",72,1529
"L0",73,1426
"L0",74,1513
"L0",75,1694
"L0",76,1294
"L0",77,1374
"L0",78,1390
"L0",79,1336
"L0",80,1535
"L0",81,1527
"L0",82,1484
"L0",83,1748
"L0",84,1578
"L0",85,1738
"L0",86,1730
"L0",87,1632
"L0",88,1457
"L0",89,1814
"L0",90,1347
"L0",91,1502
"L0",92,1514
"L0",93,1621
"L0",94,1541
"L0",96,1517
"L0",97,1784
"L0",99,1774
"L0",100,1570
"L0",101,1760
"L0",102,1784
"L0",103,1701
"L0",105,1603
"L0",107,1544
"L0",108,1794
"L0",109,1701
"L0",110,1557
"L0",111,1541
"L0",112,1616
"L0",113,1800
"L0",114,1705
"L0",115,1725
"L0",116,1721
"L0",117,1755
"L0",118,1789
"L0",119,1724
"L0",120,1716
"L0",121,1711
"L0",123,1719
"L0",124,1864
"L0",125,1737
"L0",126,1589
"L0",127,1715
"L0",128,1593
"L0",129,1770
"L0",130,1738
"L0",131,1728
"L0",133,1687
"L0",134,1708
"L0",135,1836
"L0",136,1675
"L0",137,1572
"L0",138,1821
"L0",142,1832
"L0",143,1704
"L0",145,1684
"L0",146,1815
"L0",147,1746
"L0",148,1611
"L0",149,1434
"L0",150,1715
"L0",152,1653
"L0",153,1675
"L0",154,1624
"L0",155,1559
"L0",156,1566
"L0",158,1745
"L0",159,1721
"L0",160,1837
"L0",161,1480
"L0",162,1511
"L0",163,1288
"L0",164,1589
"L0",165,1604
"L0",166,1716
"L0",167,1729
"L0",168,1706
"L0",169,1738
"L0",170,1607
"L0",172,1674
"L0",173,1710
"L0",174,1555
"L0",175,1580
"L0",176,1583
"L0",177,1309
"L0",178,1784
"L0",179,1862
"L0",180,1550
"L0",181,1725
"L0",182,1770
"L0",183,1749
"L0",184,1595
"L0",185,1720
"L0",188,1622
"L0",189,1767
"L0",190,1566
"L0",192,1775
"L0",193,1680
"L0",194,1644
"L0",195,1566
"L0",196,1541
"L0",197,1785
"L0",198,1527
"L0",199,1452
"L0",200,1505
"L0",201,1530
"L0",202,1548
"L0",203,1579
"L0",204,1554
"L0",205,1563
"L0",206,1829
"L0",207,1726
"L0",208,1758
"L0",209,1481
"L0",210,1843
"L0",211,1729
"L0",212,1501
"L0",213,1676
"L0",214,1584
"L0",215,1698
"L0",216,1778
"L0",218,1758
"L0",219,1778
"L0",220,1402
"L0",222,1811
"L0",223,1728
"L0",224,1493
"L0",225,1711
"L0",226,1732
"L0",227,1657
"L0",228,1525
"L0",229,1886
"L0",230,1599
"L0",231,1577
"L0",232,1404
"L0",233,1702
"L0",234,1625
"L0",235,1563
"L0",236,1405
"L0",237,1704
"L0",238,1534
"L0",239,1836
"L0",241,1601
"L0",242,1538
"L0",243,1670
"L0",244,1783
"L0",245,1728
"L0",246,1614
"L0",247,1719
"L0",248,1723
"L0",249,1726
"L0",250,1666
"L0",251,1720
"L0",252,1520
"L0",254,1732
"L0",256,1736
"L0",257,1412
"L0",258,1710
"L0",260,1568
"L0",261,1831
"L0",263,1830
"L0",264,1303
"L0",265,1621
"L0",266,1530
"L0",267,1545
"L0",268,1622
"L0",269,1595
"L0",270,1557
"L0",271,1492
"L0",273,1729
"L0",274,1654
"L0",275,1676
"L0",276,1215
"L0",277,1642
"L0",278,1763
"L0",279,1572
"L0",280,1530
"L0",281,1441
"L0",282,1885
"L0",283,1237
"L0",284,1511
"L0",285,1542
"L0",286,1495
"L0",287,1705
"L0",288,1554
"L0",289,1818
"L0",290,1608
"L0",291,1549
"L0",292,1722
"L0",293,1561
"L0",294,1542
"L0",295,1579
"L0",296,1559
"L0",297,1472
"L0",298,1304
"L0",299,1564
"L0",300,1459
"L0",301,1443
"L0",303,1454
"L0",304,1496
"L0",305,1594
"L0",306,1638
"L0",307,1438
"L0",308,1589
"L0",309,1682
"L0",310,1719
"L0",311,1436
"L0",312,1826
"L0",313,1323
"L0",315,1351
"L0",316,1727
"L0",317,1769
"L0",318,1530
"L0",320,1538
"L0",321,1729
"L0",322,1496
"L0",324,1866
"L0",326,1580
"L0",327,1378
"L0",328,1476
"L0",329,1443
"L0",330,1493
"L0",331,1570
"L0",332,1806
"L0",333,1687
"L0",334,1741
"L0",335,1466
"L0",336,1414
"L0",337,1545
"L0",338,1583
"L0",339,1531
"L0",340,1474
"L0",341,1679
"L0",342,1327
"L0",343,1685
"L0",344,1796
"L0",345,1245
"L0",346,1534
"L0",347,1583
"L0",348,1736
"L0",349,1532
"L0",350,1607
"L0",351,1512
"L0",352,1573
"L0",353,1726
"L0",355,1536
"L0",356,1689
"L0",357,1490
"L0",358,1826
"L0",361,1449
"L0",362,1736
"L0",363,1607
"L0",364,1468
"L0",365,1665
"L0",366,1280
"L0",367,1523
"L0",369,1651
"L0",370,1568
"L0",371,1320
"L0",372,1395
"L0",373,1828
"L0",375,1718
"L0",377,1371
"L0",378,1750
"L0",380,1544
"L0",381,1604
"L0",383,1540
"L0",384,1630
"L0",385,1789
"L0",386,1337
"L0",387,1724
"L0",388,1612
"L0",389,1737
"L0",390,1771
"L0",391,1462
"L0",392,1439
"L0",393,1591
"L0",394,1439
"L0",395,1772
"L0",396,1513
"L0",397,1507
"L0",399,1716
"L03",1,1596
"L03",2,1610
"L03",3,1575
"L03",4,1597
"L03",5,1597
"L03",6,1573
"L03",8,1575
"L03",10,1593
"L10",1,1604
"L10",2,1582
"L10",3,1607
"L10",4,1621
"L10",5,1611
"L10",7,1608
"L10",8,1629
"L11",2,1475
"L11",3,1455
"L11",4,1457
"L11",5,1459
"L11",6,1463
"L11",8,1445
"L11",11,1459
"L11",12,1464
"L11",13,1488
"L11",14,1464
"L18",1,1531
"L18",2,1539
"L18",3,1549
"L18",4,1527
"L18",5,1549
"L18",6,1544
"L18",7,1521
"L18",8,1539
"L18",10,1525
"L18",13,1525
"L19",1,1387
"L19",2,1398
"L19",3,1400
"L19",5,1412
"L19",6,1404
"L19",7,1395
"L19",8,1382
"L19",9,1408
"L19",13,1400
"L20",1,1753
"L20",2,1764
"L20",3,1764
"L20",4,1763
"L20",5,1756
"L20",6,1770
"L20",7,1767
"L20",8,1756
"L20",9,1757
"L20",10,1769
"L22",1,1465
"L22",2,1478
"L22",3,1480
"L22",4,1476
"L22",6,1484
"L22",7,1468
"L22",8,1484
"L22",11,1464
"L22",12,1488
"L22",13,1484
