"country","landscape_no","field_no","hh_refno","farmproc_ec","farmproc_acidified_carbon","farmproc_clay_icraf","farmproc_sand_icraf","farmproc_silt_icraf","farmproc_exacidity","farmproc_exch_al","farmproc_ph","farmproc_m3_ca","farmproc_m3_k","farmproc_m3_mg","farmproc_m3_p","farmproc_m3_s"
"TZA","L03","M1","TZA-L03-H01",0.095718056,2.705179691,66.12333223,12.65312583,21.22354194,0.11,0.299911139,6.177132778,7.749297705,0.869093525641026,3.03473539333333,16.45338417,10.21853847
"TZA","L03","M2","TZA-L03-H01",0.3824114,2.024529865,53.28343067,12.88630967,18.54072567,0.380686333,0.438357267,5.557542667,6.6376625,0.866622435,3.672361538,11.08146933,13.309787
"TZA","L03","M3","TZA-L03-H01",0.3658239,2.847654194,33.20011933,27.11308333,27.17805,0.274159333,0.387828533,5.883886,8.377734167,0.896385146,3.042920777,41.67392633,9.925851333
"TZA","L03","M1","TZA-L03-H02",0.371153633,2.598359933,59.21073567,15.22159267,14.677002,0.256646667,0.304489633,5.932054667,7.364186167,0.565752248,2.333377299,13.96855133,9.344651
"TZA","L03","M3","TZA-L03-H02",0.419048333,2.719061219,50.653351,16.48368667,14.17480933,0.253396333,0.322999,5.94986,8.008001,0.69047847,2.794001282,13.77122433,8.93687
"TZA","L03","M1","TZA-L03-H03",0.571324033,1.274161129,63.908903,13.18478133,13.94269167,0.215968333,0.251113367,5.429048,2.649821267,0.406004091,1.369210737,5.09614,7.925313667
"TZA","L03","M2","TZA-L03-H03",0.3916614,2.21641004,56.51793567,15.578838,14.78716267,0.246473667,0.255377833,6.010636,8.093017167,0.555983973,2.554850579,11.49213233,9.533880333
"TZA","L03","M1","TZA-L03-H04",0.3504365,1.866800668,38.00696967,22.16961533,15.800447,0.206277333,0.2971077,5.766974,6.023928167,0.521474391,2.097586015,13.86252333,8.758186333
"TZA","L03","M1","TZA-L03-H05",0.411005367,2.422157795,48.54270467,17.32859167,13.624589,0.248064333,0.3161731,5.696372667,5.558286833,0.499439802,1.718254202,13.65820067,9.114984333
"TZA","L03","M1","TZA-L03-H06",0.386997733,1.624775934,47.16546367,16.02665533,17.38658067,0.226247333,0.264280833,5.909225667,6.610211667,0.549506295,2.602187721,10.93247367,8.283059
"TZA","L03","M2","TZA-L03-H06",0.332875333,2.381590155,56.55041733,14.562183,16.645567,0.248788667,0.293172833,5.960484333,7.438961167,0.547868168,2.605616323,9.765974,8.872495333
"TZA","L03","M3","TZA-L03-H06",0.074189056,1.940969248,44.67275722,33.49237528,21.8348675,0.11,0.288213666,6.428109445,7.13530264,0.735602279230769,2.59838342583333,28.83181778,10.07756378
"TZA","L03","M1","TZA-L03-H07",0.415579233,1.615585047,43.36545467,18.78304533,13.55289367,0.215183667,0.252678867,5.769451667,5.747224333,0.481019611,1.945289395,9.228502,8.623521667
"TZA","L03","M2","TZA-L03-H07",0.6204,1.281158244,42.48043833,23.38766267,8.337914333,0.235577333,0.285773267,5.571141667,2.081958967,0.59745373,1.375533868,7.460904667,8.038477333
"TZA","L03","M1","TZA-L03-H08",0.372073833,1.908116471,44.17366733,17.343577,15.309835,0.219172333,0.272759467,5.709355667,6.4195945,0.508499506,2.431786354,11.228065,8.552231667
"TZA","L03","M3","TZA-L03-H08",0.393342267,2.447317698,38.82963267,23.406017,26.762396,0.207148667,0.3314979,6.024724,7.693472,0.561729152,2.622706141,20.78736667,9.013167667
"TZA","L03","M1","TZA-L03-H09",0.379382167,2.500170968,52.06603767,17.62526867,16.16766233,0.224725,0.279260033,5.966027667,7.678594333,0.672987897,2.695576441,12.007441,9.016864
"TZA","L03","M2","TZA-L03-H09",0.3522739,1.481319018,40.05390667,19.10141467,19.02197333,0.217866667,0.282204367,5.687881,5.827563833,0.414390914,2.276426069,11.55906367,8.323079667
"TZA","L03","M4","TZA-L03-H09",0.054395667,2.009190987,61.13594806,17.88775222,20.97629972,0.15,0.309033389,5.888488611,6.59663214,0.795442856153846,2.644809745,20.52073695,8.279486666
"TZA","L03","M1","TZA-L03-H10",0.354919033,1.076907664,40.07087733,19.684368,15.058538,0.215857667,0.3333783,5.493453667,2.243561967,0.479018944,1.237836068,9.519340667,8.421879667
"TZA","L03","M1","TZA-L03-H11",0.3678962,2.200450954,48.82350333,17.14829333,16.36092933,0.28197,0.352632667,5.973378333,7.942260833,0.824417813,3.079103007,17.819316,10.06186033
"TZA","L03","M2","TZA-L03-H11",0.094470889,2.48197184,57.3629625,21.06547889,21.57155861,0.09,0.218490611,6.144215,8.197254165,0.813691595384615,2.77259594916667,23.31486972,9.377793333
"TZA","L03","M1","TZA-L03-H12",0.049478778,1.875368116,50.09290722,30.30142305,19.60566972,0.14,0.421528944,5.846463611,5.13653203,0.716862307692308,2.52736594916667,13.28674083,10.70766378
"TZA","L03","M2","TZA-L03-H12",0.331837267,1.226024546,60.57067133,13.14808467,14.411416,0.246405,0.191125467,5.549948333,2.2563109,0.380128376,1.257493425,5.369287,8.708061
"TZA","L03","M3","TZA-L03-H12",0.5040581,1.234733522,54.872257,21.04403367,10.01343367,0.313527333,0.279234967,5.758855,4.421333167,0.352113735,1.783452645,12.59419433,9.934932667
"TZA","L03","M1","TZA-L03-H13",0.400083267,1.412039873,62.13467067,8.628930333,13.96036633,0.338231,0.366814267,5.980602333,7.716550167,0.92638441,2.989003216,12.097624,14.15192
"TZA","L03","M3","TZA-L03-H13",0.257506767,2.794995827,65.61728567,10.991388,17.73955933,0.286508333,0.272882867,6.061334333,9.871940167,0.740686412,4.214840751,7.552353,9.014399333
"TZA","L03","M1","TZA-L03-H14",0.383812433,2.394092237,41.34439067,20.82790933,21.12423333,0.223280667,0.316811933,5.858534333,7.0085715,0.596539622,2.681706368,18.08738,9.003854333
"TZA","L03","M1","TZA-L03-H15",0.375350133,1.350183545,39.19323333,22.06637767,13.19624533,0.199095,0.3148165,5.876191333,4.566220433,0.522102755,1.604765627,14.357873,8.262835
"TZA","L03","M2","TZA-L03-H15",0.346015567,2.29135919,39.246335,20.361637,19.69963233,0.205476,0.339621433,5.908548,6.728336833,0.65043682,2.059763499,16.34812067,9.610085333
"TZA","L03","M1","TZA-L03-H16",0.433504867,1.343798937,50.232906,15.009979,14.51308233,0.243599667,0.234401667,5.610394667,2.7946982,0.421190392,1.31600589,6.942513667,8.824528667
"TZA","L03","M2","TZA-L03-H16",0.375460533,1.062549747,49.27512733,14.84030733,14.03374533,0.221848333,0.229782067,5.571490667,2.1847242,0.451667979,1.233740849,6.880469667,8.022182333
"TZA","L03","M3","TZA-L03-H17",0.311762267,2.215379224,38.22420733,21.87299567,9.400653,0.175761667,0.322682033,5.944765667,7.331138833,0.759418576,2.794286232,44.885979,9.035614667
"TZA","L03","M4","TZA-L03-H17",0.3172681,1.529481388,41.64674933,17.280993,19.00178067,0.207884,0.305219333,5.684173667,5.493361,0.4638208,1.957191154,12.45234133,8.769486
"TZA","L03","M5","TZA-L03-H17",0.064985334,2.556175829,58.59284583,20.21239972,21.19475445,0.11,0.347025389,5.866433333,7.67127636,0.781564195128205,2.63069692166667,29.34829278,8.475521667
"TZA","L03","M1","TZA-L03-H18",0.059517333,1.960360704,60.12544055,18.90037889,20.97418056,0.14,0.407510389,5.963582222,7.36992914,0.813317272051282,2.91722094916667,7.140435,7.356836833
"TZA","L03","M2","TZA-L03-H18",0.409842433,2.681203696,45.216047,19.123138,29.02364133,0.245978333,0.327419833,6.000357,8.226473833,0.890055978,2.9746213,18.58278,9.093367
"TZA","L03","M4","TZA-L03-H18",0.359430233,1.837111599,47.563051,17.909454,15.495929,0.236465333,0.264828033,5.619584,5.440258167,0.493085738,1.713502795,12.65868433,8.465815
"TZA","L03","M1","TZA-L03-H19",0.4667136,1.63706742,48.97299267,21.34766533,12.85384667,0.237693333,0.2663111,5.743181333,4.819945167,0.436916778,1.603327805,11.72920767,9.178208333
"TZA","L03","M1","TZA-L03-H20",0.4214126,1.263046437,47.54363833,18.84616067,14.33926467,0.234668,0.328660033,5.596281333,2.885324667,0.435320252,1.377374601,9.597193667,8.244886667
"TZA","L03","M2","TZA-L03-H20",0.3793061,1.113032722,45.36436667,16.04163833,14.49341333,0.220346333,0.334447367,5.523827333,2.213630733,0.426547051,1.149213672,7.377674333,8.193751
"TZA","L03","M1","TZA-L03-H21",0.385127067,2.351269433,46.447886,18.21769,14.36304467,0.226878667,0.290397,5.767437667,6.628947167,0.535224653,2.366743829,13.39000233,9.138864333
"TZA","L03","M2","TZA-L03-H21",0.068761417,3.619457664,59.4197675,17.98112166,22.59911083,0.18,0.416474111,5.787725278,7.873957125,0.835696424615385,2.65727763916667,23.84240333,9.076945556
"TZA","L03","M3","TZA-L03-H21",0.385198267,1.650258791,40.59186633,20.86960367,14.388759,0.223627333,0.3091276,5.648139667,5.153660333,0.510955811,1.807198454,11.70174167,8.815472
"TZA","L03","M1","TZA-L03-H22",0.374859167,1.223247238,41.27891133,19.30106467,13.00039167,0.213872333,0.285553,5.705803667,4.024453567,0.478481383,1.886923714,12.435731,8.671113333
"TZA","L03","M2","TZA-L03-H22",0.413627733,1.46597802,40.60025033,23.61306933,16.10316,0.220209667,0.293033467,5.682377333,6.052558167,0.328285434,2.093842035,7.317948333,8.812273
"TZA","L03","M2","TZA-L03-H23",0.359297367,2.033800376,39.05795467,20.16630267,16.58225267,0.205837333,0.2896428,5.861906667,6.752788167,0.541869107,2.310417857,15.03703933,8.806573333
"TZA","L03","M3","TZA-L03-H23",0.348856767,1.957241771,62.061653,10.967914,17.81921633,0.540589333,0.486226667,5.664741,6.098544333,0.825448337,2.608848938,10.337431,15.636854
"TZA","L03","M1","TZA-L03-H24",0.377753367,1.101878683,47.65597433,17.61321533,14.43877433,0.231616,0.345248867,5.486617,2.053664067,0.437198802,1.076009355,7.359932667,8.100900667
"TZA","L03","M2","TZA-L03-H24",0.330272867,1.333794239,40.33311767,19.36288767,17.488099,0.209028,0.312389033,5.596299333,3.454271833,0.416918252,1.355474648,8.032817,8.520987667
"TZA","L03","M1","TZA-L03-H25",0.3585526,1.682018436,41.93525733,21.82691533,15.539927,0.250971,0.349050333,5.579012667,5.076984833,0.613157527,1.804550302,14.690573,9.579954333
"TZA","L03","M2","TZA-L03-H25",0.3899709,1.886716294,40.110898,23.27850467,12.57028767,0.221409667,0.291479567,6.035450333,6.969349167,0.601466062,2.282830513,18.94337433,8.983621333
"TZA","L03","M1","TZA-L03-H26",0.043448139,1.163029596,41.09003306,41.79559805,17.11436889,0.18,0.400642361,5.798158056,4.373010361,0.368459992820513,2.3406347225,14.92822083,10.53733739
"TZA","L03","M2","TZA-L03-H26",0.351382667,1.222198307,39.862863,20.68655567,15.97022167,0.204215,0.330925933,5.626892,2.5193964,0.466135928,1.250887523,8.391475333,8.306965333
"TZA","L03","M4","TZA-L03-H26",0.387294733,1.306419814,40.097083,23.511803,14.82109367,0.21367,0.327460467,5.648242333,3.0525183,0.505692459,1.375693582,9.518372,8.239912333
"TZA","L03","M2","TZA-L03-H27",0.453884133,2.474210962,46.40520167,17.46026633,14.899858,0.252454,0.320955367,5.799144,5.522138333,0.506900463,2.291238876,16.59439833,9.078813333
"TZA","L03","M3","TZA-L03-H27",0.3901687,2.329148537,48.966827,16.95520033,15.419792,0.218702333,0.355699667,5.671258667,4.661152333,0.458893204,2.011562173,11.792234,8.222496
"TZA","L03","M1","TZA-L03-H28",0.325140533,1.663626481,49.934396,15.855498,16.84345167,0.235552333,0.2380975,5.752957333,5.000773,0.446565477,1.728661707,6.460866333,8.946587
"TZA","L03","M2","TZA-L03-H28",0.453159767,1.543191032,49.83521167,18.212215,14.26077967,0.237990667,0.250227067,5.714240333,4.156219833,0.361782555,1.564360529,6.365654333,9.147424667
"TZA","L03","M1","TZA-L03-H29",0.480371967,1.268829843,61.352172,10.42926533,20.91217667,0.447152333,0.450232667,6.137404333,10.16795933,1.074547072,4.396620988,7.953447,15.92979433
"TZA","L03","M1","TZA-L03-H30",0.377953067,1.506438107,58.72114533,15.14326433,14.13645167,0.273032667,0.2474972,5.632479333,3.556009667,0.467278613,1.381686648,11.25727867,8.470922667
"TZA","L03","M2","TZA-L03-H30",0.248177067,1.094272698,26.16183633,16.07876633,19.459602,0.180789333,0.169894233,5.561924667,2.135938433,0.500154847,1.303681769,5.630030667,7.283299333
"TZA","L10","M1","TZA-L10-H02",0.2814991,0.858537584,19.71700733,58.236103,16.13404967,0.239660333,0.263395533,6.406877333,2.895494,0.31933278,0.77795069,23.38348,5.426182667
"TZA","L10","M1","TZA-L10-H04",0.3893833,0.832031989,28.15100633,36.74638067,22.71374733,0.191199667,0.244310333,6.453950667,5.5074155,0.435724601,2.285101762,8.701087333,7.274121667
"TZA","L10","M1","TZA-L10-H05",0.266573967,0.297910935,10.83847367,64.69395667,11.67688867,0.33136,0.317331367,6.148226333,1.564207333,0.336987145,0.588201087,8.923459,4.494437667
"TZA","L10","M2","TZA-L10-H05",0.168601133,0.388971571,18.45970967,61.74282133,13.97014633,0.271461333,0.260736567,6.265337,1.8330488,0.294036769,0.607156548,14.877202,4.140637333
"TZA","L10","M1","TZA-L10-H06",0.204209133,0.470545575,17.947691,62.162333,14.245303,0.263653333,0.2750102,6.359700667,1.8884443,0.268195638,0.634266563,16.07429767,4.809444333
"TZA","L10","M1","TZA-L10-H07",0.3384205,0.365933376,19.42524533,50.62936233,20.57660667,0.190710667,0.245753367,6.356149,3.971800767,0.413140402,1.55331052,9.446439333,5.816420333
"TZA","L10","M2","TZA-L10-H07",0.239719,0.358176859,21.56417433,52.09733767,18.312141,0.204735667,0.258636333,6.368950667,2.846914933,0.42870561,0.826023292,12.11289933,4.482601333
"TZA","L10","M2","TZA-L10-H11",0.3085292,0.384505006,22.47269133,53.58237767,17.58034967,0.205403667,0.249593033,6.369779667,3.454784833,0.351510233,1.123397786,10.87765667,5.339551667
"TZA","L10","M1","TZA-L10-H13",0.336630867,0.414148933,20.78318033,49.81653233,21.45615033,0.200951,0.276921967,6.361051667,3.6422998,0.387512962,1.172992213,10.32832267,5.139877333
"TZA","L10","M1","TZA-L10-H14",0.256463067,0.331453301,15.470635,60.30242033,11.90811167,0.342164333,0.329906833,6.325746,1.649417767,0.395105585,0.606232075,14.99738933,4.368704667
"TZA","L10","M1","TZA-L10-H15",0.272503233,0.522439337,21.513727,57.633253,16.36456733,0.256969667,0.252282633,6.368828333,2.7743905,0.446530619,0.78204518,25.14174267,4.628651
"TZA","L10","M1","TZA-L10-H18",0.2694088,0.413119937,21.71917567,56.21220933,21.08247467,0.211422,0.286605367,6.216376333,3.199435733,0.424215045,0.919056712,17.21157833,4.599365667
"TZA","L10","M2","TZA-L10-H18",0.226761067,0.457515244,20.741328,58.05231033,17.43452133,0.230959,0.248744733,6.361479,2.629000267,0.413498905,0.733198423,18.59700267,4.239280333
"TZA","L10","M1","TZA-L10-H19",0.282696867,0.43198799,19.12551067,54.04482533,19.18100167,0.206542,0.284604333,6.272223667,3.639926667,0.428065986,1.234595644,19.615979,5.471574333
"TZA","L10","M2","TZA-L10-H19",0.2622684,0.365000306,19.49519067,57.87902567,22.62671233,0.229735,0.257603233,6.321128667,2.906170267,0.437354346,0.954886497,17.783834,4.549414667
"TZA","L10","M1","TZA-L10-H20",0.300325767,0.427140083,36.46472733,36.84028333,18.21746233,0.208403667,0.3015058,6.121784333,1.520694267,0.217726715,0.702000747,4.55792,5.894690333
"TZA","L10","M3","TZA-L10-H20",0.333186167,0.785071216,25.94776433,37.44836267,24.516838,0.190298333,0.2576762,6.215924,3.837875333,0.287556012,1.346476825,6.119946,5.816154
"TZA","L10","M1","TZA-L10-H21",0.275479367,0.374538301,19.53470533,57.725796,22.94427,0.224739333,0.290224433,6.290184333,3.352063567,0.435380247,1.079382644,22.72941767,4.847178333
"TZA","L10","M3","TZA-L10-H21",0.371069833,1.309334837,33.93255167,25.21474667,33.711965,0.264675667,0.304101733,6.185117333,5.776099167,0.602752963,2.890780017,5.900435667,9.98255
"TZA","L10","M1","TZA-L10-H22",0.373691933,0.33948325,19.711844,54.559651,19.36172733,0.273055,0.308618133,6.308332,4.369445,0.535997277,1.595573027,12.95006467,8.911776333
"TZA","L10","M1","TZA-L10-H24",0.289731267,0.49921491,21.81041067,57.45074633,17.518399,0.274294333,0.2688355,6.404578,3.559600333,0.473518262,1.041846942,29.64913333,4.376583333
"TZA","L10","M1","TZA-L10-H26",0.283742833,0.441186977,20.46127067,57.00842667,22.43376767,0.222289333,0.2644488,6.380304667,3.4230315,0.441998503,0.972392643,24.054605,5.042969333
"TZA","L10","M1","TZA-L10-H27",0.2355208,0.641413035,22.18726933,54.156652,16.734197,0.221786,0.2390436,6.298912333,2.698573067,0.267598961,0.730890318,15.122186,5.35653
"TZA","L10","M1","TZA-L10-H28",0.276179167,0.394547879,19.50212867,58.21774033,11.82517867,0.281012,0.372346,6.074765,1.721628033,0.316074993,0.59729724,12.88333033,4.870737667
"TZA","L10","M2","TZA-L10-H28",0.247538433,0.521003372,24.29354467,55.055824,17.18322833,0.211918667,0.2933363,6.248231333,1.776983767,0.266301733,0.656230607,12.38147,4.984207333
"TZA","L10","M1","TZA-L10-H30",0.288760867,0.439885184,39.071834,36.669441,13.57323333,0.229923667,0.351888333,6.061053,1.813017567,0.205323782,0.784505664,4.317222667,6.806615667
"TZA","L10","M2","TZA-L10-H30",0.360181833,1.433089387,51.73586033,16.06181067,27.09195333,0.320790333,0.4162042,6.123166667,5.853105367,0.67456091,2.916832734,5.656358333,14.705989
"TZA","L10","M1","TZA-L10-H31",0.2415376,0.702848631,25.84996833,50.19918167,17.12264067,0.227816333,0.273655233,6.146512667,2.0360846,0.25147213,0.657735623,12.95158633,6.176866333
"TZA","L10","M1","TZA-L10-H32",0.2798746,0.641381833,22.259123,56.53890333,16.20766167,0.245848667,0.243501233,6.399867667,3.059091,0.328986554,0.811378135,19.01341133,5.182132
"TZA","L11","M1","TZA-L11-H01",0.502228267,1.596880277,77.08709433,6.917975333,13.05621133,0.692016333,0.520629333,6.257088333,5.774329,0.915636289,3.206854017,3.090814333,11.76378533
"TZA","L11","M1","TZA-L11-H02",0.409655667,0.961482743,70.22675233,11.967106,12.023562,0.389927,0.3001482,5.953228,3.432510067,0.532948476,1.52437479,7.301456667,11.88516133
"TZA","L11","M1","TZA-L11-H03",0.3369218,1.253083623,62.94936067,12.38486033,14.83465033,0.308013,0.381920567,5.399845,3.212872767,0.319614464,2.035313637,5.836155333,11.91577033
"TZA","L11","M1","TZA-L11-H04",0.254654367,2.114845595,65.853707,9.290836667,18.909257,0.779505667,0.85909,5.133855333,3.292191167,0.560707736,1.536601063,4.846935667,22.503016
"TZA","L11","M1","TZA-L11-H05",0.3544944,1.799269761,66.348902,10.13518433,16.422548,0.270377333,0.294461567,5.992930667,5.013598667,0.468527036,1.735983664,6.042624667,9.937765333
"TZA","L11","M1","TZA-L11-H06",0.3678036,1.95329188,66.51588133,10.86219267,15.64192367,0.316889667,0.417982333,5.563817333,3.857741667,0.570918789,2.288289879,6.117677667,13.37327233
"TZA","L11","M1","TZA-L11-H07",0.415454033,0.874919607,79.35745633,6.523311667,8.189547333,0.499938,0.326787,5.763250667,2.766668,0.334061683,1.27274467,2.215428667,16.000797
"TZA","L11","M4","TZA-L11-H07",0.395420367,1.077055126,72.96250867,6.601796,11.086581,0.424565667,0.4302648,5.947165333,3.1088735,0.549476879,1.65389141,5.024206333,22.56811633
"TZA","L11","M1","TZA-L11-H08",0.419739,0.913825091,70.09857767,8.079540333,12.25872033,0.366538333,0.216300633,5.901971333,3.6689227,0.341122582,1.500157848,2.688459333,11.016002
"TZA","L11","M2","TZA-L11-H08",0.384724533,1.602604982,64.567193,11.21484833,15.74666333,0.330109333,0.209767233,5.994815,4.672341,0.430861952,1.817588397,7.409502333,11.735487
"TZA","L11","M1","TZA-L11-H09",0.434634167,1.153467358,66.88694133,9.64798,14.40069433,0.355533667,0.275440533,6.262165,6.847521833,0.863529512,3.34528868,3.816068333,10.70941833
"TZA","L11","M2","TZA-L11-H09",0.324974067,1.794920823,31.45536567,28.71225067,20.416782,0.335918,0.373349433,5.810745667,6.110143167,0.518456891,1.895804363,59.19105933,9.872032333
"TZA","L11","M1","TZA-L11-H10",0.398319333,1.246054429,81.27977533,5.913843333,10.06568033,1.091889333,1.231264,5.054134,2.3655268,0.326672871,1.120747733,2.249133333,27.04931867
"TZA","L11","M2","TZA-L11-H10",0.352520067,1.290726979,56.84893567,15.049085,17.246874,0.242160667,0.243245167,6.135202333,5.565407833,0.396493605,1.92461277,9.352658667,9.695267667
"TZA","L11","M1","TZA-L11-H11",0.386757067,0.798069654,73.31422833,6.490981333,11.34068633,0.453933667,0.457023833,6.073019,2.3394688,0.330137999,1.464038128,3.008707667,19.62998933
"TZA","L11","M3","TZA-L11-H11",0.360871833,1.328420853,62.92115333,12.85048567,16.62911767,0.337627,0.366611767,5.716197667,3.986684833,0.471180384,1.58649989,7.274405333,11.72100033
"TZA","L11","M1","TZA-L11-H12",0.393215533,1.115349982,52.73100367,15.287115,17.26668333,0.292309,0.208398933,6.631077,6.385156833,0.358619412,2.501609865,3.38561,6.861883
"TZA","L11","M1","TZA-L11-H13",0.406132233,1.164748884,73.61724633,7.708056333,11.67611433,0.431793667,0.444817533,5.891212667,3.720203467,0.381766907,2.406541087,4.357115333,14.56574733
"TZA","L11","M1","TZA-L11-H14",0.3601839,1.502895084,71.989302,7.617225333,13.29276,0.315576667,0.272869433,5.689541,3.524439633,0.421013074,1.394256622,4.674477,12.463304
"TZA","L11","M2","TZA-L11-H14",0.397225267,1.74252149,67.017757,12.09175333,17.55797867,0.318732667,0.395773167,5.592802667,3.407917833,0.502998222,1.65309847,7.052748,15.23117267
"TZA","L11","M1","TZA-L11-H15",0.3974217,1.276561446,62.73220367,12.745714,15.388039,0.328209333,0.244612867,6.188591,4.897083567,0.33040221,1.787615775,5.627568667,11.20173233
"TZA","L11","M1","TZA-L11-H16",0.358685067,1.123591419,64.80200833,9.730438,16.11889933,0.302979667,0.257125833,6.157960333,4.588899233,0.288533855,1.716188821,2.872780667,9.557565
"TZA","L11","M1","TZA-L11-H17",0.416418967,1.998628875,69.94537067,8.134681333,14.663769,0.346935333,0.365227267,6.098021667,5.369192,0.586260866,2.527533994,6.876657667,13.488365
"TZA","L11","M1","TZA-L11-H18",0.378263433,1.150486219,66.24301233,8.420799,17.157945,0.346166667,0.390188867,5.886411667,3.3132511,0.408148528,1.171303209,7.793417333,16.83296367
"TZA","L11","M1","TZA-L11-H19",0.365651,1.776831697,67.69892267,9.91453,14.70040567,0.291823,0.288644433,5.909277333,4.2126698,0.427620963,2.131320959,7.395944,11.58254633
"TZA","L11","M2","TZA-L11-H19",0.412275433,1.229227617,73.965728,7.182686667,11.94523233,0.407627667,0.438664933,6.057048,5.013023333,0.597968113,3.020955061,4.76722,14.35011467
"TZA","L11","M1","TZA-L11-H20",0.047544556,0.952447356,72.0976925,13.57916334,14.32314417,0.27,0.2201715,5.855832778,3.718088486,0.662215584102564,2.8908190275,4.179583611,11.35044139
"TZA","L11","M2","TZA-L11-H20",0.410740633,1.326085189,68.796348,8.595049,13.77979133,0.430158333,0.2904672,5.674779,5.310437867,0.8311785,2.372287965,7.208250333,13.536337
"TZA","L11","M3","TZA-L11-H20",0.471031467,1.326912482,64.04688567,10.56088633,14.39179,0.452816667,0.364989667,6.792677667,8.910865167,0.961705577,3.947039554,12.75679133,12.97366467
"TZA","L11","M1","TZA-L11-H21",0.292414067,1.41624631,39.97650633,22.92166133,20.247325,0.227677667,0.322384067,6.233760667,5.072465833,0.43224843,1.804128562,11.126621,7.63156
"TZA","L11","M2","TZA-L11-H21",0.3471281,1.422831702,63.43782867,11.29509567,17.53436367,0.309199333,0.231417067,6.241383,4.730847167,0.450187324,1.701621443,5.764476333,8.932005
"TZA","L11","M1","TZA-L11-H22",0.355766933,1.763405138,60.16437467,7.713487,14.83635267,0.553435,0.466624033,5.992004333,4.7050375,0.970076517,2.119382828,11.50344233,24.711816
"TZA","L11","M1","TZA-L11-H23",0.3644273,0.978046064,60.83623267,9.092096333,17.94400467,0.362853667,0.4226975,6.103105333,5.112373333,0.783448972,2.424095102,4.632808333,11.187031
"TZA","L11","M2","TZA-L11-H23",0.056368389,1.257797603,68.28708028,13.69630028,18.01661944,0.18,0.469913584,6.364106389,5.746344225,0.71010183051282,2.90126226833333,70.29255555,14.25984442
"TZA","L11","M3","TZA-L11-H23",0.440342967,0.635094046,50.405246,13.16933767,17.558951,0.622675,0.541189067,6.646973333,6.326758233,0.85577181,3.188077997,11.483195,23.36659367
"TZA","L11","M1","TZA-L11-H25",0.407614133,1.042200342,73.21269033,7.151122333,11.139638,0.700119,0.573050367,6.049506667,3.627492333,0.70372458,2.163611107,4.398980667,28.56589267
"TZA","L11","M2","TZA-L11-H25",0.387561533,1.250080173,69.72738133,6.956206333,14.25329367,0.665841667,0.567815,5.901178,3.646229933,0.79333925,2.017684464,4.626493333,24.57541933
"TZA","L11","M1","TZA-L11-H26",0.375834067,1.475182216,63.55025533,12.284388,16.45648867,0.353907333,0.235503333,6.225685333,5.0204785,0.527199104,1.887349533,6.108994333,12.15051267
"TZA","L11","M1","TZA-L11-H27",0.355010567,1.284625634,47.84265533,16.883526,18.22587633,0.270506333,0.2335155,6.29578,6.109368333,0.319613019,2.17715433,7.836918333,8.397116667
"TZA","L11","M1","TZA-L11-H28",0.378183467,0.973037438,76.579467,6.481350333,9.658377333,0.408927333,0.382569333,5.752124667,2.7000104,0.310686918,1.16943775,2.519718667,13.39295333
"TZA","L11","M2","TZA-L11-H28",0.3414761,2.355970797,58.280902,13.212844,14.59100533,0.448782,0.433627867,5.354560333,4.530418333,0.589718722,1.616815266,10.723749,15.794572
"TZA","L11","M1","TZA-L11-H29",0.249570033,2.220068523,34.33245233,8.197481333,16.824967,0.274098333,0.271136867,6.004379333,4.727217133,1.221595755,1.999744643,20.023784,22.31361033
"TZA","L11","M1","TZA-L11-H30",0.346718667,1.536315756,59.933156,13.134593,16.551932,0.315278333,0.411129467,5.358049333,3.642058167,0.455801534,1.84497799,8.163934,11.860494
"TZA","L11","M2","TZA-L11-H30",0.392586067,1.334438109,73.68547733,7.751699667,12.794485,0.534136667,0.49932,5.380732667,3.212092133,0.363312224,1.425962076,4.655153667,16.16027433
"TZA","L11","M3","TZA-L11-H30",0.053023917,2.033930591,62.95231528,18.0574825,18.99020222,0.28,0.428897916,5.776267222,6.795383585,0.792543774871795,2.69565391166667,12.59946111,8.35255125
"TZA","L11","M1","TZA-L11-H31",0.060734972,1.764871258,62.77814417,16.86815445,20.35370139,0.27,0.445203472,5.855996945,6.95081732,0.810874508461539,2.959974815,16.77337111,8.820168611
"TZA","L11","M2","TZA-L11-H31",0.3882563,1.182908964,73.275536,8.257297333,12.92722367,0.566426,0.563221,5.952325667,3.251367733,0.572397763,1.839043414,2.603866333,17.00508933
"TZA","L11","M3","TZA-L11-H31",0.326796967,1.754339253,53.30953067,10.02626733,22.246925,0.520318333,0.5160432,5.877058333,4.7141222,0.834230104,2.126307687,10.09738567,24.19975533
"TZA","L18","M1","TZA-L18-H01",0.405017233,1.195264639,32.04767967,27.76637633,22.86358133,0.265673667,0.391529833,7.029748,17.50910967,0.529479329,2.500351446,111.2129423,10.52670633
"TZA","L18","M1","TZA-L18-H12",0.4762778,1.688499237,64.43601767,11.34252767,15.35394467,0.478085333,0.431136233,7.098194333,11.00426167,1.054212815,3.939235522,21.41834967,17.83768667
"TZA","L18","M1","TZA-L18-H14",0.379385633,1.341234995,33.22722433,28.45253267,24.72816367,0.185487667,0.2274258,6.329616667,7.072997,0.456487249,2.275317599,14.65944967,5.709191333
"TZA","L18","M1","TZA-L18-H15",0.3670457,1.220447065,37.65295167,19.47094167,22.80854333,0.201894333,0.220046867,6.276920333,6.377231667,0.449744611,2.257630726,5.342356,5.989236667
"TZA","L18","M1","TZA-L18-H20",0.4089026,1.560280654,28.36942367,37.620773,24.53172167,0.197044333,0.245350733,6.380694333,7.2528415,0.569842236,2.512774148,15.58413167,7.604384
"TZA","L18","M2","TZA-L18-H20",0.4213013,0.936821712,22.43447933,45.91082433,23.65258,0.185658667,0.219092667,6.504117333,5.294713333,0.385019423,2.197641098,14.013496,5.921293333
"TZA","L18","M1","TZA-L18-H21",0.434946967,1.388808263,34.074799,27.535293,22.996744,0.298737667,0.369690233,7.092058333,18.41858667,0.907503001,3.143556574,114.354804,10.61277867
"TZA","L18","M2","TZA-L18-H21",0.361657633,0.402526858,20.46335267,49.10781667,26.03995233,0.201626333,0.2129986,6.459072,4.1201065,0.38183592,1.701611015,9.525322667,8.704479
"TZA","L18","M1","TZA-L18-H27",0.3651022,0.4169217,19.32133433,55.10885467,21.74739167,0.18507,0.226021367,6.44805,3.9280792,0.404043859,1.314476976,15.32918567,5.518132333
"TZA","L18","M2","TZA-L18-H27",0.4164745,0.75415305,22.27358967,47.69691333,22.947759,0.176155333,0.210835067,6.492874333,5.053690667,0.350632583,2.038629036,12.233752,5.442892333
"TZA","L19","M1","TZA-L19-H01",0.3948932,2.307354991,38.76005033,18.662563,29.746503,0.315658667,0.359446,6.108787667,8.240620167,0.725674893,3.403712549,29.69664367,8.777699
"TZA","L19","M1","TZA-L19-H02",0.3603746,1.728120075,59.53268267,7.781877667,17.90319567,0.446866,0.513624867,5.681151333,6.031759033,0.838210984,2.444046114,5.651809667,14.954975
"TZA","L19","M1","TZA-L19-H03",0.2030541,0.476335614,24.39990867,46.52815333,13.57372067,0.199222,0.289578067,6.087692333,1.944854467,0.196951345,0.649119768,6.967509333,4.966345
"TZA","L19","M1","TZA-L19-H04",0.380677,0.805567215,21.551951,46.74316233,22.66369,0.183825,0.238680033,6.322461,4.902589433,0.474784938,2.004159695,12.13795033,5.684667667
"TZA","L19","M1","TZA-L19-H07",0.379705533,1.444318443,31.573571,5.370913333,18.14331733,0.270819,0.330692033,6.109079333,6.572611,0.687732697,3.124904319,7.065387667,7.874154333
"TZA","L19","M2","TZA-L19-H09",0.393365733,2.349188633,49.25220167,15.774304,20.96371,0.346289333,0.370177933,6.151369,8.270590333,0.904896641,3.255686048,17.304004,12.50018667
"TZA","L19","M3","TZA-L19-H09",0.379606033,1.734591584,43.446325,22.068866,28.55913767,0.225606,0.296865333,6.851646,10.18867717,0.917134214,3.347843983,39.46101,9.270649
"TZA","L19","M2","TZA-L19-H10",0.345451667,1.419887527,61.00512667,7.55148,18.91422333,0.233349333,0.2974874,5.945869333,5.426836667,0.428716226,2.117597067,5.25304,7.95607
"TZA","L19","M1","TZA-L19-H15",0.350414733,0.826890615,24.736386,40.43149667,20.959894,0.196906667,0.288006067,6.271713333,4.550413,0.516859536,1.505666142,8.464900333,5.507067333
"TZA","L19","M2","TZA-L19-H15",0.2651898,0.395186009,22.60792267,52.12660567,18.86548433,0.197309667,0.252520733,6.351891667,2.7677037,0.42493456,0.788881637,13.54881167,4.164897
"TZA","L19","M1","TZA-L19-H17",0.380385633,1.572849878,48.30189733,16.17501367,28.476691,0.226394,0.3008106,6.253207333,9.153268333,0.963971091,3.657359508,18.64097567,7.753304333
"TZA","L19","M1","TZA-L19-H18",0.356309,2.183266279,53.396675,10.52901933,19.11598867,0.404991333,0.4511172,5.904807333,6.892886833,0.822696437,2.598212312,9.086805333,13.62406267
"TZA","L19","M3","TZA-L19-H18",0.350606967,0.89659879,36.25681767,24.89991467,18.56228833,0.202417667,0.2438964,6.237564667,4.790045667,0.433572773,1.835802835,5.002264667,5.842623
"TZA","L19","M1","TZA-L19-H20",0.396166833,2.525445525,42.82410367,19.65358167,28.33618467,0.333480667,0.379576267,6.266323667,10.06429,0.996104051,3.860790986,33.962182,12.02400767
"TZA","L19","M2","TZA-L19-H23",0.399391733,1.425480371,47.097484,9.770697333,16.031119,0.302413333,0.381997367,6.041821667,6.4779645,0.72122829,3.183235059,7.543883667,8.762830667
"TZA","L19","M1","TZA-L19-H28",0.380010567,1.556833237,58.12619833,8.588518667,18.44583633,0.351795667,0.472306567,6.091853667,6.618723667,0.8511098,2.461200092,4.876073667,13.02603667
"TZA","L19","M1","TZA-L19-H29",0.3721859,2.222381236,52.357485,13.55161133,18.542809,0.367518667,0.384520467,6.072471,7.944240167,0.79737125,3.498938476,13.70575667,10.756808
"TZA","L19","M2","TZA-L19-H30",0.378337,2.23093,59.338799,12.573756,15.906257,0.311019,0.310717833,5.936105667,8.0945085,0.91529079,3.305418441,9.424122333,8.984717333
"TZA","L20","M1","TZA-L20-H01",0.401542567,0.384430382,29.92133033,25.41914367,22.90399,0.179538667,0.233913267,6.481849,4.689395667,0.360245789,2.113432209,6.622769667,5.893678
"TZA","L20","M2","TZA-L20-H01",0.5785009,1.174049078,59.07081367,12.549776,23.471943,0.257632,0.568227333,5.907997667,9.351993833,0.829119914,4.763352308,5.390650333,5.997281
"TZA","L20","M1","TZA-L20-H02",0.4192712,1.158350342,37.74580633,20.27540567,23.604146,0.178587667,0.256833833,6.266418333,6.5545975,0.524460023,2.802387526,6.054737,7.443568
"TZA","L20","M1","TZA-L20-H03",0.307253233,1.128406298,55.74297967,16.46283867,25.760226,0.170748,0.272932333,6.031399667,9.3711085,0.800504888,4.756457937,6.010085,14.816744
"TZA","L20","M1","TZA-L20-H04",0.522684033,1.299072511,62.033716,8.256129333,13.11826733,0.437489,0.454692,6.674068333,10.33742367,1.064503145,4.464992867,11.15067233,13.585015
"TZA","L20","M2","TZA-L20-H04",0.5170035,1.108820355,62.20831233,9.428605667,13.92917933,0.362946333,0.452705333,6.363235667,10.0735165,0.991645289,4.750468349,8.656011,12.33516467
"TZA","L20","M1","TZA-L20-H05",0.430185,1.787001216,43.91769267,18.98394,25.350064,0.192649667,0.2930742,6.108615333,7.986743667,0.866463174,3.37531798,11.977097,8.614870667
"TZA","L20","M1","TZA-L20-H06",0.4882778,1.168088145,57.78561667,12.42811867,22.87965467,0.287584,0.431120333,6.167396667,9.821775833,0.912013336,4.664535752,7.302680333,10.80900667
"TZA","L20","M2","TZA-L20-H06",0.403899133,0.965229496,49.96883033,16.55696333,25.67864033,0.217787333,0.338003,7.066168667,9.951817167,1.046283606,4.129144372,11.24616567,12.99428033
"TZA","L20","M1","TZA-L20-H07",0.4206624,0.816460809,37.69482033,24.12972067,24.270243,0.176112667,0.260620433,6.704046333,7.917461167,0.634559062,3.483888779,6.554762,9.224758
"TZA","L20","M2","TZA-L20-H07",0.427915933,1.194858398,40.985049,19.93589967,24.66069633,0.213486,0.266998933,5.904351333,6.569994,0.640135953,3.136079073,5.444095,8.659283667
"TZA","L20","M1","TZA-L20-H08",0.388539767,1.125071057,54.27821967,15.073766,25.79561067,0.208107667,0.36254,6.211481333,9.982793667,1.023000121,4.516370554,7.966681667,13.20227367
"TZA","L20","M2","TZA-L20-H08",0.3716707,0.378878362,20.26017567,57.36137967,18.04456833,0.171524333,0.166759433,6.463300333,3.2224201,0.378221087,1.429725663,21.739258,4.902446333
"TZA","L20","M1","TZA-L20-H10",0.416959767,1.161338031,54.83588267,16.113317,26.33755833,0.242838,0.372115,6.882118333,10.688155,1.134666928,4.424033158,10.55087567,15.11529967
"TZA","L20","M2","TZA-L20-H10",0.381287933,0.661250903,28.00555867,29.74092333,24.49447,0.170802,0.226806133,6.397157333,5.132644,0.436135017,2.299050014,8.267376333,6.492333
"TZA","L20","M1","TZA-L20-H11",0.4296494,1.373193881,55.32201067,10.02176167,17.50725933,0.413686667,0.513355433,6.102950333,8.477967,1.008775015,3.584646155,10.69785967,17.998521
"TZA","L20","M2","TZA-L20-H11",0.417864667,0.783222448,34.51251867,25.35616433,24.67061267,0.165803667,0.242505833,6.344923,6.329688167,0.538090101,2.878281506,8.172966,8.249561333
"TZA","L20","M1","TZA-L20-H12",0.443211533,1.127365788,48.824434,18.33643033,25.545515,0.181895667,0.2674754,6.221983667,8.470527667,0.642494604,3.740611037,9.882034,10.45792533
"TZA","L20","M3","TZA-L20-H12",0.4461063,1.419517445,55.51095167,13.903693,21.41399567,0.258592333,0.403080333,5.999205,8.725371333,0.959006046,4.059695266,6.105952333,11.04465033
"TZA","L20","M1","TZA-L20-H13",0.4179397,1.247178054,47.58333567,17.86286833,24.873735,0.170557,0.271991333,6.37936,9.057102,0.80388255,3.77587446,6.655224333,9.559948667
"TZA","L20","M2","TZA-L20-H13",0.477085733,2.116014422,48.89013867,16.243074,25.46398133,0.271217333,0.401218733,6.216949667,9.326821333,1.009316332,3.914639367,15.29478533,9.505001667
"TZA","L20","M1","TZA-L20-H14",0.464045167,1.182034998,55.56415267,13.18802933,24.90146367,0.297110333,0.419844,6.255362667,9.778801167,0.975735671,4.459889382,8.535850333,10.812254
"TZA","L20","M2","TZA-L20-H14",0.496892433,1.108682421,55.42098333,12.481099,23.85005567,0.315445333,0.4260455,6.754866667,10.6189765,1.012557587,4.442663644,11.21782167,11.12336533
"TZA","L20","M1","TZA-L20-H15",0.4741099,1.057905203,51.982182,12.25455133,23.097335,0.300761,0.372082533,6.349541333,9.843956,0.848534687,3.73225171,12.74732233,10.636406
"TZA","L20","M1","TZA-L20-H16",0.458230633,0.907894173,51.344977,15.94757267,24.73096033,0.203255,0.2786535,6.927578,9.542875167,0.831260775,4.403577163,10.61891267,8.493490667
"TZA","L20","M3","TZA-L20-H16",0.487789433,1.170451001,58.20295133,12.46984933,24.75364033,0.320843333,0.421252,6.134666,10.05669583,0.979455497,4.674638629,10.25773133,11.19436867
"TZA","L20","M1","TZA-L20-H17",0.418014567,0.912367775,55.35591433,14.812507,22.366089,0.202365667,0.293616,6.576752667,8.939776167,0.799717124,4.249523628,5.671624667,10.545566
"TZA","L20","M3","TZA-L20-H17",0.424351367,0.851743245,53.24471467,16.29839733,24.505019,0.302243,0.306970167,7.321874667,10.37823233,1.005958072,4.329561878,12.693266,17.645982
"TZA","L20","M1","TZA-L20-H18",0.322340333,1.399644066,68.53027167,8.300428,16.044886,0.298197667,0.5233215,5.863763667,8.43929,0.806950033,4.827871869,5.902850667,17.677217
"TZA","L20","M1","TZA-L20-H19",0.3933219,0.968690326,28.50979433,31.854661,24.20126,0.167003667,0.227604467,6.388494,6.468616833,0.476450487,2.754957979,12.689674,7.354628667
"TZA","L20","M3","TZA-L20-H19",0.647469933,1.251763607,40.37123633,23.06599733,30.65344033,0.158306667,0.2612296,6.086966333,8.542739167,0.770983449,3.650248358,5.14534,5.413469667
"TZA","L20","M1","TZA-L20-H20",0.479679933,1.300269301,54.757069,13.99873867,17.39620667,0.257225,0.407119933,6.571201,9.078497,0.97096417,3.878604351,9.303527333,9.108832667
"TZA","L20","M2","TZA-L20-H20",0.435049667,0.902769746,55.82985167,13.964041,16.62279333,0.225685,0.31036,6.709375667,9.034578,0.933801858,4.192649666,6.710207333,10.44038767
"TZA","L20","M1","TZA-L20-H22",0.3872354,1.106659249,55.10565367,16.95561633,24.27992033,0.201238333,0.311367,6.551172,9.578464167,0.959737566,4.409297203,7.712696667,12.31450833
"TZA","L20","M1","TZA-L20-H23",0.431228133,1.2645538,55.00004567,15.64947767,25.80398867,0.20319,0.312899,5.969758,9.287720833,0.928850714,4.461738408,6.870920333,10.34600333
"TZA","L20","M2","TZA-L20-H23",0.419282567,1.502275329,39.62706733,20.672648,25.67451833,0.192120667,0.269365467,6.236189667,8.297045167,0.865644377,3.211525446,9.322400333,6.83977
"TZA","L20","M1","TZA-L20-H24",0.388855233,0.55836328,30.78396867,25.60057667,24.468023,0.168500667,0.238167933,6.360607667,5.0184955,0.442502662,2.394141116,5.986023,6.905619333
"TZA","L20","M1","TZA-L20-H25",0.391674933,0.847139181,27.242531,32.136276,23.58196367,0.166897,0.2356969,6.440551,6.101700333,0.464457132,2.785095489,11.358525,7.439123
"TZA","L20","M2","TZA-L20-H25",0.4293897,1.449412293,49.31306,16.08719967,25.16596267,0.214774333,0.3379526,6.358849667,9.560048667,0.94375355,3.81817893,10.801392,8.082821
"TZA","L20","M1","TZA-L20-H26",0.419338267,1.174307519,32.31580267,25.52106067,23.76947733,0.178731333,0.246387267,6.422836333,6.256306,0.408041552,2.767161907,7.747913333,6.249709333
"TZA","L20","M2","TZA-L20-H26",0.400843467,1.079063894,54.49210733,17.200026,24.76497667,0.241659333,0.327791,7.076024667,10.18621267,1.000087474,4.414879928,11.69734033,15.24816067
"TZA","L20","M1","TZA-L20-H27",0.4523208,1.089078324,59.92833333,12.396623,24.59955667,0.375535667,0.398610333,6.318752,10.0670625,1.047888596,4.437047555,8.148966333,14.224111
"TZA","L20","M3","TZA-L20-H27",0.426449633,1.648240645,43.05229767,18.497552,27.246513,0.212286667,0.337895,6.216616667,9.350972833,1.043197722,3.634175922,13.692348,9.122035333
"TZA","L20","M3","TZA-L20-H28",0.3827774,1.178805581,30.95967567,28.855293,23.78622833,0.169248333,0.218656567,6.365081667,7.153272667,0.540398271,2.497809885,9.652791667,7.125190333
"TZA","L20","M4","TZA-L20-H28",0.464045367,1.279719045,56.02831667,15.77016367,23.63442033,0.254108333,0.359931667,6.451373667,10.02751783,1.0297778,4.568743153,9.026364667,12.23700633
"TZA","L20","M1","TZA-L20-H29",0.402100533,1.153565705,52.17529,16.19168633,26.43132733,0.228905667,0.350538,6.763709333,9.9073185,1.044977438,4.201559846,11.87281067,11.627567
"TZA","L20","M2","TZA-L20-H29",0.500467167,1.405615868,54.858584,12.01259167,24.29916733,0.302947,0.464384,6.091685333,10.0131785,0.988959669,4.560172436,11.14639133,11.27679933
"TZA","L20","M1","TZA-L20-H30",0.512718967,1.085603478,57.96835267,10.79193033,21.52507,0.350177,0.370226167,7.076327333,11.47612383,1.147042355,4.642968495,13.72223533,14.76326933
"TZA","L20","M2","TZA-L20-H30",0.432294667,1.706783569,33.41191467,25.411081,26.88032133,0.176722,0.283669133,6.292762,7.902802667,0.733124738,3.154614699,14.007261,6.509491333
"TZA","L20","M1","TZA-L20-H31",0.4335035,1.275256821,57.272868,14.44800433,25.72371,0.424390667,0.411719667,7.135560333,10.58139483,1.164492277,4.326730597,16.643285,28.09234067
"TZA","L20","M1","TZA-L20-H32",0.4124153,0.884703091,35.80033167,22.790308,24.41722433,0.196959667,0.2247362,6.274507,6.258866167,0.450081644,2.462035099,5.407669667,8.572725667
"TZA","L22","M1","TZA-L22-H01",0.0368715,0.502024337,26.02311722,55.52413556,18.45274722,0.15,0.273035278,5.984802222,4.254131889,0.251131780615385,1.48168638916667,13.17760806,7.984124028
"TZA","L22","M1","TZA-L22-H02",0.094249139,0.495279392,35.45932972,49.61044611,14.93022417,0.06,0.067353806,7.140171944,8.17606764,0.43130608974359,3.2997140275,9.95549361,17.62521894
"TZA","L22","M2","TZA-L22-H02",0.031001361,0.507121519,8.440682223,79.61187694,11.94744083,0.15,0.174905028,6.172034167,4.1914770555,0.148551773512821,0.997443819166667,21.62465889,7.526330417
"TZA","L22","M1","TZA-L22-H03",0.09049475,0.58927073,31.59924249,46.498925,21.9018325,0.09,0.0651745,6.831453056,7.73750861,0.272128354615385,3.00839805583333,8.993436946,11.28082367
"TZA","L22","M2","TZA-L22-H03",0.096984361,0.915594347,49.46680778,25.49149444,25.04169778,0.09,0.129563444,7.073751389,8.800168335,0.65489920948718,3.67438472166667,16.07986167,11.87111619
"TZA","L22","M1","TZA-L22-H04",0.052004528,0.482452845,19.99167056,70.39275305,9.615576389,0.24,0.32945175,5.850435,4.7405169585,0.228721965820513,1.12805425916667,18.96229805,20.22508194
"TZA","L22","M2","TZA-L22-H04",0.028626194,0.300362123,26.23990556,61.5857,12.17439444,0.25,0.241718278,5.887727222,2.7301503195,0.151468504282051,1.16620671333333,16.31007139,6.047241806
"TZA","L22","M1","TZA-L22-H05",0.019667055,0.287048496,10.92474334,74.69973278,14.37552389,0.17,0.093872055,6.552757778,2.738326514,0.106010420230769,0.71437777775,6.864002778,3.919617556
"TZA","L22","M2","TZA-L22-H05",0.09269275,0.825540418,40.44112139,36.77379361,22.785085,0.1,0.173576222,6.455010556,8.31627521,0.607041744871795,3.35781118083333,18.22277445,11.00557117
"TZA","L22","M1","TZA-L22-H06",0.091904722,0.422402324,35.12058306,50.01060583,14.86881111,0.07,0.080302111,7.409113889,7.764440595,0.342573945897436,3.59008819416667,8.716521667,17.66428078
"TZA","L22","M1","TZA-L22-H07",0.029051389,0.317109979,25.05495222,60.69294806,14.25209972,0.22,0.168916889,6.152393333,3.4315399165,0.148619551282051,0.902686944166667,11.04787694,5.381385278
"TZA","L22","M3","TZA-L22-H07",0.05854,0.501920893,33.27768944,44.409345,22.31296556,0.11,0.129163222,6.646263889,7.407358235,0.223351937333333,2.97194895833333,13.97473639,8.707520778
"TZA","L22","M1","TZA-L22-H08",0.0294225,0.312578947,29.71285778,60.12835805,10.15878417,0.2,0.214721084,6.078928333,3.1674423335,0.158391210820513,0.9930396525,10.50448944,5.95966
"TZA","L22","M2","TZA-L22-H08",0.04361775,0.646341023,37.45971417,41.33771778,21.20256805,0.27,0.268749917,5.5391675,4.530586153,0.289876246410256,2.13427921333333,10.77384916,11.20052408
"TZA","L22","M1","TZA-L22-H09",0.054015361,0.463101279,21.80977528,67.69332444,10.49690028,0.19,0.281119528,5.968626944,4.880780944,0.219498696589744,0.981291851666667,17.89548333,9.088466945
"TZA","L22","M2","TZA-L22-H09",0.089521944,0.358356487,31.86971722,52.15436055,15.97592222,0.09,0.090667611,6.964528055,7.69407771,0.270849907435897,3.27551944416667,10.83183584,11.3666208
"TZA","L22","M1","TZA-L22-H10",0.029931639,0.433551934,12.40684583,61.77838306,25.81477111,0.13,0.076250333,6.6424225,5.39853743,0.143533995717949,0.951794606666667,6.735958611,8.293680833
"TZA","L22","M1","TZA-L22-H11",0.038623028,0.342592906,29.83050611,60.138655,10.03083889,0.29,0.253906861,5.905545,4.037150625,0.218659038461538,1.251375625,13.14775667,7.678075139
"TZA","L22","M2","TZA-L22-H11",0.037271444,0.407135789,29.13777806,60.12940944,10.7328125,0.23,0.310504055,5.808651944,4.4101123195,0.226703782051282,1.45821511583333,9.490256667,9.109320417
"TZA","L22","M2","TZA-L22-H12",0.032011889,0.38079962,28.52627555,54.46084139,17.01288306,0.28,0.211395667,5.84692,2.5353054445,0.164656324794872,1.28206756916667,13.17695889,8.410989694
"TZA","L22","M3","TZA-L22-H12",0.031910722,0.373254865,26.2139175,60.58635861,13.19972389,0.16,0.164556,6.170724722,4.268891903,0.162282792025641,0.9806357175,7.424231111,5.994774417
"TZA","L22","M1","TZA-L22-H13",0.094274583,1.125643447,51.17593389,26.64188639,22.18217972,0.08,0.105956333,6.477024167,7.887384305,0.612454764871795,3.13077905083333,6.480869167,10.19563839
"TZA","L22","M4","TZA-L22-H13",0.093467166,0.515921579,36.79753083,47.29339639,15.90907278,0.13,0.108341472,6.338810555,6.67414686,0.298698895897436,3.16853219916667,7.663614722,10.152076
"TZA","L22","M1","TZA-L22-H14",0.091319111,0.517714096,34.25009611,48.10773806,17.64216583,0.09,0.0914565,6.447478889,7.43603736,0.304973717948718,3.08258381916667,14.32527889,10.87539928
"TZA","L22","M2","TZA-L22-H14",0.090754639,0.524889801,40.03380833,41.99992445,17.96626722,0.09,0.145805111,6.378087778,7.22155875,0.326220804871795,3.14213449083333,15.35507583,10.37741022
"TZA","L22","M1","TZA-L22-H15",0.091261083,0.652510864,44.29255917,31.33942389,24.36801695,0.08,0.108185805,7.270631111,8.85221597,0.481714943076923,3.20465439833333,15.79351333,10.07295981
"TZA","L22","M2","TZA-L22-H15",0.055429111,0.582333902,15.32879694,59.14864833,25.52255472,0.11,0.081091,6.25327,6.526651665,0.182831011384615,1.4352705325,7.316216389,9.006595278
"TZA","L22","M1","TZA-L22-H16",0.046693472,0.367489948,24.11685556,55.07828778,20.80485667,0.1,0.033381778,6.622066666,4.609999472,0.232143148153846,2.25783729166667,6.089213056,9.900606417
"TZA","L22","M2","TZA-L22-H16",0.090153,0.442009445,37.37018916,43.62707167,19.00273917,0.08,0.076935778,7.114508611,8.21935486,0.31272802,3.45614138833333,8.661196389,12.01919581
"TZA","L22","M1","TZA-L22-H17",0.043672417,0.353945112,22.65236444,67.10732528,10.24031028,0.25,0.356038389,5.752694722,4.244493861,0.213327386025641,1.59858405083333,11.43022028,8.343462639
"TZA","L22","M1","TZA-L22-H18",0.044321945,0.824829183,33.77002361,43.31086167,22.91911472,0.32,0.379460805,5.431763889,5.058611235,0.459902008461539,1.89045319416667,37.30371278,13.11644389
"TZA","L22","M2","TZA-L22-H18",0.045526555,0.671939863,35.66579166,43.70726611,20.62694222,0.12,0.151122611,6.2382325,5.400866985,0.247750106794872,2.03858210666667,66.36711222,9.640343333
"TZA","L22","M2","TZA-L22-H19",0.033056583,0.45108793,13.68986167,58.35877417,27.95136417,0.13,0.056354417,6.649400833,4.511820528,0.135558867512821,1.01263305583333,18.19890278,8.450934361
"TZA","L22","M3","TZA-L22-H19",0.101419806,1.175603779,50.79648694,26.38958028,22.81393278,0.07,0.128809722,7.459666944,9.12589611,0.688988312051282,3.5591549075,15.16659639,16.37888989
"TZA","L22","M1","TZA-L22-H20",0.032824,0.567517759,12.21579917,66.51928778,21.26491306,0.13,0.089373444,6.307290833,4.686968764,0.167039586897436,1.07041439833333,58.83492194,9.441927556
"TZA","L22","M3","TZA-L22-H20",0.093080472,1.449181504,54.74839889,18.99828722,26.25331389,0.08,0.133992333,7.274462222,8.4339575,0.748319159487179,3.63300023166667,28.92592056,12.15509255
"TZA","L22","M1","TZA-L22-H21",0.048634361,0.418475822,23.01770917,68.45179417,8.530496667,0.32,0.336734333,5.935274722,4.0339666945,0.22916428774359,1.29096113416667,16.94546028,14.63705611
"TZA","L22","M2","TZA-L22-H21",0.043388583,0.39601074,19.59429556,70.63194333,9.773761111,0.25,0.341940139,5.847732778,4.1975772775,0.218650028487179,1.27417037,14.36607778,8.502350972
"TZA","L22","M1","TZA-L22-H22",0.054081722,0.545559392,18.67371222,69.69665528,11.6296325,0.23,0.319472417,5.838805555,5.126423165,0.220622962974359,1.2037570375,74.55833111,14.12532141
"TZA","L22","M2","TZA-L22-H22",0.038689833,0.519123658,28.79849611,58.16710167,13.03440222,0.24,0.304504861,5.814127778,4.489717764,0.214413283487179,1.58147083333333,30.67418167,13.39131258
"TZA","L22","M1","TZA-L22-H23",0.1007515,0.846540018,47.47719722,29.81133222,22.71147056,0.08,0.134017639,7.303021945,8.944808335,0.644408604102564,3.48152944416667,12.97487639,15.29047544
"TZA","L22","M2","TZA-L22-H23",0.025241917,0.521020157,11.40914667,67.23236278,21.35849056,0.13,0.091738556,6.368339722,3.409454167,0.128563974358974,0.8688826625,13.19150833,8.053556528
"TZA","L22","M1","TZA-L22-H24",0.05288625,0.516215157,30.67212444,55.87306445,13.45481111,0.24,0.338553278,5.761316945,4.8500032785,0.234236602564103,1.77659863416667,16.47442111,11.8390402
"TZA","L22","M2","TZA-L22-H24",0.033792944,0.442945904,34.23578,51.47474389,14.28947611,0.18,0.202423778,5.948963055,2.838952278,0.219230156692308,1.97714914333333,8.678580278,9.038660972
"TZA","L22","M2","TZA-L22-H25",0.038436028,0.47102057,31.63094889,56.29097445,12.07807667,0.51,0.327639278,5.781671389,4.312351847,0.22925247151282,1.5181113425,12.86036,12.34148847
"TZA","L22","M3","TZA-L22-H25",0.040402972,0.411037704,31.29409805,54.8675275,13.83837445,0.24,0.328531639,5.760024166,3.7322786945,0.195696203692308,1.73798523166667,8.719525834,8.859681806
"TZA","L22","M4","TZA-L22-H25",0.032077667,0.374895666,28.65206972,58.86896084,12.47896944,0.27,0.302105194,5.749019167,2.4549444305,0.177605648153846,1.1515032175,9.021466667,7.588664444
"TZA","L22","M1","TZA-L22-H26",0.036740695,0.488015058,32.33041028,52.77983444,14.88975528,0.26,0.311132722,5.623741944,2.7523915555,0.219400256410256,1.92378675916667,8.454138611,11.41909931
"TZA","L22","M1","TZA-L22-H27",0.045370472,0.362523316,13.48347195,76.04311805,10.47341,0.15,0.147407833,6.4081625,5.096719805,0.151936930205128,1.01943425916667,9.438014721,5.077115972
"TZA","L22","M1","TZA-L22-H28",0.038163195,0.33480793,23.64684333,66.2192825,10.13387417,0.17,0.177585305,6.215581945,4.395340764,0.176983796307692,0.91728331,9.242482777,5.991013056
"TZA","L22","M2","TZA-L22-H28",0.04089475,0.572778663,48.07212361,34.57347167,17.35440472,0.29,0.266617611,5.41802,3.860973861,0.250055256410256,2.2478759025,6.495593056,11.83075394
"TZA","L22","M1","TZA-L22-H29",0.104440222,1.56795072,54.38550195,16.7526375,28.86186055,0.08,0.135912389,6.474593056,8.228124445,0.760687521538462,3.553847685,33.01981445,14.86268772
"TZA","L22","M2","TZA-L22-H29",0.088558167,0.54906217,26.23583861,50.41661833,23.34754306,0.09,0.075391833,6.776944722,7.85606875,0.247611396,2.76986425916667,7.291438611,8.693385583
"TZA","L22","M1","TZA-L22-H30",0.023765917,0.351304265,13.43155722,66.70418722,19.86425555,0.18,0.102811306,6.549748333,3.281058278,0.105949009974359,0.817911365833333,10.37786528,5.270400722
"TZA","L22","M2","TZA-L22-H30",0.104248722,1.465685583,57.33713584,18.43286972,24.22999444,0.07,0.130922695,6.876738611,8.302998195,0.76132755,3.53455949083333,26.81288833,24.45257289
