"landscape_no","eplot_no","Shannon","Simpson","richness"
"0",10,0.65227319867439,0.459686023472032,2
"0",100,0,0,1
"0",101,0,0,1
"0",102,0.272839772475645,0.123381924198251,3
"0",103,0,0,1
"0",107,0,0,1
"0",108,0.998608401508905,0.608538314832021,3
"0",113,0,0,1
"0",115,0,0,1
"0",117,0,0,1
"0",118,0.972891488100735,0.593399079552926,3
"0",119,0,0,1
"0",121,0,0,1
"0",124,1.01893968777581,0.610951867463974,3
"0",126,0,0,1
"0",127,0.633009843069364,0.441078191133883,2
"0",128,0,0,1
"0",129,0.609500246532583,0.286810613943808,4
"0",134,0,0,1
"0",135,0.645033151676034,0.452662721893491,2
"0",137,0,0,1
"0",142,0,0,1
"0",146,0,0,1
"0",148,0.267567912572871,0.139551441794233,2
"0",15,0.346707105052225,0.195943102432455,2
"0",150,0,0,1
"0",154,0,0,1
"0",155,0.673011667009257,0.48,2
"0",156,0,0,1
"0",158,0.464125848370742,0.289084918694867,2
"0",16,0.654669564528501,0.364197530864197,3
"0",160,0,0,1
"0",162,0,0,1
"0",163,0.877091471779735,0.553916282717381,3
"0",166,0,0,1
"0",167,0.755854138294808,0.427767629831402,4
"0",169,0.726669384021722,0.505558842866535,3
"0",174,0,0,1
"0",176,0.774923663868915,0.49161674270978,3
"0",177,0,0,1
"0",180,0,0,1
"0",182,0.534504764061346,0.349943289224953,2
"0",183,1.31618885663964,0.677401516217901,5
"0",184,0.870907408685255,0.537186381312141,3
"0",190,0,0,1
"0",193,0.571699569988888,0.383554862503403,2
"0",194,0.598269588585257,0.408163265306122,2
"0",195,0.814180398973579,0.526505190311419,3
"0",20,0,0,1
"0",202,0.922564261697813,0.558173601802076,4
"0",204,0,0,1
"0",205,0,0,1
"0",206,0.967500072302763,0.593490579514611,3
"0",208,0,0,1
"0",210,0.566847313912455,0.292601606805293,3
"0",213,0.374254931089641,0.21681368902115,2
"0",214,0.660578887652076,0.354570637119114,3
"0",215,0.2918759373962,0.156292056520398,2
"0",216,0.734859217592783,0.405180146132527,4
"0",22,0,0,1
"0",220,0.3289645210689,0.150850160598369,3
"0",222,0,0,1
"0",227,0,0,1
"0",23,0.973937743170445,0.595892883688335,3
"0",230,0.0728628205067057,0.0272427581575654,2
"0",232,0.201003010902793,0.0965239873599539,2
"0",234,0.95910027914147,0.566430653894211,3
"0",236,0,0,1
"0",239,0,0,1
"0",242,0,0,1
"0",243,0.282480189925219,0.14975869462941,2
"0",246,0,0,1
"0",248,0.412845138126223,0.20649088853032,3
"0",251,0,0,1
"0",254,0.438040563439398,0.211121969212223,3
"0",258,0,0,1
"0",261,0.674642816822129,0.481610058172265,2
"0",263,0.747686716838253,0.413583462126322,4
"0",265,0,0,1
"0",266,0.554539431436594,0.310218592947147,3
"0",268,1.54261312532691,0.778799351000541,5
"0",276,0,0,1
"0",286,0.810970321117792,0.463900676023051,3
"0",287,0,0,1
"0",289,0,0,1
"0",29,0,0,1
"0",290,0,0,1
"0",291,0,0,1
"0",294,0,0,1
"0",297,0,0,1
"0",303,0,0,1
"0",304,0,0,1
"0",305,0,0,1
"0",306,0,0,1
"0",310,0,0,1
"0",312,0,0,1
"0",315,0.581234158112361,0.302973041068279,3
"0",318,0,0,1
"0",32,0,0,1
"0",320,0.673011667009257,0.48,2
"0",329,0,0,1
"0",331,0.654531317506915,0.461883818454896,2
"0",332,0.555575958887053,0.368863718226052,2
"0",335,0,0,1
"0",339,0.629096336852718,0.437328806758999,2
"0",340,0,0,1
"0",341,0,0,1
"0",345,1.07907583969988,0.653149932797621,3
"0",351,0,0,1
"0",352,1.07510630766073,0.576108459380691,4
"0",353,0,0,1
"0",371,0,0,1
"0",372,0.40153883926233,0.238087970452672,2
"0",380,0,0,1
"0",383,0,0,1
"0",384,0.689294893666163,0.496152662357649,2
"0",387,0.586546134777234,0.397244444444445,2
"0",394,0.640041761509985,0.447841518459936,2
"0",395,0.617241769730342,0.42603550295858,2
"0",397,0,0,1
"0",4,0,0,1
"0",41,0.585952618303551,0.396694214876033,2
"0",42,0.144603918253972,0.0635916682304372,2
"0",43,0,0,1
"0",45,0,0,1
"0",46,0,0,1
"0",47,0.537363236288087,0.303905416918207,3
"0",53,0.333197237557138,0.185936551883559,2
"0",59,0.981022690147532,0.599313869635231,3
"0",60,0.511333770676942,0.329506100484842,2
"0",61,0,0,1
"0",62,0.717912606365387,0.439619836944282,3
"0",67,0,0,1
"0",7,0.36565467890706,0.210231550211428,2
"0",74,0,0,1
"0",77,0,0,1
"0",79,0.692633450240405,0.499486357659435,2
"0",80,0,0,1
"0",86,0.877883017952964,0.515001772273305,3
"0",88,0.728694706841703,0.409701165858772,3
"L03",3,0.540204142388861,0.355029585798816,2
"L03",4,0,0,1
"L03",6,0,0,1
"L10",2,0,0,1
"L11",11,0.0802830886887862,0.0306674042371484,2
"L11",12,0.387212375186361,0.226843100189036,2
"L11",13,0,0,1
"L11",14,0.206664220344979,0.100015431503414,2
"L11",2,0,0,1
"L11",6,0,0,1
"L19",13,0.636514168294813,0.444444444444444,2
"L19",5,0.325082973391448,0.18,2
"L19",8,0,0,1
"L20",10,1.74305623608362,0.819269640674231,6
"L20",3,0.562335144618808,0.375,2
"L20",4,0.562335144618808,0.375,2
"L20",6,0,0,1
"L20",7,0,0,1
