"year","L18","L19","L20","L22","L03","L10","L11"
1981,686,1251,517.75,1119.25,777,639.5,1161.25
1982,873.25,1479.5,646,1289.75,952.25,853.75,1455.75
1983,892,1427.5,684.25,1380.75,776.5,709,1228.25
1984,798.75,1179.5,650,1217,968.25,757.25,1387.25
1985,823.25,1260.5,623.75,1267.25,952.25,758.5,1377.25
1986,952.75,1332.5,693.25,1338,1148.25,867.25,1291.25
1987,796.75,1141,575.25,934.5,766.25,677,997.25
1988,875.5,1442.5,608.5,1323.25,1146.25,753.75,1085.25
1989,892,1283.5,715,1132.5,1233.25,904,1081
1990,743.25,1185.5,557,961.75,948.75,690,1248.5
1991,681.5,1244,602,1164,908.5,720.25,1162.5
1992,829.5,1302,673,1315,949.5,765,1256.25
1993,680.25,1172,694,1181,956.75,818.25,1168.25
1994,883.5,1400.5,727.75,1335.5,1104.75,781.75,1301.75
1995,752.75,1147.5,563,1111.75,860,679.5,1073
1996,659.5,1109.5,475.5,901,791,569.75,951.5
1997,1125.25,1874,939,1411.75,1350,1116,1382.5
1998,610.75,994,558.25,945.5,871.25,671.75,922.5
1999,565,658,484.25,934,842.5,591.5,910
2000,872,1290.5,728.75,1182,1189.25,902.75,1274.25
2001,823,1270,658.25,1265.5,864,791.25,1446.25
2002,655.25,987.5,535.5,700,962.5,629.25,1129.75
2003,772.75,1218.5,565.5,1044.75,742.5,637.5,1146.5
2004,803,1100.5,639.5,1054.25,860,786,1280.75
2005,770.25,1234.5,505.75,1042,773.25,626.5,1124.25
2006,906,1204.5,748.75,1203.5,1083.25,846.75,1257.75
2007,806,1211,692.5,1160,973.25,777.25,1063.5
2008,729,1072.5,631.75,979,958,755.75,1093
2009,729.5,1083.5,629.5,1124,901.75,758,1165.25
2010,815.75,1307.5,569,998.75,761.75,712.5,1152.5
2011,793,1082.5,600.25,1174,843.25,689,1026.5
2012,724,1241,662.75,959.25,1003.5,770.25,1160.75
2013,925.5,1537.5,792.5,1299.75,913.5,868.75,1198.75
2014,792,1292.5,581.25,1112,831.75,707,966
2015,1273.75,1903,790.75,1299.75,1222.5,995.5,1169.5
2016,NA,NA,NA,NA,NA,NA,NA
