"date","L18","L19","L20","L22","L03","L10","L11"
"198101",1.15624461068285,5.13302354481764,0.483345129299916,1.85093516291004,1.37763948269198,0.623938527449212,0.605024289100768
"198102",0.983334226956439,0.428891725243467,1.06666802624378,6.30745353628147,0.7859385239739,1.72271726693451,0.869767819233158
"198103",1.0169942513455,1.54053677107952,0.736710310780903,0.702004634087244,5.22740943000992,0.478718603037477,1.64281291968047
"198104",10.3243440599615,0.415228054131023,1.77973411766911,6.37461435070278,0.743783029809045,0.844067422793431,4.65172583001255
"198105",5.769384132239,1.0582918560683,0.19325498457163,4.9811166607624,1.00456672897073,1.20523852146937,2.51025418831942
"198106",1.03216008393125,0.18854375822609,2.22108146996112e-10,2.6771109559259,0.139339414114655,0.259737169100518,0.0633808103286247
"198107",0.308476016348054,0.215615859136396,3.73170168479796e-12,0.771494407179967,0.0149128187458581,0.0576374626757869,0.0323872670272106
"198108",0.177368280285353,0.0124320348318342,0.00149383235718154,0.124191588053753,0.0524236074522237,0.0155938346853918,0.0458035038086295
"198109",0.427333874693971,0.226463109243948,0.0847676958873293,0.650287717124844,0.355602961657286,0.0211117784429629,0.0648272343985496
"198110",0.08880676720236,0.205311123262876,0.0400789230031175,1.41832229505803,0.885608685981456,0.198202578644217,0.350595077694715
"198111",3.13724611190613,2.21583178535962,1.51280899019144,2.93396899768107,2.94485780345825,3.15470444896441,1.03956028075562
"198112",1.31689998380205,1.33486959124043,1.61658150677166,10.0488514554782,3.53775299516055,3.23289104090375,0.555968767502073
"198201",2.70976419412766,0.362417041422509,1.04579187508279,3.71177589262446,0.935787365270095,2.17003770495282,2.20337397444962
"198202",3.74613221291729,10.1189350321945,3.61536181496855,7.04191302488728,9.35082265561994,2.40512012528654,5.74672315525082
"198203",2.87376942827848,17.0357093008078,7.14259601489994,4.89291427230416,5.1007074211118,1.21684475715984,2.55199985644299
"198204",30.8664324874221,28.7361825698377,12.9663342349683,6.49257505667448,8.6398175640573,11.8674202638328,3.77241622753848
"198205",3.85076187398448,2.48433081260918,0.0860686321310673,5.18346360392023,0.378691659400799,3.21888226481404,2.87576111228755
"198206",0.869463517291725,0.267268002098255,3.70577287959305e-10,3.81720146130998,0.189535370334699,0.40916010120278,0.153436797872497
"198207",0.546695189407131,0.217711737619146,1.75654935133277e-11,1.66159745219914,0.0136181220860896,0.158894645710603,0.182311236165625
"198208",0.161433683699681,0.0605620789332931,0.00158165151707106,0.319411090116393,0.0321247411772576,0.0490591599444123,0.0176787223462637
"198209",0.974758599558583,0.798839565557902,0.0751441840384272,1.19623883135237,0.151561563947495,0.0285226655809331,0.089120059577948
"198210",7.15061016918744,2.15956405672364,0.235390339412199,6.27687629784565,2.38547050303783,0.202760651236182,0.712923881933931
"198211",2.18401834473152,5.44417518276022,2.26435889123662,17.0785251810264,20.1865898301687,6.31714564635403,4.64443208634651
"198212",3.5229355274408,4.00034958179816,7.96034496356539,1.35908996306173,11.8987066632748,7.01755183269821,4.6901217323432
"198301",1.70221498444699,11.804142715249,1.47440074338298,2.28434156401584,1.06250855636616,2.91823083059269,19.858146861911
"198302",9.78314348357646,12.0768726117395,7.59279765098355,3.45354259494256,8.24721293745693,3.85497248609185,7.83302046309623
"198303",8.14660029688397,11.7172392853675,2.33778841214192,5.15860408999587,8.89015489749005,5.21690603240055,5.55956212862535
"198304",24.1872175672439,0.623714015198528,3.80583432122095,7.63050635294295,4.554513850521,9.73675588630332,16.9729001257299
"198305",1.45299808797683,1.79335312458557,0.0268233959608068,2.12344020163997,4.24887811833889,2.96853171835818,3.85181188131884
"198306",0.376109714636676,0.114915742688469,4.31582329623644e-10,1.20336803569942,0.149353788772061,0.429169031523688,0.0688912621276962
"198307",0.0949244448903305,0.00888615724633988,1.39658530342214e-11,1.6809146075682,0.0159236578172582,0.0897909144375839,0.132692493390343
"198308",0.194179597614279,0.024629174740205,0.00292483095685319,0.272889474920722,0.0453260790041529,0.0268232553333593,0.0588715185280762
"198309",0.275735110906038,0.0916599546171281,0.0456148905453308,0.964088532160698,0.141098708540225,0.0107567118236328,0.0184896758441993
"198310",0.375767281881043,0.183228872041473,0.125722765200217,0.958021428074998,1.19437764317726,0.389075738071235,0.346663819947703
"198311",0.187917814489729,4.13238722881309,4.54666273442269,1.17022377489165,2.41771384977374,4.67414882635309,1.63876249229486
"198312",10.3061806803645,6.69969675677052,3.02367549828526,6.53649093663453,1.67723511586016,2.8791602122313,41.0371905491757
"198401",8.91636691404966,5.74733038342853,10.7151728373826,1.3859785823116,5.4438292420056,3.06741054551273,8.46046985218882
"198402",2.270456271079,11.1601766335789,2.52172093388767,7.55978390044002,1.16002333231829,5.76913349728535,11.886665113187
"198403",2.1074615472115,3.27136150556391,1.61781298037689,2.84048319239951,0.994577895657453,9.05088752850309,15.2737499802196
"198404",13.0299667202791,25.2819374592153,3.75105873279225,17.7608649513894,7.70615939162853,3.70314445276657,4.68055664764967
"198405",0.578172359570416,0.507332742293638,0.0509452425430376,3.9828922207511,0.373873886645505,2.97965337870674,1.88632505676631
"198406",0.841274940107106,0.0467836761966686,3.60099646039851e-10,1.68749538504843,0.19252724611809,0.0988880859453083,0.707422969354949
"198407",0.0940961874761451,0.148591243236068,2.74793405037651e-12,1.48263843585965,0.015252592224723,0.0922335894547638,0.214339495336582
"198408",0.100522115141816,0.036227492224933,0.000536586822252849,0.392058002843993,0.0248341221940499,0.0118420238817776,0.0360038504208147
"198409",0.310369127842051,0.120708911309989,0.0291109974954419,0.658046554970105,0.154689480000811,0.0355804881425289,0.0357440743583348
"198410",5.38358405128247,0.597829781066654,0.0110331567441309,7.44967470073511,0.782564216311375,0.372331693762635,0.141807568060611
"198411",3.19920632716414,11.4626820984305,2.73132135262394,14.0876604445739,3.26422899697567,3.47445048519351,3.31327834021722
"198412",17.3384450386177,7.19631880474579,1.26080738216122,12.9387844005761,11.542834947305,6.95671965482847,49.8554960991406
"198501",7.75743658822143,6.96092764428808,4.49150354782958,2.71509895666823,5.43008850059877,5.25206029302038,2.26735285347843
"198502",13.6362519959101,19.1090115712716,4.91695496768102,0.916022591925637,2.43894424066686,2.79833329521978,6.61727772285101
"198503",7.41825411267657,5.14776078045535,4.19128812880985,14.1934153882219,6.16420025696778,3.99758627526165,2.87872383633723
"198504",10.6943291648694,19.8480407126951,1.38902601494575,1.40626410701247,5.33841296532862,9.38470405216379,1.16600881664534
"198505",0.951555262458777,0.951566594744647,0.0925339451848688,2.00923034986435,0.192298413595984,2.29557170541223,18.9243126294803
"198506",0.388230345890503,0.147232934602258,2.95180416819947e-10,1.2170393367102,0.157368533942466,0.496988608601408,0.0247473950952048
"198507",0.115650003656023,0.134968749594619,1.50371328840452e-11,2.69949395983913,0.013543648495699,0.0927720965976252,0.118426971521449
"198508",0.744269000656614,0.0336798838198435,0.000518790469961569,0.136595568030676,0.0292040589609929,0.0412401990110477,0.0578109607751012
"198509",0.529297443541263,0.109943257501154,0.0804991245527376,0.388756011225893,0.402961283888747,0.0233449195806045,0.00676725353348257
"198510",0.69822414940249,0.0301636565422766,0.0264235566938689,0.645272621285805,1.45452954214705,0.215660559101473,0.0831166403873843
"198511",9.96782458092506,7.16310843681835,5.92620867541649,3.1955400916818,2.05365040695513,13.1842989364294,12.2149040513138
"198512",6.52048418521095,5.19975583017669,6.23079965959155,36.6089961452749,7.27156841115285,4.32545060106137,4.5396406714692
"198601",7.13255387135221,2.12809081330443,3.4417878631707,0.831861492432223,6.10075538997601,7.38906004081621,11.7078455284081
"198602",4.91938694341225,8.05613069875785,6.83885494222713,8.0988583680847,4.6382238757663,7.29546145245772,9.0335533629995
"198603",7.86119532624254,1.48730226683717,0.363560882555619,17.0498746692876,0.704424919227754,1.06480124355657,23.7102833364585
"198604",10.7035338623455,3.47839356894518,5.39277334833079,60.3708507611049,12.1503235897826,6.86782038803677,4.5058878151254
"198605",1.89394096957972,0.909514155174417,0.114998468100081,18.3727519269757,1.55962578117871,7.44733323909827,2.40868810877021
"198606",0.41918832850465,0.147153698527058,3.52630348029563e-10,1.35693603368181,0.27905496686714,0.487545270288291,0.0918897412978898
"198607",0.137075302028398,0.0690670521791663,1.94358326435146e-11,1.64974879521649,0.0135436906909495,0.0994494981058305,0.0997313239649817
"198608",0.222701150979509,0.0516637017350631,0.000284097636524005,0.204279993262146,0.0324467088439693,0.0627042477629548,0.0735912247175825
"198609",0.298261178640573,0.101221894432492,0.0595747816235732,0.743319394379864,0.360934533214119,0.0310204254540753,0.0177490183216569
"198610",1.17367053397588,0.592450494497511,2.05597655639067,22.375688102156,2.30924628009897,1.35368501477933,0.257685358614889
"198611",4.67288739371745,0.465709189053856,0.219526783314138,13.9509105896521,2.13908153247031,5.28012994687457,6.54299536513264
"198612",2.65765608110718,5.03796857725926,3.16277106476411,12.8200535765358,1.92821801974567,13.1250926560118,4.1671983263759
"198701",12.8882273894491,21.6028641998964,1.51679325074575,14.9024166444729,3.38111509263905,1.92357036001155,5.41426254087958
"198702",17.0174346290601,1.76840893376289,1.54222560772288,9.02858382866198,8.91593942466704,2.79266135015977,12.6305241069581
"198703",6.48024771340503,15.5634927397519,0.635142275320132,13.0489394546779,7.32102904554526,6.09215322770797,8.06558588619759
"198704",22.3448235177775,8.08932488229546,0.50076604402977,16.4886472473389,10.1643660818057,8.66815249070686,7.49698638489012
"198705",0.636698841062358,19.2793900377895,0.0954128388285117,8.29362252683309,1.30635644901352,2.63628261877559,1.47291980542087
"198706",0.376294403136003,0.178020701677284,4.19894732846314e-10,1.2286690470474,0.140229331682333,0.307613646682528,0.0729895848714982
"198707",0.535606193133169,0.202354100371352,2.0762322304116e-11,1.78960974952304,0.0128122315012723,0.159275694352017,0.08021095361466
"198708",0.0958419663117381,0.0339830882480309,0.000615107553576735,0.208088911501469,0.0173181867302461,0.105163727490055,0.0583453112680207
"198709",0.294406331384087,0.0893132180920415,0.0623501562236631,0.470333230271767,0.808441935121956,0.0116653501195784,0.00343809389085836
"198710",0.0882545948866618,0.22243290114879,0.0554735681764006,1.00857628198417,0.989738798821088,0.880184998778059,0.122106230917226
"198711",7.01907882210629,1.57102411541836,5.4333626614222,2.50825807081213,4.60012230729257,2.01431705215236,0.845916172590953
"198712",1.62721624630862,0.601832720150824,1.95372699153977,25.3756958874073,7.68329513953541,4.23367680124009,3.14192627484907
"198801",4.19942351455884,6.41678080993193,0.954043958495264,4.05899705150943,1.79981045920337,3.17491459022593,0.678755593531734
"198802",2.83455740914699,6.60058220476358,1.26852152300131,11.2551014630601,1.1901649559477,10.2225801444757,5.88950973917538
"198803",27.5087523872174,3.13642685276974,5.75311309504975,10.7635440542486,1.97073519737932,9.05721159536828,3.30496504249971
"198804",17.7142545449919,19.0275339580799,9.35190807412262,5.2031047825095,2.43103676187286,11.7308743076703,7.9544415802052
"198805",4.85256049102683,34.7035120846477,0.133232528380377,8.78257548969249,0.402963776621873,2.67111469794504,1.24477180399884
"198806",0.102260260147766,0.0614280201802638,3.91758216830537e-10,1.45429403540477,0.147720200084002,0.445091285432513,0.0286927434292757
"198807",0.119008238477936,0.0836970662342678,1.6104672335233e-11,1.8069124110927,0.0133878387115431,0.0834533069432059,0.056412975758078
"198808",0.455841613811671,0.196232102037751,0.00139172492805546,0.0736085616533056,0.0283451780649986,0.0423809167588678,0.02767947867813
"198809",0.370518280724297,0.205336074197195,0.0742128397052677,0.66499197840141,0.169925552127672,0.0525598899662657,0.0148597757351239
"198810",0.583390728162687,2.11463956230848,0.0517806463889044,0.574473182346972,1.15971053524086,0.174450912606285,0.100192533199551
"198811",5.94137731273882,11.7449847243296,1.87959454183831,3.12406656413404,1.39415793576735,4.12655745478559,8.88061816116587
"198812",6.37365968581735,15.3371710753315,2.42775646504879,8.00502632291091,5.8395597173095,4.89305686206801,4.41958212896139
"198901",8.56958696403199,2.67175683641277,3.96942546128538,31.003871861484,6.1656942832156,5.930102928942,3.66332682659256
"198902",3.95070745637463,14.3426345884182,2.56928183743599,7.33867021201494,6.95370845264519,2.35213621333163,11.0987819052774
"198903",6.85824253213502,9.46613185220968,4.60654678831635,6.70836250586834,10.0873217822426,10.4227169458717,8.09255926808171
"198904",6.98141441715276,3.52679433542552,4.98019463027375,16.2996059605023,17.7285247091605,5.97737519068592,12.231495703067
"198905",1.03798430108572,0.353617790977798,0.0840546948252168,2.84981297755784,0.410496517435057,2.86911693046653,2.87856952042161
"198906",0.0847240815519952,0.0550847508919802,4.84574601910366e-10,1.4643087954858,0.19407129402883,0.368429890610077,0.172669136621701
"198907",0.0650301937906823,0.139460381387273,2.45084108902741e-11,1.89466404573363,0.0135435932707131,0.197333022741022,0.0946007867978977
"198908",0.389720376140718,0.16541870967883,0.0011595123701857,0.169025887158777,0.0324381081886688,0.131840300638881,0.0814674067224616
"198909",0.276398743242108,0.0680738195471586,0.11064443696048,0.534047346148664,0.090549018018382,0.0133160442008906,0.0223246642719624
"198910",0.141954130527654,0.263549301360442,0.343479560847478,3.08490778767269,1.16018262340947,0.309963531347902,0.0796325398769542
"198911",3.09342014719546,16.0681805144203,1.25891250462345,3.03965591750806,7.33640508098387,1.78083587811779,4.43524185642774
"198912",10.8496156331783,0.451199209223313,7.55827186363553,1.529080140942,2.48811632147665,10.1391709224542,7.58420287585934
"199001",1.40350536611996,11.6511530269024,0.671657280414918,2.63426791292711,5.38878139314658,1.46552076701828,1.67515548624351
"199002",1.27887146316607,2.00396733291549,2.7522113196702,7.1853461018213,5.79566444656158,2.2113751571707,5.22003053519164
"199003",15.0674041523466,5.79936319672614,1.88787240644241,2.36815724061229,19.9946712503915,1.06991209520644,12.5306105960734
"199004",10.4878614459094,15.7700370798022,7.51472084720022,5.2199128135696,41.0248303415654,12.6019248763167,1.59972824318677
"199005",0.814350000995946,1.86393999212204,0.0769955949771011,3.51402850401951,14.9997346234405,2.34740479597654,1.97205108276292
"199006",0.388662984802462,0.115897595671379,5.74467589590511e-10,1.40381171461356,0.157431917432331,0.352479181158487,0.00421203949858377
"199007",0.0226440042512267,0.065912697742914,3.02138721631019e-11,1.92965184765936,0.0135435250525821,0.236314116485379,0.131161436880203
"199008",0.265882794750928,0.175954073107401,0.000709224437558789,0.207432331252084,0.0324054497278888,0.0815268299162964,0.0374300425206517
"199009",0.185487192056928,0.196431583071753,0.0924822327706916,0.864685873279528,0.147731395568268,0.0339274370901887,0.0831561220761339
"199010",0.396311112249405,0.0926198912388122,1.20464653449676,1.60273803148805,1.16170832297786,5.09490031660028,0.180632471909271
"199011",1.51667795085116,0.320964435800286,1.77887258941836,3.26139037510702,5.24746283504864,4.06148414083782,1.19790239487692
"199012",9.68247944007264,13.3295578714324,9.09276526535982,1.14616596675835,4.81923059360852,10.5543550570687,4.46730977204702
"199101",23.9210596671704,5.01001813602599,6.21209315375094,0.97736687150122,7.77804325260779,4.12710086662413,6.5522572493797
"199102",10.6187246217596,4.3275817597342,2.63406517001665,6.41089255747139,6.9108651481496,1.34364135873946,12.460659086413
"199103",14.9665437272125,14.990350053732,0.703010381690298,2.40077268371444,13.7643326136492,6.34357829884181,14.1760207089453
"199104",7.71649595527837,70.4482104740145,5.33070836318957,6.80752380932044,11.3300668781405,10.2700652538919,21.2555486910671
"199105",0.360951324524538,0.250216335494839,0.0472374656727353,0.664538424188437,0.447238430880345,2.78017696520638,4.24018123486889
"199106",0.0851909490273314,0.0112489938675576,5.54686017835662e-10,1.24933739326466,0.157541134298486,0.377398953194704,0.136490829977298
"199107",0.127405275645112,0.0375738034948957,2.41493179693082e-11,1.56917184489646,0.0141455303258913,0.173828224105173,0.0821548720753638
"199108",0.177495313892293,0.1688754256063,0.00114122678045986,0.207239088646575,0.0950371466743272,0.0630033524705069,0.0752632751922733
"199109",0.131550854549463,0.227371426512918,0.144485458882672,1.0115060923221,0.115318546750101,0.0423572308518942,0.0590291165878417
"199110",0.708657229283156,0.0800715943253607,0.0913273646655395,0.340785098242416,4.44911388475757,0.200546145227242,0.236387587208435
"199111",2.40798566148688,5.70630430391324,1.63176653363148,7.85465672548256,3.02565812901584,3.80628790618231,5.28051234057779
"199112",8.35442876562666,9.54816689961977,2.64515975532967,2.78403336917851,5.3325579659404,4.2065631599062,3.54179471719114
"199201",5.85072094306069,2.03083881482688,3.62519856146206,2.90315684693148,11.7093028827615,1.20032716609581,6.89073249331439
"199202",7.97799292981131,3.58611551894242,3.4555376218202,5.99162919178051,4.69086355638737,3.23804690837711,7.46564698248293
"199203",7.36850157261229,5.7101548399932,2.37463332355201,7.96200771933928,4.18033111419786,2.69372030698522,13.5466923069622
"199204",17.7652883377654,41.3788681934662,8.7056931071061,41.9776779488939,6.78495875246285,5.8007017384711,6.40450422914962
"199205",5.13673963795718,0.300803069346615,0.956242334987771,10.9892133577043,1.9563691988711,1.44638245668228,3.89691026404934
"199206",0.0172473868946171,0.0410474901143359,6.71638477995061e-10,1.35898259962741,0.14779440250814,0.310443820520522,0.07284488476058
"199207",0.0518270166242854,0.0346255748067309,2.31430468874556e-11,1.29319493949727,0.0137370970544978,0.152351851225113,0.0707882505905511
"199208",0.0992702701122848,0.0662412745739049,0.000994173871903222,0.24214195606673,0.0285223334123875,0.0601798559954522,0.0172381398465643
"199209",0.312831771063386,1.89552423980352,0.0152319450429515,0.88010344718307,0.16986393147021,0.00990155827861849,0.0304338491184722
"199210",0.351782734099154,0.249960483050953,0.0307683742252651,0.347614478595683,1.24351017897574,0.090174385058344,0.0804234173415006
"199211",1.93837300069352,3.28991421110362,2.60537650379231,11.8262868914366,6.48048567172083,2.61077075840025,4.53408546829375
"199212",9.98904637947342,8.11977176565973,3.03320192105149,23.0429997381922,3.38433328687411,10.7952003190678,9.55758186096922
"199301",20.8634047801448,17.1823793221014,0.991797311530144,11.1192330682132,7.65972840735373,5.90979229461889,7.53389966136301
"199302",3.57234358242295,5.0586657144512,3.34931892994972,2.76958803994378,5.61468502308956,4.11712792369976,4.64904681764374
"199303",12.3244960977497,4.64356039194304,8.94573927703919,4.61302490318862,5.12574783533604,15.1360358268338,22.6052985777849
"199304",27.3834747474788,1.85483762154284,6.10011316770202,15.6786668105446,8.52548438603055,5.15712971739577,8.79499720195002
"199305",0.275762782197173,2.89613182219409,1.16019398147311,1.37687212869695,6.79826711797014,2.39493061596551,2.17753049453422
"199306",0.0788389710873286,0.0240579268922004,4.26973378186691e-10,1.32974041093711,0.152028592938129,0.37389107841748,0.0413407672923736
"199307",0.0779331800610468,0.169976722757889,4.78064068853343e-13,2.4889591141002,0.0148408542090663,0.122976764568694,0.0686948692065194
"199308",0.106240354453415,0.00597214521372092,0.00121628613206263,0.270089259634968,0.0241483677083329,0.0811916445125986,0.0834417526160741
"199309",0.309251778057683,0.0501658764959708,0.0635116679136392,0.713057785343666,0.0980800473528193,0.0433256821665562,0.0497814409609657
"199310",1.29439561587083,0.558730992640068,0.0944965413797483,4.85597025441789,1.34379376190061,0.35237050813341,0.129607472786906
"199311",1.65579216620283,0.98612701052358,2.29111316179008,16.2153804132516,1.49255543752939,4.19549787077443,0.714631034901208
"199312",6.4215370247863,0.864634842180865,3.76110807000869,5.44666358408295,7.75833738142787,5.68048736907136,5.21215486165806
"199401",16.6773099532474,0.516816120383378,21.418907078077,19.4167089420276,3.55855543674716,11.4910995398882,0.713935604632363
"199402",6.61957175965812,18.1386820425069,3.2664321334469,5.29034148430714,8.50394803682912,8.66320054167761,8.35177916238583
"199403",11.5087816845693,4.69008511790246,3.00619658894191,23.2466386667673,20.9111697250651,4.77132278717453,9.46725466188906
"199404",28.289027629324,20.3008354330156,3.53114708878537,15.5498926417806,3.39135085683983,7.11699350039999,6.43906178051353
"199405",0.395336373191169,0.636920140123538,0.0808262534908781,16.0613791676356,0.488537851458086,2.50284337813633,1.5407038611568
"199406",0.375642536946522,0.071348376795364,4.0619939995889e-10,1.33527878156683,0.156406963856882,0.397083628522997,0.0545866758707321
"199407",0.0205751844174778,0.0437399572377573,2.00571412300767e-11,1.63095916676765,0.0135435796030417,0.15041027765705,0.0637784442909974
"199408",0.307023023622481,0.321290568114064,0.00114155509603749,0.366988184420779,0.0324051568247204,0.0734329213419968,0.0244850869824437
"199409",0.583446168347849,2.00438315372289,0.374831393477878,2.63905181075578,0.0710135330105662,0.303749109695928,0.0118569250810767
"199410",0.307352749131779,0.127721156451261,0.4467045574501,5.23390554297491,0.20105343048312,0.322551792784091,0.0976014059502617
"199411",1.83073505102057,1.40834267496292,0.743886594810366,2.50840408476131,10.6769255780637,3.96407005602177,6.40957982353416
"199412",13.8120833271966,6.10134502913191,6.57511563760155,9.53324884002848,10.3428843343735,1.57879101576243,24.3960429470227
"199501",7.11338477670767,3.10384632734645,4.47140583690844,4.8878593287542,2.14832839207634,2.51125056723497,8.5638919464003
"199502",9.37412615341129,0.210639833613806,4.74406481826882,7.57248326465413,6.21757564925895,1.26739074854388,4.22070129169248
"199503",8.84537328189049,5.32485846615025,6.32464725141401,22.6090652177032,12.6209045402359,2.26058679987133,27.7017280695647
"199504",10.5908460614722,91.6068617262967,3.46304012778003,27.870172528136,3.94975834382956,10.976823211403,2.42525607836463
"199505",3.02117621419585,0.480347295303871,0.0755716240252153,1.72899395778472,0.473147631521628,2.46562756133143,2.57361706209566
"199506",0.444687629022346,0.10701169130613,4.06368082771864e-10,1.13955067526149,0.660676776508645,0.397083914501003,0.0658580448699061
"199507",0.0317725556002696,0.0754034936779911,2.97877696241928e-11,1.49619419741116,0.0134487533165149,0.232265192902194,0.0968276866048937
"199508",0.547606709098256,0.164631069373858,0.00382562142098198,0.853843810746305,0.0285110092554381,0.224523919328902,0.146595907701822
"199509",0.0905934277902592,0.15107820232615,0.0201545765476668,0.655186426332555,0.169319567848569,0.0113910027532561,0.0302613960678998
"199510",0.069381172394396,0.242183904811935,0.0520623942530093,1.04856106006191,0.381122953554689,0.276783946023902,0.0809513681157859
"199511",3.86751623916529,2.42810354494777,2.15520245733894,2.59817525429123,3.96395116863263,5.1597818862931,1.53726928772153
"199512",1.87897525301057,4.11780239617959,2.30517703172674,2.84786992584831,9.25866430179998,3.22222428048373,5.12778452338266
"199601",7.22790012294941,0.97987309255414,6.46500874644862,1.05851100539035,13.8346541385876,3.65108176284659,3.6911068378896
"199602",6.13312950114986,6.02751454013404,1.09042750015759,5.9364802575981,7.76292890400976,6.33674129478328,6.60631918397651
"199603",4.34678283437289,18.7012121520717,5.34389031714981,3.81687914457368,8.97365022969219,4.22520880591833,17.8044451131297
"199604",25.9572712364198,34.7109899470979,0.328699968457323,6.074090912195,7.95887531243153,5.90353232318664,12.7857175423131
"199605",0.457988590858742,0.443754109033116,0.0158625504075077,2.4088144179256,0.464904238033851,3.17818515064185,5.11075740107396
"199606",0.205602058681664,0.0461094952078883,4.06365213277294e-10,1.24793341683246,0.147653952457729,0.397083618421744,0.0305551132808106
"199607",0.0917429608027508,0.168253759590764,2.00272633823512e-11,2.20690069079882,0.0134486999432923,0.176314829369316,0.0418606469113169
"199608",0.119544003505069,0.045036689325892,5.56744761460091e-05,0.213694672818815,0.0282377838455384,0.088016833136593,0.0520322876964227
"199609",0.206983348717915,0.103991448141839,0.0334930838002581,0.584257157578018,1.12859832204893,0.0100179506700778,0.0183124891092557
"199610",0.734241264068804,0.0656742308740393,0.0446924512036403,0.517585006427275,0.430129761088912,0.324226285776733,0.107130510510317
"199611",3.04575654482346,2.28178047651117,1.85272688608443,3.03695129277562,2.22118997916554,5.02328263578245,1.49835461421663
"199612",2.14385401315219,2.55994967668307,6.13805991497919,4.55450637651339,9.45255892680512,6.78601484113748,4.36503649237622
"199701",0.690980291050709,9.19979521116982,4.12318151306366,3.06555267515062,8.19485811016488,2.67129028592108,4.45055688422679
"199702",9.70030101133633,6.46299331203758,7.15586497388153,5.4953549796228,3.96903943329143,1.33505066152533,5.20172358509035
"199703",4.73768580574979,7.37488252641928,1.92720934912706,10.8971904382764,9.1516192505414,7.19660309200997,15.3123779799077
"199704",10.8963925977383,20.0678017986762,2.81503445249034,5.79910337731557,14.8566680710177,3.16944598377056,6.87559604499374
"199705",4.3186786853102,1.98770741593477,0.110592429064252,2.99186961689123,3.59158340098789,12.9473501580586,1.23045598938468
"199706",0.095167810876056,0.0205701908842269,4.77122530783857e-10,1.42355301677028,0.249521695746513,0.352951048072889,0.0365365957997726
"199707",0.0256025894487392,0.0308187450086815,2.63887431973626e-11,1.49903730056363,0.0134487099047444,0.205289196857372,0.100385337869966
"199708",0.0924158788496458,0.0620861010729129,0.00113906156984226,0.287259315492116,0.0280280434958794,0.0542052258431508,0.0305200035130479
"199709",0.257579469986254,0.143609401448383,0.0359578969534633,0.578222078272695,0.164336572460919,0.00940215492929174,0.0189310137406128
"199710",0.502436451748905,0.0558563753945176,0.0800904830112883,7.00896113230727,0.525324238654977,0.701545020125403,0.176644927100228
"199711",5.74327243335409,0.964620653840229,7.92631697360733,5.57359966872674,6.18011943088343,8.18795574927996,2.29310470995422
"199712",10.1058673479128,20.7664279595928,7.67014616334245,6.66403785359103,15.9885509317672,9.52433576446109,9.86927619459945
"199801",6.76520645330497,18.9091451464868,8.4850858406758,2.31837438658769,4.86455725759477,10.0402992781495,6.28035016475156
"199802",4.69802898975112,17.4485579124593,5.14775121139884,2.48287590681926,8.68460415998038,2.731902617614,8.74090306453452
"199803",4.95468841156423,2.68294024978404,4.741715674321,2.58513046279703,6.25426483961387,3.05662800717655,5.66361360719432
"199804",11.3067110862544,30.8264288849272,13.8213993960788,12.6494871781142,13.9907960117599,9.80025246705996,11.2613038787341
"199805",5.73922472744322,0.674549183648852,0.0609248502219517,2.72735898555733,12.2220314625106,2.80059656068197,2.93828202875102
"199806",0.117856780890412,0.0280365893916288,5.22939915597837e-10,1.1281075947736,0.350012933256462,0.382256306836538,0.00491972827559624
"199807",0.0194304436185823,0.00598322456652322,2.00564784969539e-11,1.30505755707434,0.0134487097343212,0.149659657028181,0.0618657454321063
"199808",0.411072676553743,0.0776101340786275,0.000414829536516246,0.285855995301906,0.0284829566889992,0.10019251734882,0.0641281332274467
"199809",0.215243085004611,0.0862360766822611,0.106960155847681,0.896038728731986,0.21170753538471,0.0371837409126288,0.04922040619367
"199810",0.67773513164894,0.0763559281606403,0.0374278738571546,0.479248072468341,0.257845256846327,0.32666304082671,0.178639405947081
"199811",4.06213107471558,2.46359321444267,1.59591326344435,8.60384718498293,5.03682812603438,3.69981927112855,1.28342379012606
"199812",8.17780669701437,0.77933231819312,0.925641737549253,9.6865941388216,8.63321986904351,3.91382002791988,2.83689455936573
"199901",14.9315635628685,7.59801401158214,11.7695427493465,12.1748606319173,10.279015536173,1.16755547119849,3.61125430245571
"199902",4.80543619728841,7.78639086828813,4.23651401801337,4.87328679160155,3.84448231934352,4.44868022286613,12.8046824492669
"199903",5.89985797295877,17.4221072246835,16.0858216029234,8.51175285793759,16.8701187946148,9.1017984777062,18.7046849062716
"199904",24.8211132015628,45.8258624274502,1.90618525877076,6.18789272497951,2.82843000475258,1.94741765283646,26.1358015376351
"199905",1.02822131794648,2.08204082944664,0.0540114786201943,12.8039236728367,0.39260203398454,2.61684329542189,2.12931502541547
"199906",0.679773122103588,0.199092608646185,1.06945545466794e-09,1.6464414656272,0.185406696111396,0.515837033723951,0.24592505382254
"199907",0.114958858902173,0.0483032808197288,2.00564551484041e-11,1.77847865631738,0.0134487350075858,0.14999025107777,0.061865265128574
"199908",0.156917026006685,0.130310743117468,0.00534379153312286,0.0380732401357177,0.0317449788946324,0.196106223008258,0.117657313875673
"199909",0.114567544667331,0.261155665929675,0.0604439225488434,1.87412434087356,0.0896331337234169,0.0124641656337153,0.016836277048073
"199910",0.353708360780358,0.126004241356897,0.0471615085418596,0.30234236698696,0.417291594887862,0.277980482164426,0.178465619550611
"199911",1.48455065745612,5.47101294719281,3.89329366809715,13.0142841039849,2.73531982493327,4.05256317561341,1.15341007440109
"199912",6.80548700635633,8.83448386136637,11.0103842560161,11.4769405845824,16.2835762662299,6.41713008730113,4.39401185648721
"200001",12.0197457012859,0.424656809905092,0.435733378574269,1.80181192568906,6.87659885558773,2.84559205519738,10.4346490826322
"200002",7.06907536321239,0.65781991936312,1.15226438707586,6.57930947582542,5.54074113299687,1.57185146682638,4.66143201251317
"200003",3.30704569781392,5.32209633028624,2.21427466880469,7.18221723439711,4.38072660187723,2.18395504533836,8.30550457531497
"200004",23.689569168829,7.16478621856388,1.59450840539561,11.018068685167,4.69301054479527,5.73256749549283,7.86503793398882
"200005",1.00022117161903,7.30587060231797,0.0746044840680963,2.17158707826139,1.38836570286313,2.65502971246123,2.51224110086705
"200006",0.300043412031544,0.070447108586807,7.22382379829382e-11,1.29964392135404,0.140406366597116,0.365712539660925,0.0280275650365821
"200007",0.108190527044547,0.0461851488009653,3.78200914659881e-13,0.495503050599738,0.0215017030011923,0.0188192618914209,0.073823522132384
"200008",0.225037363346621,0.135008241191674,0.000835512093988023,0.325000702015397,0.0687044883133831,0.0228265010030962,0.0499087443406567
"200009",0.278735734094731,0.160643471742546,0.0458675858846302,0.699061689391047,0.161327286942511,0.0849538099380848,0.0102060088278783
"200010",0.374867152893249,0.406506016712785,0.188821340366404,0.598450710875513,2.31562679449072,0.943308497959797,1.98627415170211
"200011",3.78962350714472,3.27131834719104,4.01171457029235,7.44657802095411,7.6684977261522,11.442077279026,4.12293118081952
"200012",1.81584377939924,5.98998926214976,3.30200070176564,4.91970056345953,14.8098177351875,3.78053254963544,6.34157905588563
"200101",6.92105950133453,1.10418539082442,3.96767159613595,3.56315032676441,9.90982436559142,2.23254525029828,3.58020060108227
"200102",2.31170291187239,3.80494465380929,1.5171413925603,1.63507964056096,4.22471211592045,2.38960108722984,5.89108008671144
"200103",7.31029063913951,4.34737796589237,1.51916705254101,4.32146879588869,7.4477536799461,4.1558156903547,14.9710605711153
"200104",22.8170697832231,10.3419114169549,2.63665863316564,3.60054414956514,2.56402988363275,7.3733191302157,16.5739766579742
"200105",2.31129839999886,0.988440703919434,0.0692791519807514,6.03575598754862,3.46868804385279,4.03048663463238,3.81540802839962
"200106",0.165904445641012,0.0432738552400753,7.66074030902876e-11,1.22141759870957,0.151535320625398,0.395294928421429,0.0658648461194777
"200107",0.0689597545372128,0.0797414159141264,3.33671702630334e-12,0.376125115979509,0.0217032060988197,0.0396225079546427,0.0658048230810903
"200108",0.356034881134391,0.037287401171285,0.00201334418903169,0.292216884650676,0.0289027810919262,0.0939285785654715,0.0413779018523801
"200109",0.179393947745241,0.00792731644271704,0.0194473010760714,0.595335982421229,0.388812899743641,0.0618360364779599,0.0386181891468204
"200110",0.757546821731961,0.0596334073706699,0.0597136994661604,0.15259913239791,1.01155316679061,0.350554120461349,0.182148736137949
"200111",3.06734867199139,1.03659668150362,1.47641330542286,2.77211198201518,2.56458262002289,4.40010904292047,1.8058052431835
"200112",1.41103541117066,7.87200561612964,1.85546440987118,8.2903120374204,6.26633765871053,8.63876060527911,2.00003218246909
"200201",5.30434605968745,3.28827419293436,3.87840472678727,6.82528675840293,9.32106348989204,1.52532013845301,6.9018049966412
"200202",1.04468827448389,1.11052427684045,1.51811215346239,1.57463084629683,1.52734229101446,1.67322156927877,9.7381831992568
"200203",8.75621802058705,5.55353310482926,0.91899294054508,4.74370674920901,1.23668968989745,4.9869431943515,21.4369496679514
"200204",13.9575926411408,25.5596413581796,2.58292854901707,31.7853913300707,9.76129336371572,7.776645411674,6.7760660348744
"200205",1.13057083071629,2.65202536781391,0.0585124250133048,3.2829951024915,0.517049937672806,2.52822601443782,1.9795572506922
"200206",0.41102014469698,0.112507977526739,7.66076332979378e-11,1.19644506150397,0.151534058410198,0.395294222590555,0.0344151553382282
"200207",0.0112248600530259,0.0859799924307089,3.33630552026573e-12,0.959577339278239,0.0217032240366283,0.0426451591598565,0.064027569514553
"200208",0.0737064575400708,0.0160179097765653,0.000215635372876943,0.148475246347239,0.0289024337131192,0.0124590764373142,0.0625794451509538
"200209",1.38507933024677,0.222015773789078,0.0098969723078959,1.00300712515474,0.165010728449838,0.0402954009274794,0.0190490280903165
"200210",0.324418862476197,1.35723439493425,0.0454002883541404,0.820349942025704,1.50796481090099,0.32774144015867,0.0838160266443709
"200211",2.86614167302829,1.93535765833636,1.19627735850162,4.9405525698736,2.96419725171834,2.84509907960214,1.49529096263697
"200212",3.27057093535134,3.34010832598809,2.68238967006739,3.19384995847649,4.61931033756755,3.60883788693688,5.87105848706232
"200301",1.67557250147377,0.204899095671834,1.72154769176649,2.28081684973334,6.19080899174768,1.36637547315384,5.12627178032389
"200302",4.27992468106908,1.05919548450037,2.14151700094481,4.87980653329443,3.8537289193217,2.32951473768124,1.16979039670302
"200303",5.24187830055549,4.78094428239788,1.53028464765653,14.3115358850329,3.26393559758201,1.5390766838572,6.34030987796467
"200304",18.3710851982634,6.33670651820827,2.97245086253272,12.7205695487706,4.33090140152535,0.825426337656828,10.8237094922285
"200305",1.41389783807945,0.0432015312480306,0.0597902065839173,6.14254586728482,0.429618000637321,2.33538936781155,2.48039994290216
"200306",0.025076780614372,0.00964539057541512,4.78166003646155e-11,1.44993502460472,0.144668654658042,0.373748593148877,0.0161885707775699
"200307",0.0273073481410569,0.0206159202148613,3.35865306198821e-12,1.28829392144758,0.0210299899578626,0.0532924833607115,0.0628652460836517
"200308",0.365061896577651,0.0590904716681526,5.29825374244816e-05,0.332049422691759,0.0387981132216071,0.0111870698676629,0.0574045861654721
"200309",1.15945960187725,0.292178433295285,0.0182326361227381,0.622329567607814,0.0827370186354657,0.0449936749912689,0.119972025006363
"200310",0.185578553408516,0.568061967725591,0.182022268156894,3.94623332015909,0.185329733621365,0.655034915611215,0.209653288150993
"200311",4.32060768763654,2.36531350721103,1.40975909654042,1.5116699165799,3.0831390118105,4.31289900541934,1.10493900062971
"200312",1.87868822309088,4.49719686253187,2.12157058102166,4.10664453464754,1.17856311395231,3.03303418819699,12.0797304707086
"200401",3.10786249903349,3.60404141655107,3.48161503749463,3.23723769733766,4.57941464004942,1.18834686581391,3.91058990983145
"200402",0.624380151820779,3.25512856256624,0.398132041113339,5.50226171281888,4.54507506717715,2.89965145749167,8.71095767883429
"200403",5.63919518670291,4.79508943910771,2.12028248240679,4.43115141764243,2.76628564549604,3.9145642117814,4.46076905165673
"200404",9.48003285259535,30.6576351399133,4.52442293252584,7.74599785725266,4.04836506728346,6.34368087007963,8.66523688670397
"200405",1.69570362384312,3.24718742195721,0.102048469025667,2.66529240284495,0.465963697104529,2.50831132472581,1.47433462224334
"200406",0.197787453666734,0.0480876996895956,4.78167314385683e-11,1.20342662348358,0.151526574218994,0.339447504495352,0.0246507404019035
"200407",0.0331683342413595,0.0811425457460226,3.35863799191056e-12,1.39447408159585,0.0212267055057492,0.0532929863656543,0.0460226476832643
"200408",0.304904174772335,0.0375006747614622,0.000835512704634844,0.226127683690288,0.0198190107928605,0.0265541187135318,0.03861664326642
"200409",0.17739998595889,0.091864872594588,0.0185951060692322,0.828590765719283,0.390261949296988,0.049096215098982,0.0896217162878293
"200410",0.66079739581672,0.778453640695365,0.737290946182026,3.34357138663657,1.60846120909598,0.241823505052718,0.256693836180013
"200411",2.34306336436438,0.90581737079783,0.651210977009569,2.4300816506659,2.87480700344859,1.45609228193038,2.12243601566497
"200412",9.00893272192613,3.42483807430457,1.88526328832701,4.31527989713935,11.0624767312044,7.39508063132047,6.61732438194808
"200501",1.77052168429585,1.89181937376873,0.62144692394259,2.40141985886318,6.85109668117603,3.06304170594257,8.93034410535897
"200502",1.05358726694211,0.66414262098933,1.4945075966909,2.83538389601561,3.04743821366325,1.48354521391989,2.1219923938645
"200503",1.59942930056132,2.42718373212587,3.5858563395614,10.0420226103326,3.14858105348449,2.9877668404896,6.7982229987316
"200504",22.1342276856522,8.37945704394869,4.24103153836152,11.9265996960972,10.5603267654492,8.00991919592356,8.51224434796876
"200505",0.816867393655708,1.71028606944285,0.0745757093781241,2.52104793052388,0.670824241531332,2.55981147967077,3.41567999124865
"200506",0.174519321515084,0.033759119895044,7.63622492175880e-11,1.20142793650274,0.151526136273339,0.392899984037475,0.0491621105628144
"200507",0.0395167927783404,0.00879179045252398,3.35864204580717e-12,1.19508933042566,0.0217032621690543,0.043886195163615,0.0418609467655069
"200508",0.119754652213815,0.0146086666763308,0.000406988893158067,0.159705081727647,0.0289308777104293,0.0177084749528942,0.0450545667358829
"200509",0.282596848422614,0.103804569015542,0.0309656874532442,1.87197510580622,0.168545366834327,0.0826360678577524,0.0123254686875203
"200510",0.710049986585417,0.289343846998685,0.136294336698874,0.290837750059041,1.2314808242192,0.345868029641136,0.164585358059714
"200511",4.01286258989115,1.24350331586372,1.5472131029744,3.0193584886061,2.42222229045355,4.23377209681076,0.997363943928648
"200512",6.06216009987019,1.44439744940266,3.00730992011997,4.66731262955104,2.43704596198492,3.55036327641454,3.58210948780617
"200601",3.9368080063575,4.49361202018492,1.37793835740869,4.36628398302533,3.67807992766778,2.95456502103317,6.97620686160231
"200602",3.01873726477202,3.42234567827103,4.24924962658424,3.08336310598957,1.07675061153152,2.06205848574048,6.11120499091136
"200603",8.27362978515057,10.7020248802252,4.77772085505632,7.46942159118672,2.49396069720428,1.77558862262744,5.19851207512498
"200604",35.6690827478752,13.4991621846369,3.3247684050594,5.14152427629895,3.64760969608823,4.87471758699702,13.9756997236371
"200605",0.650941987074738,1.08297878252767,0.0468322089078789,1.41238861707161,4.58820983881641,4.44448035513166,2.39382294192442
"200606",0.643014097188029,0.226765386441468,4.79876333843646e-11,1.35276011329627,0.151526449932576,0.298584495178059,0.019707555231123
"200607",0.0387887575802905,0.0265015590220136,7.04183227661863e-13,0.86250410913619,0.0217031875450504,0.0184038768942849,0.0896946219036826
"200608",0.236900461250365,0.191095918490819,6.74221175463399e-05,0.0460027500184379,0.0189221685155535,0.00771075524761663,0.0598476313504827
"200609",0.0682524626464675,0.330069419484095,0.0206550388672164,0.906773516907828,0.0933616103292653,0.0279991593812482,0.027921470339836
"200610",1.10253620898327,2.5526039867498,0.0272665043516612,3.9727985550382,1.11704183618283,0.329386316874151,0.318600658844875
"200611",1.10721216414729,2.09944039721109,0.529599465934001,8.85691055070553,7.50583322000726,1.95650640492496,5.91080271871708
"200612",10.5740518431414,0.249390657659086,9.28296633300705,12.272146164092,9.20335506224996,5.90593763486498,8.72234428129557
"200701",1.09062998099909,6.39406804185681,1.04919854279458,1.78105806029117,4.31621794176346,3.36894021218796,8.68729495909174
"200702",1.12549501310904,1.18041926171177,0.841040986833233,1.73873247393202,1.2122354105677,2.77519961534145,3.0089822680862
"200703",2.76196559824931,1.84250511649377,1.63463795451075,5.03122686955414,4.32966760739089,1.82801082062184,7.00513772937963
"200704",21.1552136715894,0.513196211858474,3.35485706506841,8.82517828065659,7.57603988721631,5.35415886642661,5.53523131299294
"200705",0.943577513429238,1.09564542779174,0.0583324755912977,1.23214070067981,0.853624185284191,2.54378297700257,5.03271258623148
"200706",0.638125663590228,0.0636287600221086,1.02014413003038e-10,8.01089442150476,0.192513687065927,0.714325834644785,0.0637192730438823
"200707",0.0677642079921139,0.161718637848059,4.47006273067513e-12,1.06179686724401,0.0217031581897091,0.038662869969166,0.133210238717343
"200708",0.199021624006202,0.395772900271001,0.000109716739897553,0.0730016842951406,0.0289320546929073,0.0264589904692753,0.0614906881539347
"200709",0.294894210938863,0.08443261303448,0.0145408967160615,0.661214425247184,0.159666400586967,0.058587684232744,0.071832465206116
"200710",0.370015558455017,0.120813098319508,0.120869927684248,5.29135290225913,0.540497612128455,0.230998154551148,0.0622090466309704
"200711",1.83434551430436,0.917785052726195,1.29423007759084,9.0615856743386,2.54773748571515,4.18883689467765,1.10530151694372
"200712",3.80225030945526,1.23786575340691,2.2440168648869,8.83129641678994,6.56557810729175,5.02294784038039,1.827362083984
"200801",2.72899722250913,9.49348793858525,3.09524432343645,0.641527554055512,3.75929720825233,6.43965985680966,1.04516114427186
"200802",6.86973717740701,3.51096060737695,2.85012045844371,2.45271075350248,5.35421052198034,1.77655923640336,7.14572188097181
"200803",5.67400790754019,2.01289572130403,5.20320880011381,6.20727014193627,10.9341286831467,3.57669373670706,7.79583604522639
"200804",9.11211209734726,11.3016470824653,3.24264241832478,18.3250239954331,0.748887795861527,8.25304333994411,7.79751129160751
"200805",0.926559204032351,0.203988386569211,0.096781559685382,3.07774524217111,1.49810126357295,2.35864060083383,1.66669575565322
"200806",0.745311135312936,0.151068803578932,8.5955877455263e-10,2.31730875294806,0.32297338014195,1.08061526946242,0.493884268773711
"200807",0.0301606146766365,0.00607560519010304,3.33629059632522e-12,0.999533789323632,0.0217032580885694,0.0407141960252482,0.0608479517809525
"200808",0.298447979248389,0.00603688277303365,6.73685711925714e-05,0.692859201537714,0.0608052857284852,0.0226448519730439,0.0457280830621832
"200809",0.227483583551898,0.0716149134653469,0.0206552546421096,0.883888539285971,0.119153376121296,0.072737522783546,0.0207065230926394
"200810",0.262373729357933,2.2102488662919,0.0474636615078556,7.73523250915757,0.669182653257323,0.164340859685689,0.0867577575099483
"200811",4.07068584144724,1.31870003710292,2.39340463712159,3.02588878872569,2.42007485946637,1.50615548009129,1.62293547014583
"200812",5.2292288558862,4.76010856636803,3.24506035670206,4.23003083137289,2.8306562786307,1.33222893844432,6.32633456959509
"200901",6.36680968034729,0.955289004405129,2.47205804114542,2.72495696475302,3.05188941672173,3.45485622271303,4.62874569691993
"200902",6.12645387586679,5.62917354808958,3.94520550593032,4.17980207352945,2.90032223951817,1.36962134988006,3.8247517678635
"200903",5.6684320870263,8.34261020378489,1.7128359992444,4.16184552230894,2.28789733280687,3.23621989280155,8.3576791456336
"200904",7.32646248576915,0.33380843500289,0.708804168537057,15.5072746915259,4.38130122023541,5.1159918845296,4.14431952059719
"200905",0.807454595845692,1.1179556091699,0.220858171639347,8.01220937544573,0.663761360797903,2.27248292090623,1.33622660396515
"200906",0.165471981513351,0.0409422915804527,1.50997604916995e-09,1.16252818543827,0.144671382496687,3.71245463247194,0.0102793365665758
"200907",0.0289586831901629,0.0822676980138694,3.35877397495143e-12,1.02087824868946,0.0217032890076233,0.0547627682528914,0.0489025624506177
"200908",0.295584572891852,0.0910976419010079,0.000856321328106467,0.0569427296233875,0.0299838089257478,0.029984089536782,0.0365318939264051
"200909",0.257318050830223,0.0966036429701983,0.0305432588003462,0.610923411017755,0.126844847639117,0.082961315670562,0.0807965250138695
"200910",0.589695870365338,0.0641454803848522,0.0439580588441847,0.229162193444579,1.39535381211874,0.286943593687275,0.121966183402256
"200911",1.49018705296704,1.57554428062746,4.27088144792358,5.15077326957683,3.32221280570311,6.84944606488232,1.48600219016839
"200912",8.55369269155305,2.51165006263916,3.4134281534356,5.52063176568337,4.3695041069917,5.00794759710227,5.84740065758748
"201001",3.30072884183985,4.02166307450273,3.99305092094433,2.50165202789161,4.79671932461248,0.924808485601164,4.31641675263804
"201002",1.41312477239157,1.10086759090964,3.31637242098946,8.00580950517534,3.05352238966016,0.481443475421078,4.00240292183332
"201003",6.60163739079322,3.91220939479388,5.58835413316452,9.18353947883607,1.84107852061341,4.51887786323396,6.24947896320661
"201004",15.3385912260483,14.493358462189,4.27807119224044,5.18361139183551,12.0034393121605,9.85561123975681,7.53058181128265
"201005",0.899480734037128,5.63646259265845,0.113785866146073,2.07324467608579,2.18899683952927,2.78187405547425,2.72660598096035
"201006",0.12671654524196,0.0266103400380202,8.73800611075359e-11,1.15126188617155,0.151526484134179,0.365343218238133,0.0945771144581257
"201007",0.0654906825917428,0.0373371344525278,4.0606230627158e-13,2.27313523766788,0.0217491533318484,0.0336668186939342,0.0784328233924496
"201008",0.380168568632371,0.0239578702738356,0.00084145192623072,0.341060069305531,0.0289308131928437,0.0361537200345456,0.0322561697636731
"201009",0.245624957737987,0.0448493044374126,0.0305410465612925,1.05382902296768,0.168340928819888,0.0828762445711619,0.00591202244115794
"201010",0.671223143130897,0.00303052699532732,0.075246994961797,0.508710645032059,1.57294510669463,0.345942947034638,0.13438976437063
"201011",3.56194988883413,3.14591090520905,1.57377466731807,4.31568560088148,3.444113233708,4.13135623045701,1.73201784474684
"201012",1.75263752338803,2.63145838009017,4.42642408821251,3.01232498948794,7.00324213052082,1.50227054776059,1.47053625847014
"201101",2.32451492744199,4.30792851568618,3.36419211646255,5.26808940213139,3.59306872592334,1.2690208177609,2.42136531644923
"201102",2.85498815457951,4.10597415709953,2.24382679806623,1.98721063910732,2.41269020083002,3.27183635209682,4.05995529210923
"201103",2.76023379957286,3.26846989458128,1.87455647350155,3.5987397873477,3.17146355406923,3.44150869855738,3.62932839955019
"201104",8.84090139796645,2.59647244972867,2.21307580388689,25.2695493448326,6.42230156283347,10.3760379522059,5.23512879685121
"201105",0.646119672329785,2.14590443170865,0.0683797662463312,3.40294548870289,0.286333798496132,2.59242556038177,3.14674623870453
"201106",0.0389996553608487,0.00671163274426881,7.76019741935759e-11,1.16501680347117,0.106017202329387,0.370651685347304,0.0505799635553949
"201107",0.0209563743546506,0.0405631806780972,3.35877947525404e-12,0.617379444061235,0.0217031770809738,0.0485328707513316,0.0420230759613816
"201108",0.350328616088322,0.0620775031158167,0.000841240709255211,0.677819663036147,0.0289312302359586,0.0340355393918753,0.0317828802043344
"201109",0.402190277855128,0.230191588050615,0.0249372530204695,0.941716929162925,0.18906994284595,0.0545427107099966,0.184800021089417
"201110",0.23895992611264,0.16981538462179,0.116133256806904,10.1906057188371,1.04426137085982,0.142393224577292,0.437386818860064
"201111",2.22202073982801,0.063378744916742,1.46753825666587,3.62578371818323,4.19205906170674,1.3160124837434,2.59894501379202
"201112",5.02667703419299,1.42835332428632,7.86275913601061,5.43042078916275,2.65799897697649,4.46637307372166,5.17928731465125
"201201",1.0476414937268,4.44173700468814,1.01195473118403,3.77612579929728,4.64930292144301,3.95425075982562,2.92251449722501
"201202",5.30468541003721,0.0026218711521657,2.20569474596584,3.22749726053908,6.62931618981239,2.54888310889435,1.79139726856375
"201203",5.33457523576418,1.27573992300316,0.282930264130087,7.09980756182827,4.02066223632839,2.65648313562768,1.28099716739339
"201204",5.43893423584695,15.6361503662494,1.09751220621989,14.5934396495187,7.69103416041889,4.00540476049653,4.32235766588012
"201205",0.558616616429795,1.5213279234022,0.0697135316549155,6.27710397650276,0.37450900580184,2.51735113161801,2.8869050890275
"201206",0.215343050523329,0.0755489003053537,4.77132922355043e-11,1.22361109424413,0.153580455632051,0.301950457855095,0.00328658597103676
"201207",0.0287792086820335,0.0765478649087589,3.35877356844715e-12,1.35159680229662,0.0199585073707923,0.0537115093909378,0.0425630755196706
"201208",0.151069737350944,0.0372026017120811,0.000406940905662095,0.095097095013189,0.0281796879245438,0.0148176943785564,0.0620507933379803
"201209",0.248838231756137,0.0538090500812525,0.0335896681947668,0.272859923640084,0.193672910172831,0.0468513355063194,0.00941821960882201
"201210",0.302877591564058,0.385855451788448,0.480503172386608,0.388558412463499,0.892108284331921,0.466678541832645,0.641206595051436
"201211",1.52855256491693,2.92884688035782,0.860793054208569,4.86625272645602,2.80273589563725,2.23999800623875,3.95202950897637
"201212",5.6290072951769,5.22248275959292,0.99382810213531,6.5524141675729,5.72769998319933,4.30285734647829,8.28212040778364
"201301",2.86916268168145,0.659757494282863,0.680266601801731,7.71426400892475,7.05512614339921,0.902839217765127,10.5606119401785
"201302",4.32630761308491,2.19660473024374,3.88355837380153,6.96827207276055,2.47769015178193,1.47127428935983,6.37746495979929
"201303",8.09284294315111,1.68930503107934,3.40296099760657,13.9977313844382,4.61975265875702,2.61678176196918,6.4864301306163
"201304",5.42990881106035,9.11278253665689,2.78456606034546,16.4443286365447,10.0112397881185,3.68564232980799,16.4082647541937
"201305",0.127251817209815,0.257796087951311,0.0173428807761895,1.6923239740964,0.584660298314873,5.12669180871815,3.09068748196498
"201306",0.460859448147648,0.158130086578447,1.13202480324023e-10,1.50273718404308,0.353475653719865,0.38595257550031,0.137214398868903
"201307",0.0567205634456818,0.0530176587067634,2.44707392661824e-12,2.17442512483577,0.0554940835144847,0.0538964904006278,0.182686072566354
"201308",0.398725828859957,0.112886709107458,0.000479065914897262,0.107220070429897,0.054731620967122,0.0313778853529733,0.145956386016775
"201309",0.452217658459946,1.05218932957871,0.116215186910828,2.50415474583658,0.305614844206714,0.175437619089863,0.0930073570022803
"201310",0.981810871910842,1.25869708616451,0.0916869383383227,5.84001905501639,1.18777594117199,0.102174402137984,0.300423258510577
"201311",0.205467233509638,1.26990376459616,1.1449107601399,6.91129780547852,7.33169876664704,1.97109204527002,2.58479083832729
"201312",3.15806080693305,0.735424742938835,1.6342135953224,2.60395677147579,7.54209409152488,1.5997144627709,7.90929397476005
"201401",3.98937157118451,10.3215460597544,2.4863864015167,4.37509002231488,0.984307931493631,2.82111359381665,9.320247465996
"201402",2.11655710232623,2.94767910379685,3.32240580375909,3.82827752848792,4.80909250424425,2.16947815156072,7.67804320556122
"201403",12.9834446686771,0.800393604156196,2.25827662397556,13.5006975190785,2.08177093146912,4.5689073306937,10.1536990230219
"201404",26.8004847715087,51.6556954354262,2.69019435500043,29.022152357765,2.80115091782841,2.65338773942227,8.71265487177858
"201405",1.15547549072735,1.46830786232507,0.0979766816945264,4.62666514090015,0.847671367222386,4.65992031558511,2.46408352162966
"201406",0.252210084100599,0.0345433884521347,9.93699813785278e-11,2.1346699188186,0.353476029825908,0.424618144679463,0.0415053710701301
"201407",0.0401954860872625,0.0136484561001313,5.91870817774184e-12,2.4017631684979,0.0554939085307733,0.1020500681364,0.164724029045779
"201408",0.425291449681193,0.123345512785709,0.00160019051706536,0.110409596192094,0.0659795520275403,0.0467660163902737,0.123371756995166
"201409",0.282907584950158,1.7116120935907,0.0174988147809457,1.90098542773482,0.248978706104924,0.149244409437937,0.154461409084498
"201410",0.877327361704443,1.24258957218801,0.278306210181044,1.11647728668409,3.39324938979142,0.414330805262213,0.418604161173653
"201411",7.2851813313211,4.57503973150797,0.414891116724322,8.11990335236981,3.54769671122724,1.11138535817099,4.69755166662789
"201412",2.12260268111363,4.64686630644654,2.36107781199469,6.71419218213932,5.36670852629325,1.46878492037893,5.12799762547112
"201501",3.618368360463,5.08625293414401,2.95304306992399,7.37706706472597,9.57997095033928,2.86010345952911,3.65324739342394
"201502",5.67756842064486,1.06973421967682,2.05060508501235,3.17717853569274,6.54888556685234,2.62645647186132,5.30011814646461
"201503",3.86249650858373,5.51106796331841,2.38687865424052,2.99374533755311,7.34752703665451,1.45970161559031,8.25870267834465
"201504",4.40893335177639,11.1480450847035,5.40382812853897,9.07519536646807,12.6418260766878,8.95611318451077,4.23062235513151
"201505",2.26617364045304,6.240652164578,0.992444546188472,2.37621450594934,2.79818723152365,6.79145436283411,6.48448533604621
"201506",0.396693146898235,0.165640992157877,1.35404012675846e-10,1.61376906269221,0.353475611926428,0.371923464713317,0.026553363564879
"201507",0.0435397500032495,0.0136423869539458,5.91870272543003e-12,2.80037232459331,0.0554936954915877,0.101835028827057,0.165725573489934
"201508",0.818552858718704,0.123344501261345,0.00147392623837174,0.0986200357937545,0.0738631139949821,0.0492494747716431,0.127980180177017
"201509",0.181039096617418,0.751460480832321,0.0176179034790058,1.72028732945149,0.643572986787584,0.144013476476811,0.160977137400366
"201510",0.651936457087522,0.425294407429365,0.193438615062859,0.849728212644174,1.6777286955173,0.574803075863519,0.503589197599043
"201511",9.85036108415388,2.51564760692672,0.639752312662732,3.14011357517043,5.35389411081547,3.7469847302349,4.45122535716038
"201512",3.68340590644237,4.00720569393913,1.71637273651346,7.19617187963811,6.30503208559072,2.72692840755632,6.76159255562635
"201601",12.9936461043831,8.6552174674345,1.39613457928251,11.7224896695647,1.91901944112731,3.64949257848616,11.6446119199276
"201602",9.86484943547732,5.12167424145062,1.2458079925034,4.70266426826459,1.25552908371399,4.03713871740704,9.05011555334123
"201603",4.8554402351121,5.10937949997781,1.71534566581371,2.81035011820878,8.23293795806768,3.11622044953818,5.71024161210884
"201604",57.0041101763894,32.4194907444949,6.96712479446652,6.36847554009834,6.19672162774265,20.9413380321032,17.9705536590706
"201605",0.401254996458376,1.01692523001704,0.0452226222356116,1.71105933339745,1.37801933585547,7.43085007051277,7.65996041824439
"201606",0.0279511215495271,0.0630397156673204,1.54088239828501e-10,2.97540136757557,0.358318338445307,0.367261696418643,0.0409592937976025
"201607",0.0415087474687622,0.0136450843522505,5.91868237495721e-12,2.302016551615,0.0554651875327681,0.101835203774485,0.165674957963493
"201608",0.421478038246656,0.123346187135285,0.00160019051706536,0.100349585575358,0.11679041385738,0.0457973858504117,0.121867842037974
"201609",0.180979824993718,0.751326285266662,0.0176187647673795,1.7961634531241,1.17177739417775,0.144015074864098,0.166161866852151
"201610",0.601286083585927,0.451605842017746,0.0267934165042525,1.40120458234898,1.83708899296051,0.603999275881643,0.197069338366594
"201611",2.09735075340593,0.350218057589516,1.05754887164802,2.36043856511054,4.06907493994104,2.19587111068776,1.27779281424772
"201612",4.94324519674339,1.89037449550808,4.32268166156045,6.85108700969793,6.47135484786769,3.70181563398734,5.06751841066058
