"landscape_no","ave_precip","sd_precip","ave_wet","sd_wet","ave_vuli","sd_vuli","ave_masika","sd_masika","vuli_ratio","cv_precip","cv_wet","cv_vuli","cv_masika"
"L18",828.923611111111,132.445849034944,808.921428571429,134.62884397577,456.128571428571,124.524749067212,352.792857142857,73.9331346783115,0.56387252867575,0.159780524115377,0.166430062575455,0.273003615356097,0.209565282236918
"L19",1283.625,223.486796509963,1254.9,224.669980193171,559.228571428571,160.139385190139,695.671428571429,143.64298793604,0.445635964163337,0.174105986179736,0.179034170207324,0.286357660126442,0.206481080056734
"L20",633.604166666667,84.0944489207564,637.707142857143,96.7365373996156,483.842857142857,100.526300438402,153.864285714286,35.8454270843178,0.758722655943727,0.132723951869145,0.151694298053811,0.207766424479263,0.232967819126526
"L22",1176.52777777778,217.317343481319,1138.91428571429,163.260133264203,584.907142857143,163.63039059689,554.007142857143,123.107086420282,0.513565551151473,0.1847107629637,0.143347164323092,0.279754474868594,0.222212092402618
"L03",951.597222222222,136.873054816938,948.207142857143,153.016236711922,669.078571428571,138.344143717182,279.128571428571,71.0600246329843,0.705624901129199,0.14383507183565,0.161374271291453,0.206768157918731,0.254578111689897
"L10",761.5,90.1101904812737,759.364285714286,113.54358036832,536.307142857143,113.359739158949,223.057142857143,48.1390100200896,0.706258054199471,0.118332489141528,0.149524520054978,0.211370929268314,0.215814698437701
"L11",1175.71527777778,160.106249908992,1174.18571428571,142.315261351147,733.042857142857,147.417667521498,441.142857142857,92.0562744633261,0.624298906232891,0.136177740423353,0.121203366400792,0.201103750053688,0.208676787967384
