landscape_no,eplot_no,Shannon_herb,Simpson_herb,richness_herb,land_eplot
0,3,0.8567587921289831,0.41402571570624136,6,L0_3
0,4,1.5121369765329005,0.7423822714681441,6,L0_4
0,6,1.201777476045165,0.5345300209006331,8,L0_6
0,7,2.5071682729898837,0.884560841492683,18,L0_7
0,10,2.6747184786588742,0.9030228020269278,22,L0_10
0,11,0.4384228267003535,0.21129397340187872,3,L0_11
0,12,1.9599707348057793,0.8133359069178976,13,L0_12
0,13,1.653325419358651,0.7440248703260326,9,L0_13
0,14,1.5069474378209904,0.7231716820053131,7,L0_14
0,15,1.9927411390217151,0.8253260687628938,13,L0_15
0,16,1.76255528823775,0.7526191179312751,10,L0_16
0,18,2.055194506174266,0.8346636026412503,12,L0_18
0,20,1.9392608215180585,0.8144433256746512,11,L0_20
0,21,1.1945955236321117,0.525415919483077,11,L0_21
0,22,1.795502893435417,0.7799983986039501,11,L0_22
0,23,1.9396714142879294,0.8219130701895685,10,L0_23
0,24,1.7544526767033184,0.7840369933594089,9,L0_24
0,27,1.8437685476100514,0.7652102950917211,13,L0_27
0,28,0.6968990966234504,0.3411380825374879,4,L0_28
0,29,1.270311504797086,0.5824174659677004,9,L0_29
0,30,2.0381656338651988,0.808417745165791,14,L0_30
0,31,0.4025019302868623,0.2388497243653751,2,L0_31
0,32,1.8586991122713032,0.8108001187935812,10,L0_32
0,33,1.303591259815246,0.6679815618366591,6,L0_33
0,36,0.5475149867711262,0.22159644446222226,7,L0_36
0,37,1.499334475271083,0.7600066310363057,5,L0_37
0,39,1.3613494450285695,0.7050576173573728,6,L0_39
0,40,1.0849732278512798,0.5157872260505347,6,L0_40
0,41,2.037681424047227,0.8161772119017364,13,L0_41
0,42,1.6476114871088556,0.7404802316085943,13,L0_42
0,43,1.8746501282661094,0.8028111386765573,11,L0_43
0,44,1.0073900026973912,0.5952749968178964,4,L0_44
0,45,1.27455418936529,0.6076348766639758,10,L0_45
0,46,0.510295473152123,0.328599425475798,2,L0_46
0,47,1.9543667734682606,0.7959387340058346,14,L0_47
0,48,1.8147522441012125,0.803651215293413,9,L0_48
0,49,1.4963664242920118,0.5885685855037232,13,L0_49
0,51,0.5402041426667008,0.35502958604733736,2,L0_51
0,52,2.141986180372872,0.8526278262429576,12,L0_52
0,53,1.930471569094477,0.8192843011076775,12,L0_53
0,54,1.1623416055632858,0.6027156814334725,9,L0_54
0,56,1.4161438480049575,0.6895055355490243,6,L0_56
0,57,0.41584519747138327,0.19771071847103716,3,L0_57
0,58,0.9502184051700432,0.42118664930958183,7,L0_58
0,59,2.1326866722996054,0.8461076680608639,13,L0_59
0,60,1.9705146229482595,0.826516639204384,13,L0_60
0,61,0.4993382916162759,0.3190792848176627,2,L0_61
0,62,1.939921953093321,0.8133211359979025,11,L0_62
0,63,0.47413931333130593,0.2975206613884298,2,L0_63
0,66,2.008651346287869,0.8513382712327245,9,L0_66
0,67,1.7824151577007024,0.7551330680512555,13,L0_67
0,70,1.8034735598333238,0.7897452192599149,9,L0_70
0,72,1.358165967509977,0.6141796066199771,9,L0_72
0,73,0.29193003438982595,0.15632989914018558,2,L0_73
0,74,1.7127990130267263,0.7342610076939289,12,L0_74
0,75,1.3190066608050643,0.6562157677754326,7,L0_75
0,76,0.6513316847391418,0.26701605371614334,8,L0_76
0,77,1.8835882881692358,0.8214469690713888,12,L0_77
0,78,0.822686147096465,0.4255079435209884,4,L0_78
0,79,1.8495433265531651,0.7545186593740318,11,L0_79
0,80,2.0205980465482276,0.8111338838120198,12,L0_80
0,81,1.3968068251412302,0.5776869352497914,12,L0_81
0,82,1.6849784990391747,0.6680162809399117,13,L0_82
0,83,1.552423239286753,0.7801535086929825,5,L0_83
0,84,1.1034567798311612,0.5909564336866362,6,L0_84
0,85,1.9068216950949892,0.8340560445093461,8,L0_85
0,86,1.1706758818541578,0.5718724187471788,7,L0_86
0,87,0.5035657247853449,0.26756656829881664,3,L0_87
0,88,2.0212287876637762,0.8237717984313355,12,L0_88
0,89,1.1596706421288607,0.6546186948741,6,L0_89
0,90,0.28524467252772345,0.1516728546022783,2,L0_90
0,91,1.4924847842398616,0.7498468163978571,5,L0_91
0,92,1.7125564660644432,0.779844100770432,10,L0_92
0,93,0.3462855236872967,0.19562854744837588,2,L0_93
0,94,1.0492756130455463,0.5761316869053498,4,L0_94
0,96,1.8798667851344055,0.7840419395407319,12,L0_96
0,97,0.08184205864761616,0.027402421589391435,3,L0_97
0,99,0.6033458812529566,0.41292082611110426,2,L0_99
0,100,1.6855562863491476,0.7491561652056242,9,L0_100
0,101,1.280529040376491,0.6379513945581686,6,L0_101
0,102,1.3583891476109538,0.5449777055036179,13,L0_102
0,103,1.673995056601757,0.7064239623949984,12,L0_103
0,105,0.6986370057784695,0.42574978638122807,3,L0_105
0,107,1.3187876970985994,0.6137409210195662,7,L0_107
0,108,2.159822050392086,0.84059894098832,13,L0_108
0,109,0.6586855219527512,0.355885372539684,4,L0_109
0,110,0.5466691929235762,0.2918428838866737,3,L0_110
0,111,1.0548542335613564,0.5910997265951164,6,L0_111
0,112,0.7803631564130504,0.48787070032198,3,L0_112
0,113,0.864510676105281,0.5072402789882076,6,L0_113
0,114,1.861329281600183,0.7912563842879156,12,L0_114
0,115,1.2109578463469748,0.6725979441598836,4,L0_115
0,116,1.118743336172291,0.5972222224444443,4,L0_116
0,117,1.0874517277181848,0.5442269076212429,7,L0_117
0,118,2.3404660991689092,0.8888401798287763,14,L0_118
0,119,1.0107615152766072,0.4232213908936556,8,L0_119
0,120,1.0197702673373095,0.5205858329157922,6,L0_120
0,121,1.6154124574516109,0.7032803237080385,9,L0_121
0,123,1.4759150730063952,0.7125856961245625,7,L0_123
0,124,2.081722839624277,0.83625217306541,12,L0_124
0,125,1.464289420566197,0.6973044054291914,8,L0_125
0,126,1.5320426335672686,0.7592240696762216,6,L0_126
0,127,1.5870194997128524,0.7493356220650533,8,L0_127
0,128,1.1864498643022496,0.592698710692882,8,L0_128
0,129,1.5395661905271534,0.6167591611540814,18,L0_129
0,130,1.5914976780302195,0.7715336423277197,7,L0_130
0,133,0.10337625044303353,0.04185277519642416,2,L0_133
0,134,1.8414880665968119,0.8083574325891868,9,L0_134
0,135,1.6806693547544171,0.7500750065497168,9,L0_135
0,136,0,0,1,L0_136
0,137,0.7409895303312257,0.4070979246963058,6,L0_137
0,138,1.5439748510127433,0.718862213648302,7,L0_138
0,142,1.703305803033877,0.739937075546196,12,L0_142
0,143,1.1252859471125896,0.6231532777707756,4,L0_143
0,145,1.2529346874057223,0.6634850028605839,5,L0_145
0,146,1.5013020200356704,0.6525380682836024,10,L0_146
0,147,1.5369671393896462,0.7446454232041346,7,L0_147
0,148,1.6889420547977327,0.7729488456867943,10,L0_148
0,149,0.5540549100190336,0.2367575585091387,5,L0_149
0,150,0.8149389065019037,0.42104084496363503,4,L0_150
0,152,1.5607104095035045,0.777777778,5,L0_152
0,153,1.784632593258028,0.8109515412523726,7,L0_153
0,154,2.3032387311933453,0.860421157321716,15,L0_154
0,155,1.3502148965945329,0.7132779915357725,6,L0_155
0,156,0.6658797294370707,0.3329688178149358,5,L0_156
0,158,1.7928069944750353,0.7822092184149658,9,L0_158
0,159,1.3017357818873696,0.7131767041621695,4,L0_159
0,160,0.7857778520527139,0.5171826813608458,3,L0_160
0,161,0.4730282347981493,0.2181850467623967,4,L0_161
0,162,0.18950649184210172,0.08953452966343445,2,L0_162
0,163,2.3745942399932667,0.87185220311771,19,L0_163
0,164,0.7908998683456135,0.409507294541805,5,L0_164
0,165,1.4506951706251454,0.6843627629313813,7,L0_165
0,166,1.108321500066453,0.5950959271234226,5,L0_166
0,167,1.772336925446647,0.764593365416684,12,L0_167
0,168,1.504060323737783,0.7350122282191817,6,L0_168
0,169,1.4170536710771162,0.676025851080531,9,L0_169
0,170,1.822654914928837,0.8112732355375865,10,L0_170
0,173,1.1392759350656194,0.5649638252223844,6,L0_173
0,174,1.734764520865108,0.8163265305918368,6,L0_174
0,175,1.4360534446970727,0.7224771668837943,6,L0_175
0,176,1.6407483859225285,0.7463619542274971,10,L0_176
0,177,1.7984586169566805,0.7424950363910972,11,L0_177
0,178,1.1115888622552228,0.6235415621771392,4,L0_178
0,179,1.2666549110813017,0.6566403676472715,6,L0_179
0,180,1.5285426040669892,0.7391591567793929,6,L0_180
0,181,0.6921850374981854,0.49903816555093883,2,L0_181
0,182,1.0452101431035763,0.5217867002759617,6,L0_182
0,183,1.7439466711624736,0.6790224294199283,16,L0_183
0,184,2.2770961422505667,0.8668501054292084,16,L0_184
0,188,1.761488450825963,0.7630461741780413,12,L0_188
0,189,1.4315768708671364,0.7285830077628421,5,L0_189
0,190,0.9939512494247469,0.6069452710610108,3,L0_190
0,192,1.2897412298783695,0.6851843042487514,5,L0_192
0,193,1.8834633938364085,0.8192982821514156,11,L0_193
0,194,2.868080513574791,0.9350274568955472,22,L0_194
0,195,1.8054521922248863,0.7594681823248866,12,L0_195
0,196,1.6340728131729663,0.7711674258428314,6,L0_196
0,197,1.3623511507326982,0.5784888565327179,10,L0_197
0,198,0.5083401027394361,0.26277203672748306,3,L0_198
0,199,1.0106166988267267,0.5046289579434848,5,L0_199
0,200,1.2771167252316786,0.5941324724942345,7,L0_200
0,201,1.196096448975238,0.5865324780921463,7,L0_201
0,202,2.091841393096277,0.8284782927338864,13,L0_202
0,203,0.7146777645700839,0.4011618960670975,3,L0_203
0,204,2.5141653252178036,0.9014665592112607,17,L0_204
0,205,1.5822825371462024,0.7298471396150937,8,L0_205
0,206,1.876605864177186,0.7552817295160154,16,L0_206
0,207,0.6226114278580679,0.33803108513272195,4,L0_207
0,208,1.1963061123565097,0.6232721470964675,6,L0_208
0,209,1.3306228845909436,0.6842796330772247,7,L0_209
0,210,1.297811350882128,0.6158510763600866,7,L0_210
0,211,0.682908104823764,0.48979591848979587,2,L0_211
0,212,0.921140867955949,0.5573746257408276,3,L0_212
0,213,2.1620653186732253,0.8550798380509925,14,L0_213
0,214,1.8969203475686696,0.8095695647556259,12,L0_214
0,215,1.6982944919151848,0.7091644294698991,11,L0_215
0,216,2.233815935640642,0.8642477991112028,15,L0_216
0,218,0,0,1,L0_218
0,219,1.7486498169443754,0.779018955579865,8,L0_219
0,220,1.9605646654648976,0.7924395127911436,17,L0_220
0,222,2.071301761077462,0.8466116695113566,12,L0_222
0,223,1.2352684636503886,0.6032637462893048,7,L0_223
0,224,0,0,1,L0_224
0,225,0.933456995342608,0.5779009937928328,3,L0_225
0,226,1.0485375997708288,0.4104873816872201,10,L0_226
0,227,1.7116294309082338,0.761460700752695,9,L0_227
0,228,0.5982695888470546,0.40816326555102045,2,L0_228
0,229,1.093212108371367,0.5196367156960133,8,L0_229
0,230,1.7272169328463243,0.7711763941672667,11,L0_230
0,231,1.009795070975371,0.4409786926981728,8,L0_231
0,232,1.8302663065155682,0.7923282647780241,10,L0_232
0,233,0.9461180750597253,0.5730310179088267,3,L0_233
0,234,1.3504779221079448,0.6024552715961378,8,L0_234
0,235,1.1322813407081307,0.5996712025008843,5,L0_235
0,236,1.9693702288430859,0.8048196216160997,13,L0_236
0,237,1.4802062204441364,0.7620249968150486,5,L0_237
0,238,0.7059182069430199,0.4260204085510204,3,L0_238
0,239,2.0756334438457706,0.8552175597589059,11,L0_239
0,241,1.3545454968251678,0.7022078765864574,5,L0_241
0,242,1.7749909329359685,0.7907972277718497,8,L0_242
0,243,1.0132349878643108,0.48153715177804357,6,L0_243
0,244,1.3233377630569911,0.659299476200027,7,L0_244
0,245,0.6365141680637638,0.4444444442222222,2,L0_245
0,246,1.3946296435689163,0.6368692848603754,9,L0_246
0,247,1.8033778171216694,0.8025021976702996,8,L0_247
0,248,1.4441264587970122,0.7029748384068799,8,L0_248
0,249,0,0,1,L0_249
0,250,2.0813910555207444,0.8101882482641052,14,L0_250
0,251,1.4493932965455767,0.7213359996932678,7,L0_251
0,252,0.40137973223286494,0.17902460344395477,4,L0_252
0,254,1.8902794946563168,0.7070214850947254,18,L0_254
0,256,1.7729473313400534,0.7827443323591212,13,L0_256
0,257,0.4326086466892754,0.263027806149142,2,L0_257
0,258,0.9697678335028654,0.44723570356267117,10,L0_258
0,260,1.0821955300387673,0.65625,3,L0_260
0,261,1.5065103505713697,0.7243889046657717,7,L0_261
0,263,1.6898526099388629,0.6918840961213832,13,L0_263
0,264,0.6386360003051241,0.44648675215924105,2,L0_264
0,265,1.4132318460936562,0.6176756553273641,8,L0_265
0,266,1.7722544345339168,0.7835433791114772,9,L0_266
0,267,1.026286401622667,0.6183431951952663,3,L0_267
0,268,2.1434112116777313,0.7855559150622844,18,L0_268
0,269,1.4981101479739825,0.7516454348824313,5,L0_269
0,270,0.8525101561840633,0.4950583081740706,3,L0_270
0,271,1.0480184401622386,0.6165373120680413,4,L0_271
0,273,0.5233358970629339,0.2866062404485652,3,L0_273
0,274,0.9180421119729443,0.5696275157485244,3,L0_274
0,275,1.1022664341565458,0.611254324627699,6,L0_275
0,276,2.7215270506443208,0.9229137083610531,20,L0_276
0,277,1.862279787984333,0.8212710412564588,10,L0_277
0,278,0.6615438222541051,0.4332866878311793,3,L0_278
0,279,1.050178494386878,0.6099250644203869,4,L0_279
0,280,0.4101163185443746,0.24489795938775505,2,L0_280
0,281,0.7417487090034971,0.414151925835588,3,L0_281
0,282,0.7768377603872603,0.4430229459296109,3,L0_282
0,283,0.6671142781322961,0.32804982889229617,5,L0_283
0,284,0.7133297952268751,0.4888874999999999,3,L0_284
0,285,1.3142827941798965,0.6269238387928471,7,L0_285
0,286,2.5086344122880733,0.904865428462327,15,L0_286
0,287,1.4719203869503232,0.6673149312402288,9,L0_287
0,288,1.8400463500325372,0.7989667912783398,11,L0_288
0,289,1.651956869761119,0.773644398642714,8,L0_289
0,290,1.2627219612759537,0.6799268401696803,6,L0_290
0,291,1.9591830370664665,0.8336782985298963,11,L0_291
0,292,0,0,1,L0_292
0,293,0.5986523395516766,0.2985849391716795,5,L0_293
0,294,1.5178753657264261,0.6929861002213258,9,L0_294
0,295,1.945156702757296,0.7885576124981022,14,L0_295
0,296,0.8303426884737486,0.4445692919018638,4,L0_296
0,297,1.5071795635116354,0.7482923132542069,7,L0_297
0,298,1.677826380490692,0.7736707085844265,9,L0_298
0,299,1.9978012627136343,0.8035215863690097,15,L0_299
0,300,1.241238826658541,0.635776341959605,6,L0_300
0,301,0.12974069623072568,0.05551020488979597,2,L0_301
0,303,1.949269404982912,0.827477225131226,10,L0_303
0,304,1.6983063801836402,0.7147872467404017,10,L0_304
0,305,1.5079133375130196,0.7256804733964497,6,L0_305
0,306,1.574751087829329,0.7574854387374488,7,L0_306
0,307,1.222944197921132,0.542759840293944,9,L0_307
0,308,0.7916871850395768,0.4001891916615291,6,L0_308
0,309,0.6359834224444136,0.29349729236135735,5,L0_309
0,310,1.6663493725200393,0.7019589034211196,10,L0_310
0,311,1.9784405818320543,0.7844235344531527,14,L0_311
0,312,0.9751423289333142,0.5535069484692352,6,L0_312
0,313,0.8027027362563411,0.44884087138364037,5,L0_313
0,315,2.0147634284139633,0.8016400056540006,14,L0_315
0,316,0.9915890697514823,0.5912054312356045,3,L0_316
0,318,1.1235363848589253,0.5565748194952931,6,L0_318
0,320,1.9230678977429831,0.7921036176808768,12,L0_320
0,321,0.8979258324945931,0.5557894733431579,3,L0_321
0,322,0.5960234750144063,0.3247126305968513,4,L0_322
0,324,0,0,1,L0_324
0,326,0.16658082618972514,0.06456856493115648,3,L0_326
0,327,1.9684733373750334,0.7982764637463556,12,L0_327
0,328,1.3655462496993336,0.6037643283053693,9,L0_328
0,329,1.0436786626393286,0.5934153783283871,5,L0_329
0,330,1.4545717682438575,0.7308121656193698,6,L0_330
0,331,2.0775305274681997,0.8574009303517054,13,L0_331
0,332,2.3519671732192404,0.8557055414219036,19,L0_332
0,334,0.09041329646489832,0.03547902145380655,2,L0_334
0,335,1.44790231081972,0.7492000252061932,5,L0_335
0,336,1.857022859225279,0.8001569994861812,9,L0_336
0,337,0.22371807492417956,0.1107266428719722,2,L0_337
0,338,0.11065559754314705,0.045533331655478904,2,L0_338
0,339,1.5483806631687647,0.6378266931305947,10,L0_339
0,340,2.239103584315587,0.8526573562048801,16,L0_340
0,341,1.7757177201807983,0.7842750613831074,9,L0_341
0,342,1.4803686430887109,0.6749657047308614,7,L0_342
0,343,1.0397207708399179,0.625,3,L0_343
0,344,0,0,1,L0_344
0,345,2.3461584467126033,0.8818181437070987,14,L0_345
0,346,1.7961813162417688,0.7661089608641931,9,L0_346
0,347,0,0,1,L0_347
0,348,0.6840741891782272,0.49095448171772516,2,L0_348
0,349,2.229261540745569,0.8475715606326342,16,L0_349
0,350,1.7676060262802435,0.8022222222444444,7,L0_350
0,351,1.9349783235651583,0.8234641182277259,11,L0_351
0,352,2.392349610488472,0.8751845945984996,19,L0_352
0,353,1.9462652842332595,0.8261091499369422,9,L0_353
0,355,0.40163448090478143,0.1900645624096753,4,L0_355
0,356,1.975005251581973,0.8137925542800187,13,L0_356
0,357,1.7361826403783127,0.7337813866687737,10,L0_357
0,361,1.0407377496372532,0.5775107708444418,4,L0_361
0,362,0.6186912393837075,0.3578830382280731,3,L0_362
0,363,1.9074310288694665,0.8163938444331671,10,L0_363
0,364,0.9510418808710271,0.5552371418741436,6,L0_364
0,365,0,0,1,L0_365
0,366,1.038897944026159,0.4716103494028614,7,L0_366
0,367,1.1970848133220326,0.671629374815214,4,L0_367
0,369,1.6560042862528777,0.7134526100547647,11,L0_369
0,370,0.859967281443487,0.5123966945123968,3,L0_370
0,371,2.205173074714012,0.8614972517201249,15,L0_371
0,372,2.108508195983888,0.8345185591581297,19,L0_372
0,373,1.2139050505564786,0.5613834701311536,7,L0_373
0,375,0.1409847668585808,0.053061463980759505,3,L0_375
0,377,1.0397207708399179,0.625,3,L0_377
0,378,0.8817088024165652,0.508249348735965,4,L0_378
0,380,1.817883035275189,0.8018826342451977,11,L0_380
0,381,1.2109410993038545,0.5974933449688049,6,L0_381
0,383,1.7423616219276155,0.7555526625855906,14,L0_383
0,384,2.7132915864896705,0.9166543469822177,20,L0_384
0,385,0.4101163185443746,0.24489795938775505,2,L0_385
0,386,2.1409572255401796,0.8496307788486956,13,L0_386
0,387,1.525834854185806,0.7310737216669974,7,L0_387
0,388,2.2554328127368426,0.8684132761166155,13,L0_388
0,389,0.8206167360457941,0.4836708026722256,3,L0_389
0,390,1.361215799980866,0.6499372808902169,7,L0_390
0,391,1.2533775003854735,0.6524528606087732,5,L0_391
0,392,1.826301694278232,0.82192831823108925,8,L0_392
0,393,0.5982695888470546,0.40816326555102045,2,L0_393
0,394,0.6564896360382027,0.3140311144795035,6,L0_394
0,395,2.1467380130810185,0.8648479323116774,11,L0_395
0,396,1.2536750519013882,0.6131818585436677,7,L0_396
0,397,1.8782916694420195,0.7879420106356155,10,L0_397
0,399,0.11837239381231897,0.038828271682558424,4,L0_399
L03,1,1.3623166283616108,0.6840514053006637,8,L03_1
L03,2,0.6814915410172336,0.3906913542187872,3,L03_2
L03,3,1.688095316208635,0.7078576370641462,13,L03_3
L03,4,2.2313104951350726,0.8700976649970521,13,L03_4
L03,5,1.5346235749993555,0.7057315761072415,11,L03_5
L03,6,1.3246546184447,0.5884681123601052,8,L03_6
L03,8,1.5347735236573554,0.7329072525493461,8,L03_8
L03,10,2.131972890829233,0.8502421808554792,12,L03_10
L10,1,1.6907718382057118,0.8033240997229917,6,L10_1
L10,2,1.0131054922146514,0.6057328288372095,3,L10_2
L10,4,1.1452529824467281,0.608538775729796,4,L10_4
L10,5,0.7902679684971335,0.4615384618461539,3,L10_5
L10,7,0.9201710591279488,0.5706173715950407,3,L10_7
L10,8,0.8263205995563692,0.4969471459264069,3,L10_8
L11,2,1.2713182591342553,0.5772952546335487,9,L11_2
L11,3,1.191031509886391,0.6406269549558343,7,L11_3
L11,4,1.5872031588962758,0.7327861069047898,11,L11_4
L11,5,1.1330609402504248,0.4679943741168274,10,L11_5
L11,6,1.4598690270908645,0.6949343849342673,8,L11_6
L11,8,1.5144867745514818,0.605853438357137,12,L11_8
L11,11,2.3574507916560328,0.8857138892164481,17,L11_11
L11,12,2.3129955562549926,0.8317377596410982,20,L11_12
L11,13,1.6805461838263802,0.7075524930269663,13,L11_13
L11,14,2.1364765186706105,0.8417859826715111,16,L11_14
L18,1,0,0,1,L18_1
L18,2,0.9743147528693494,0.59375,3,L18_2
L18,4,0.9461564779843328,0.5221652933165859,4,L18_4
L18,6,0,0,1,L18_6
L18,10,0,0,1,L18_10
L18,13,0.6709479088198279,0.47796549023855095,2,L18_13
L19,5,1.654587154322017,0.762975779100346,8,L19_5
L19,8,1.3031387987102834,0.6303044362544639,9,L19_8
L19,13,1.3538923075387073,0.608515879809395,7,L19_13
L20,1,1.4277704838551757,0.7191582844530005,5,L20_1
L20,2,1.0894996424021888,0.5777544133644676,4,L20_2
L20,3,1.8278703227604662,0.8208335353301075,8,L20_3
L20,4,0.974288461052098,0.4746535954794827,5,L20_4
L20,6,1.6610643327016419,0.6768680563881198,12,L20_6
L20,7,1.1998026557808088,0.5550757820447643,7,L20_7
L20,8,1.0277766061717248,0.5047259105225428,7,L20_8
L20,9,0.579915171755301,0.3911111114222221,2,L20_9
L20,10,1.998823498545182,0.8105312499999999,13,L20_10
L22,1,0.3124647806695602,0.17087931706443582,2,L22_1
L22,2,0.5091373423077536,0.25510203969387757,3,L22_2
L22,3,0,0,1,L22_3
L22,4,0.6380783897848077,0.3244057659485906,4,L22_4
L22,6,1.5752052530307281,0.7507078892151959,8,L22_6
L22,7,0.5959902678895085,0.3177393190773391,3,L22_7
L22,8,0.8794269072392634,0.5369335776881273,6,L22_8
L22,11,0.9583111556482633,0.4697195995636394,5,L22_11
L22,13,0.611923629775421,0.37877267643436785,3,L22_13
