"","var","lsc","landcover","ave","mdn"
"1","sodic","L03","Forest",0,0
"2","sodic","L03","Grassland",NA,NA
"3","sodic","L03","Mosaic forest or shrubland / grassland",NA,NA
"4","sodic","L03","Mosaic vegetation / cropland",0,0
"5","sodic","L03","Riparian or mangrove forest",NA,NA
"6","sodic","L03","Short-duration crops",NA,NA
"7","sodic","L03","Shrubland",0,0
"8","sodic","L03","Woodland",0,0
