"","var","lsc","landcover","ave","mdn"
"1","crust","L11","Forest",0.6,0
"2","crust","L11","Grassland",NA,NA
"3","crust","L11","Mosaic forest or shrubland / grassland",NA,NA
"4","crust","L11","Mosaic vegetation / cropland",0.2,0
"5","crust","L11","Riparian or mangrove forest",NA,NA
"6","crust","L11","Short-duration crops",NA,NA
"7","crust","L11","Shrubland",0.9,0.5
"8","crust","L11","Woodland",0.9,0.5
