"","var","lsc","landcover","ave","mdn"
"1","herbaceous","L10","Forest",NA,NA
"2","herbaceous","L10","Grassland",NA,NA
"3","herbaceous","L10","Mosaic forest or shrubland / grassland",NA,NA
"4","herbaceous","L10","Mosaic vegetation / cropland",0.8,0
"5","herbaceous","L10","Riparian or mangrove forest",NA,NA
"6","herbaceous","L10","Short-duration crops",NA,NA
"7","herbaceous","L10","Shrubland",0.2,0
"8","herbaceous","L10","Woodland",1.2,1
