"","var","lsc","landcover","ave","mdn"
"1","herbaceous","L20","Forest",NA,NA
"2","herbaceous","L20","Grassland",0.8,0
"3","herbaceous","L20","Mosaic forest or shrubland / grassland",NA,NA
"4","herbaceous","L20","Mosaic vegetation / cropland",1.125,1
"5","herbaceous","L20","Riparian or mangrove forest",NA,NA
"6","herbaceous","L20","Short-duration crops",NA,NA
"7","herbaceous","L20","Shrubland",NA,NA
"8","herbaceous","L20","Woodland",NA,NA
