"","var","lsc","landcover","ave","mdn"
"1","litter","L22","Forest",3.075,3
"2","litter","L22","Grassland",NA,NA
"3","litter","L22","Mosaic forest or shrubland / grassland",NA,NA
"4","litter","L22","Mosaic vegetation / cropland",NA,NA
"5","litter","L22","Riparian or mangrove forest",NA,NA
"6","litter","L22","Short-duration crops",4,4
"7","litter","L22","Shrubland",NA,NA
"8","litter","L22","Woodland",NA,NA
