"","var","lsc","landcover","ave","mdn"
"1","mass","L22","Forest",1.66666666666667,1
"2","mass","L22","Grassland",NA,NA
"3","mass","L22","Mosaic forest or shrubland / grassland",NA,NA
"4","mass","L22","Mosaic vegetation / cropland",NA,NA
"5","mass","L22","Riparian or mangrove forest",NA,NA
"6","mass","L22","Short-duration crops",0.305555555555556,0
"7","mass","L22","Shrubland",NA,NA
"8","mass","L22","Woodland",NA,NA
