"","var","lsc","landcover","ave","mdn"
"1","dung","L03","Forest",0,0
"2","dung","L03","Grassland",NA,NA
"3","dung","L03","Mosaic forest or shrubland / grassland",NA,NA
"4","dung","L03","Mosaic vegetation / cropland",0.12,0
"5","dung","L03","Riparian or mangrove forest",NA,NA
"6","dung","L03","Short-duration crops",NA,NA
"7","dung","L03","Shrubland",0.4,0
"8","dung","L03","Woodland",0,0
