"","var","lsc","landcover","ave","mdn"
"1","porous","L10","Forest",NA,NA
"2","porous","L10","Grassland",NA,NA
"3","porous","L10","Mosaic forest or shrubland / grassland",NA,NA
"4","porous","L10","Mosaic vegetation / cropland",0.64,0
"5","porous","L10","Riparian or mangrove forest",NA,NA
"6","porous","L10","Short-duration crops",NA,NA
"7","porous","L10","Shrubland",0,0
"8","porous","L10","Woodland",2.8,4
