"","var","lsc","landcover","ave","mdn"
"1","litter","L10","Forest",NA,NA
"2","litter","L10","Grassland",NA,NA
"3","litter","L10","Mosaic forest or shrubland / grassland",NA,NA
"4","litter","L10","Mosaic vegetation / cropland",2.28,2
"5","litter","L10","Riparian or mangrove forest",NA,NA
"6","litter","L10","Short-duration crops",NA,NA
"7","litter","L10","Shrubland",1.4,1
"8","litter","L10","Woodland",2,2
