"","var","lsc","landcover","ave","mdn"
"1","densiometer_n","L03","Forest",67.6,86
"2","densiometer_n","L03","Grassland",NA,NA
"3","densiometer_n","L03","Mosaic forest or shrubland / grassland",NA,NA
"4","densiometer_n","L03","Mosaic vegetation / cropland",0,0
"5","densiometer_n","L03","Riparian or mangrove forest",NA,NA
"6","densiometer_n","L03","Short-duration crops",NA,NA
"7","densiometer_n","L03","Shrubland",6.6,0
"8","densiometer_n","L03","Woodland",46.6,48
