"","var","lsc","landcover","ave","mdn"
"1","dung","L20","Forest",NA,NA
"2","dung","L20","Grassland",0,0
"3","dung","L20","Mosaic forest or shrubland / grassland",NA,NA
"4","dung","L20","Mosaic vegetation / cropland",0.475,0
"5","dung","L20","Riparian or mangrove forest",NA,NA
"6","dung","L20","Short-duration crops",NA,NA
"7","dung","L20","Shrubland",NA,NA
"8","dung","L20","Woodland",NA,NA
