"","var","lsc","landcover","ave","mdn"
"1","densiometer_s","L10","Forest",NA,NA
"2","densiometer_s","L10","Grassland",NA,NA
"3","densiometer_s","L10","Mosaic forest or shrubland / grassland",NA,NA
"4","densiometer_s","L10","Mosaic vegetation / cropland",14.12,4
"5","densiometer_s","L10","Riparian or mangrove forest",NA,NA
"6","densiometer_s","L10","Short-duration crops",NA,NA
"7","densiometer_s","L10","Shrubland",5,2
"8","densiometer_s","L10","Woodland",31.8,47
