"","var","lsc","landcover","ave","mdn"
"1","termite","L22","Forest",0.075,0
"2","termite","L22","Grassland",NA,NA
"3","termite","L22","Mosaic forest or shrubland / grassland",NA,NA
"4","termite","L22","Mosaic vegetation / cropland",NA,NA
"5","termite","L22","Riparian or mangrove forest",NA,NA
"6","termite","L22","Short-duration crops",0,0
"7","termite","L22","Shrubland",NA,NA
"8","termite","L22","Woodland",NA,NA
