"","var","lsc","landcover","ave","mdn"
"1","sealed","L20","Forest",NA,NA
"2","sealed","L20","Grassland",0,0
"3","sealed","L20","Mosaic forest or shrubland / grassland",NA,NA
"4","sealed","L20","Mosaic vegetation / cropland",0.425,0
"5","sealed","L20","Riparian or mangrove forest",NA,NA
"6","sealed","L20","Short-duration crops",NA,NA
"7","sealed","L20","Shrubland",NA,NA
"8","sealed","L20","Woodland",NA,NA
