Crop,zaocode,CropGroup
Maize,11,Maize
Paddy,12,Rice
Sorghum,13,Sorghum
Bulrush Millet,14,Millet
Finger Millet,15,Millet
Wheat,16,Wheat
Seaweed,19,NA
Cassava,21,Cassava
Sweet Potatoes,22,Sweet potato
Irish potatoes,23,Potato
Yams,24,Roots other
Cocyams,25,Roots other
Onions,26,Vegetables
Beans,31,Pulses
Cowpeas,32,Pulses
Green gram,33,Pulses
Pigeon pea,34,Pulses
Chickpeas,35,Pulses
Bambara nuts,36,Pulses
Field peas,37,Pulses
Sunflower,41,Sunflower
Sesame,42,Sesame
Sesame/Simsim,42,Sesame
Groundnut,43,Groundnut
Coconut,45,Coconut
Soyabeans,47,Soybean
Cotton,50,Cotton
Tobacco,51,Tobacco
Pyrethrum,52,Sunflower
Coffee,54,Coffee
Cocoa,56,Cocoa
Passion Fruit,70,Fruits other
Banana,71,Banana
Pineapple,75,Fruits other
Plums,81,Fruits other
Cabbage,86,Vegetables
Tomatoes,87,Vegetables
Spinach,88,Vegetables
Carrot,89,Roots other
Chilies,90,Vegetables
Amaranth,91,Cereals other
Pumpkin,92,Vegetables
Cucumber,93,Vegetables
Eggplant,94,Vegetables
Watermelon,95,Fruits other
Cauliflower,96,Vegetables
Bilimbi,98,Fruits other
Okra,100,Vegetables
Kiwi,101,Fruits other
102,102,NA
Other,998,NA
Timber,NA,NA
Cashew nut,NA,NA
sugar Cane,NA,Sugar cane